\relax 
\providecommand\hyper@newdestlabel[2]{}
\providecommand\HyperFirstAtBeginDocument{\AtBeginDocument}
\HyperFirstAtBeginDocument{\ifx\hyper@anchor\@undefined
\global\let\oldcontentsline\contentsline
\gdef\contentsline#1#2#3#4{\oldcontentsline{#1}{#2}{#3}}
\global\let\oldnewlabel\newlabel
\gdef\newlabel#1#2{\newlabelxx{#1}#2}
\gdef\newlabelxx#1#2#3#4#5#6{\oldnewlabel{#1}{{#2}{#3}}}
\AtEndDocument{\ifx\hyper@anchor\@undefined
\let\contentsline\oldcontentsline
\let\newlabel\oldnewlabel
\fi}
\fi}
\global\let\hyper@last\relax 
\gdef\HyperFirstAtBeginDocument#1{#1}
\providecommand\HyField@AuxAddToFields[1]{}
\providecommand\HyField@AuxAddToCoFields[2]{}
\citation{Her30}
\citation{Bus95}
\citation{Mil87}
\citation{Sta79}
\citation{Ore79}
\citation{Pud98}
\citation{Het10}
\citation{Het12}
\select@language{UKenglish}
\@writefile{toc}{\select@language{UKenglish}}
\@writefile{lof}{\select@language{UKenglish}}
\@writefile{lot}{\select@language{UKenglish}}
\@writefile{toc}{\contentsline {section}{\numberline {1}Introduction}{0}{section.1}}
\citation{JKV09}
\citation{JKV11}
\citation{Het12}
\providecommand*\caption@xref[2]{\@setref\relax\@undefined{#1}}
\newlabel{fig:Pi1cut}{{1}{1}{$\Pi _1$ cut.\relax }{figure.caption.1}{}}
\newlabel{fig:square}{{2}{1}{Proof grammars.\relax }{figure.caption.1}{}}
\@writefile{toc}{\contentsline {subsection}{\numberline {1.1}Contributions}{1}{subsection.1.1}}
\newlabel{thm:Theorem1}{{1}{1}{}{theorem.1.1}{}}
\newlabel{thm:Theorem2}{{2}{1}{}{theorem.1.2}{}}
\citation{Ger05}
\citation{Hei10}
\citation{McK13}
\citation{Hei10}
\citation{McK13}
\citation{Mil87}
\citation{HW13}
\citation{HB39}
\citation{Loh12}
\citation{JKV11}
\@writefile{toc}{\contentsline {subsection}{\numberline {1.2}Related work}{2}{subsection.1.2}}
\@writefile{toc}{\contentsline {section}{\numberline {2}Proof calculus}{2}{section.2}}
\newlabel{sec:Calculus}{{2}{2}{Proof calculus}{section.2}{}}
\newlabel{fig:calculus}{{3}{2}{Axioms and rules of sequent calculus.\relax }{figure.caption.3}{}}
\newlabel{fig:reductionsteps}{{4}{3}{One-step cut reduction and permutation rules.\relax }{figure.caption.4}{}}
\citation{Coq95}
\citation{Her95}
\citation{Urb00}
\citation{BBS05}
\citation{BHLRS05}
\citation{Sei03}
\citation{RT12}
\newlabel{defn:SimplePi2}{{3}{4}{Simple $\Pi _2$-proof}{theorem.2.3}{}}
\citation{Urb00}
\citation{Het12}
\citation{JKV09}
\citation{JKV11}
\newlabel{ex:Pi2Proof}{{5}{5}{Simple $\Pi _2$-proof $\pi _\infty $ of pigeonhole principle. The inference rules labelled $\exists ^*$ represent finitely many existential introduction rules (the order of which is unimportant).\relax }{figure.caption.7}{}}
\@writefile{toc}{\contentsline {section}{\numberline {3}Context-free tree grammars}{5}{section.3}}
\newlabel{sec:Grammars}{{3}{5}{Context-free tree grammars}{section.3}{}}
\@writefile{toc}{\contentsline {subsection}{\numberline {3.1}Rigidity}{6}{subsection.3.1}}
\newlabel{sec:RigidCFGs}{{3.1}{6}{Rigidity}{subsection.3.1}{}}
\newlabel{defn:RigidDerivation}{{4}{6}{}{theorem.3.4}{}}
\newlabel{ex:RFG}{{5}{6}{}{theorem.3.5}{}}
\newlabel{lem:BoundedLang}{{6}{6}{}{theorem.3.6}{}}
\citation{Het12}
\@writefile{toc}{\contentsline {section}{\numberline {4}Proof grammars}{7}{section.4}}
\newlabel{sec:ProofGrammars}{{4}{7}{Proof grammars}{section.4}{}}
\@writefile{toc}{\contentsline {subsection}{\numberline {4.1}Elementary proof grammars}{7}{subsection.4.1}}
\newlabel{sec:Diagrammatic}{{4.1}{7}{Elementary proof grammars}{subsection.4.1}{}}
\newlabel{fig:start&endProd}{{6}{8}{Start and terminal production rules in $\E _\pi $ and $\G _\pi $.\relax }{figure.caption.8}{}}
\newlabel{fig:InternalProd}{{7}{8}{Internal production rules in $\E _\pi $ and $\G _\pi $.\relax }{figure.caption.9}{}}
\newlabel{ex:diagrammatic}{{7}{8}{Elementary proof grammar for $\pi _\infty $}{theorem.4.7}{}}
\@writefile{toc}{\contentsline {subsection}{\numberline {4.2}Typed proof grammars}{9}{subsection.4.2}}
\newlabel{sec:ProperGrammars}{{4.2}{9}{Typed proof grammars}{subsection.4.2}{}}
\newlabel{ex:PrfGrammarTypes}{{8}{9}{Types of non-terminals in $\pi _\infty $}{theorem.4.8}{}}
\newlabel{ex:PrfGrammar}{{9}{10}{Proof grammar for $\pi _\infty $}{theorem.4.9}{}}
\newlabel{thm:LanguageBound}{{10}{11}{Language bound}{theorem.4.10}{}}
\@writefile{toc}{\contentsline {section}{\numberline {5}Language containment}{11}{section.5}}
\newlabel{sec:Containment}{{5}{11}{Language containment}{section.5}{}}
\newlabel{lem:LocalReduction}{{11}{11}{Local reduction}{theorem.5.11}{}}
\newlabel{thm:GlobalReduction}{{12}{12}{Global Reduction}{theorem.5.12}{}}
\citation{Tak13}
\citation{TS00}
\citation{McK13}
\citation{Hei10}
\citation{HW13}
\citation{Ger05}
\citation{HS12}
\citation{Bar84}
\citation{HS12}
\citation{AHL15}
\citation{HS12}
\citation{HLW12}
\citation{HLRW14}
\citation{HLRTW14}
\citation{EHXXInductive}
\newlabel{thm:MainTheorem1}{{13}{13}{}{theorem.5.13}{}}
\newlabel{thm:MainTheorem2}{{14}{13}{}{theorem.5.14}{}}
\newlabel{eqn:Theorem12}{{1}{13}{}{equation.5.1}{}}
\newlabel{eqn:Theorem12b}{{5}{13}{Language containment}{equation.5.1}{}}
\@writefile{toc}{\contentsline {section}{\numberline {6}Conclusion}{13}{section.6}}
\newlabel{sec:Conclusion}{{6}{13}{Conclusion}{section.6}{}}
\citation{EHXXCompressibility}
\citation{Het12}
\bibstyle{plain}
\bibdata{references}
\newlabel{LastPage}{{}{14}{}{page.14}{}}
\xdef\lastpage@lastpage{14}
\xdef\lastpage@lastpageHy{14}
