\relax 
\providecommand\hyper@newdestlabel[2]{}
\providecommand\HyperFirstAtBeginDocument{\AtBeginDocument}
\HyperFirstAtBeginDocument{\ifx\hyper@anchor\@undefined
\global\let\oldcontentsline\contentsline
\gdef\contentsline#1#2#3#4{\oldcontentsline{#1}{#2}{#3}}
\global\let\oldnewlabel\newlabel
\gdef\newlabel#1#2{\newlabelxx{#1}#2}
\gdef\newlabelxx#1#2#3#4#5#6{\oldnewlabel{#1}{{#2}{#3}}}
\AtEndDocument{\ifx\hyper@anchor\@undefined
\let\contentsline\oldcontentsline
\let\newlabel\oldnewlabel
\fi}
\fi}
\global\let\hyper@last\relax 
\gdef\HyperFirstAtBeginDocument#1{#1}
\providecommand\HyField@AuxAddToFields[1]{}
\providecommand\HyField@AuxAddToCoFields[2]{}
\bibstyle{plain}
\citation{RonchiPaolini}
\citation{Lafont}
\citation{Lago1}
\citation{Schwichtenberg}
\citation{Girard}
\citation{ProofsAndTypes}
\citation{Leivant}
\citation{Statman}
\citation{Schubert}
\select@language{UKenglish}
\@writefile{toc}{\select@language{UKenglish}}
\@writefile{lof}{\select@language{UKenglish}}
\@writefile{lot}{\select@language{UKenglish}}
\@writefile{toc}{\contentsline {section}{\numberline {1}Introduction}{286}{section.1}}
\citation{GaboardiRocca}
\citation{BaillotTerui}
\citation{ChrzaszczSchubert}
\citation{RonchiPaolini}
\citation{Redmond}
\citation{RonchiPaolini}
\citation{RonchiPaolini}
\citation{RonchiPaolini}
\@writefile{toc}{\contentsline {section}{\numberline {2}An Instance of the Parametric Lambda Calculus}{287}{section.2}}
\citation{HindleySeldin}
\citation{RonchiPaolini}
\citation{RonchiPaolini}
\citation{Redmond}
\citation{RonchiPaolini}
\newlabel{confluence}{{1}{288}{confluence}{theorem.2.1}{}}
\citation{RonchiPaolini}
\newlabel{lem}{{2}{289}{}{theorem.2.2}{}}
\newlabel{sn}{{3}{289}{strong normalization}{theorem.2.3}{}}
\@writefile{toc}{\contentsline {section}{\numberline {3}The Parametric Lambda Calculus and Polynomial Time}{290}{section.3}}
\newlabel{strings}{{3}{290}{Boolean Strings}{section*.2}{}}
\newlabel{soundness}{{5}{290}{soundness}{theorem.3.5}{}}
\@writefile{toc}{\contentsline {subsection}{\numberline {3.1}Polynomial Time Completeness}{291}{subsection.3.1}}
\newlabel{iteration}{{3.1}{291}{Polynomial Time Completeness}{subsection.3.1}{}}
\newlabel{iter}{{1}{291}{Polynomial Time Completeness}{equation.3.1}{}}
\newlabel{TM}{{3.1}{292}{Space-Bounded Turing Machines}{section*.5}{}}
\citation{Lafont}
\newlabel{ptime}{{6}{293}{completeness}{theorem.3.6}{}}
\@writefile{toc}{\contentsline {section}{\numberline {4}Various Extensions}{293}{section.4}}
\citation{RonchiPaolini}
\citation{RonchiPaolini}
\@writefile{toc}{\contentsline {subsection}{\numberline {4.1}$\Phi $-valuability}{294}{subsection.4.1}}
\newlabel{con2}{{7}{294}{}{theorem.4.7}{}}
\newlabel{wn}{{8}{294}{weak normalization}{theorem.4.8}{}}
\@writefile{toc}{\contentsline {subsection}{\numberline {4.2}Explicit Products and Nondeterminism}{294}{subsection.4.2}}
\citation{RonchiPaolini}
\citation{RonchiPaolini}
\citation{RonchiPaolini}
\citation{MairsonTerui}
\citation{Redmond}
\citation{Redmond}
\newlabel{con3}{{9}{295}{}{theorem.4.9}{}}
\newlabel{con4}{{10}{295}{}{theorem.4.10}{}}
\citation{MairsonTerui}
\citation{Barendregt}
\citation{RonchiPaolini}
\citation{HindleySeldin}
\@writefile{toc}{\contentsline {section}{\numberline {5}Conclusion}{297}{section.5}}
\citation{HindleySeldin}
\bibdata{mybib}
\bibcite{Lago1}{1}
\bibcite{BaillotTerui}{2}
\bibcite{Barendregt}{3}
\bibcite{ChrzaszczSchubert}{4}
\bibcite{GaboardiRocca}{5}
\bibcite{Girard}{6}
\bibcite{ProofsAndTypes}{7}
\bibcite{HindleySeldin}{8}
\bibcite{Lafont}{9}
\bibcite{Leivant}{10}
\bibcite{MairsonTerui}{11}
\bibcite{Redmond}{12}
\bibcite{RonchiPaolini}{13}
\bibcite{Schubert}{14}
\bibcite{Schwichtenberg}{15}
\bibcite{Statman}{16}
\newlabel{LastPage}{{}{299}{}{page.299}{}}
\xdef\lastpage@lastpage{299}
\xdef\lastpage@lastpageHy{299}
