\relax 
\providecommand\hyper@newdestlabel[2]{}
\providecommand\HyperFirstAtBeginDocument{\AtBeginDocument}
\HyperFirstAtBeginDocument{\ifx\hyper@anchor\@undefined
\global\let\oldcontentsline\contentsline
\gdef\contentsline#1#2#3#4{\oldcontentsline{#1}{#2}{#3}}
\global\let\oldnewlabel\newlabel
\gdef\newlabel#1#2{\newlabelxx{#1}#2}
\gdef\newlabelxx#1#2#3#4#5#6{\oldnewlabel{#1}{{#2}{#3}}}
\AtEndDocument{\ifx\hyper@anchor\@undefined
\let\contentsline\oldcontentsline
\let\newlabel\oldnewlabel
\fi}
\fi}
\global\let\hyper@last\relax 
\gdef\HyperFirstAtBeginDocument#1{#1}
\providecommand\HyField@AuxAddToFields[1]{}
\providecommand\HyField@AuxAddToCoFields[2]{}
\citation{miquel2009modaleffects}
\citation{hyland82}
\citation{krivine2009realizabilitypanorama}
\citation{streicher2013krivine}
\citation{ferrer2014ordered}
\citation{hjp80}
\select@language{USenglish}
\@writefile{toc}{\select@language{USenglish}}
\@writefile{lof}{\select@language{USenglish}}
\@writefile{lot}{\select@language{USenglish}}
\@writefile{toc}{\contentsline {section}{\numberline {1}Introduction}{0}{section.1}}
\MT@newlabel{eq:red-rel}
\MT@newlabel{eq:ex-rel}
\citation{krivine2010ralgs}
\citation{miquel2009modaleffects}
\citation{krivine2009realizabilitypanorama}
\citation{krivine2009realizabilitypanorama}
\MT@newlabel{eq:transsys}
\@writefile{toc}{\contentsline {subsection}{\numberline {1.1}Related work}{1}{subsection.1.1}}
\MT@newlabel{eq:ex-rel}
\@writefile{toc}{\contentsline {section}{\numberline {2}Syntax and machine}{1}{section.2}}
\newlabel{sec:synmach}{{2}{1}{Syntax and machine}{section.2}{}}
\@writefile{toc}{\contentsline {subsection}{\numberline {2.1}Krivine's machine}{1}{subsection.2.1}}
\newlabel{sec:kam}{{2.1}{1}{Krivine's machine}{subsection.2.1}{}}
\newlabel{eq:grammar-basic}{{1}{1}{Krivine's machine}{equation.2.1}{}}
\newlabel{eq:red-rel}{{2}{2}{Krivine's machine}{equation.2.2}{}}
\@writefile{toc}{\contentsline {subsection}{\numberline {2.2}The machine with I/O}{2}{subsection.2.2}}
\newlabel{eq:grammar-extended}{{2.2}{2}{The machine with I/O}{subsection.2.2}{}}
\newlabel{eq:ex-rel}{{3}{2}{The machine with I/O}{equation.2.3}{}}
\MT@newlabel{eq:red-rel}
\@writefile{toc}{\contentsline {subsection}{\numberline {2.3}Representing functions}{2}{subsection.2.3}}
\citation{barendregt1984lambda}
\citation{milner1990operational}
\newlabel{def:compute}{{1}{3}{}{theorem.2.1}{}}
\@writefile{toc}{\contentsline {subsection}{\numberline {2.4}$\beta $-reduction}{3}{subsection.2.4}}
\newlabel{sec:beta}{{2.4}{3}{\texorpdfstring {$\beta $}{β}-reduction}{subsection.2.4}{}}
\@writefile{toc}{\contentsline {section}{\numberline {3}Bisimulation and $\top $-equivalence}{3}{section.3}}
\newlabel{sec:bisim}{{3}{3}{Bisimulation and \texorpdfstring {$\top $}{T}-equivalence}{section.3}{}}
\citation{milner1990operational}
\citation{milner1990operational}
\newlabel{eq:transsys}{{4}{4}{Bisimulation and \texorpdfstring {$\top $}{T}-equivalence}{equation.3.4}{}}
\MT@newlabel{eq:red-rel}
\MT@newlabel{eq:ex-rel}
\newlabel{eq:wbs}{{5}{4}{}{equation.3.5}{}}
\newlabel{lem:wbs-erel}{{3}{4}{}{theorem.3.3}{}}
\newlabel{lem:gamma-bisim}{{5}{4}{}{theorem.3.5}{}}
\MT@newlabel{eq:wbs}
\MT@newlabel{eq:ex-rel}
\MT@newlabel{eq:transsys}
\newlabel{cor:tequiv}{{7}{5}{}{theorem.3.7}{}}
\MT@newlabel{eq:ex-rel}
\MT@newlabel{eq:ex-rel}
\MT@newlabel{eq:transsys}
\@writefile{toc}{\contentsline {section}{\numberline {4}Expressivity}{5}{section.4}}
\newlabel{sec:exp}{{4}{5}{Expressivity}{section.4}{}}
\citation{krivine1991lambda}
\citation{hindley2008lambda}
\citation{krivine1991lambda}
\citation{hindley2008lambda}
\citation{vanoosten2008realizability}
\citation{krivine2009realizabilitypanorama}
\citation{streicher2013krivine}
\citation{ferrer2014ordered}
\citation{miquel2011existential}
\citation{friedman1977classically}
\citation{miquel2011existential}
\citation{miquel2011forcing}
\newlabel{theo:turing}{{12}{7}{}{theorem.4.12}{}}
\@writefile{toc}{\contentsline {section}{\numberline {5}Realizability and Triposes}{7}{section.5}}
\newlabel{sec:real}{{5}{7}{Realizability and Triposes}{section.5}{}}
\@writefile{toc}{\contentsline {subsection}{\numberline {5.1}Krivine's classical realizability}{7}{subsection.5.1}}
\newlabel{sec:krivinereal}{{5.1}{7}{Krivine's classical realizability}{subsection.5.1}{}}
\MT@newlabel{eq:grammar-basic}
\newlabel{def:pole}{{13}{7}{}{theorem.5.13}{}}
\newlabel{eq:falsity}{{5.1}{7}{Krivine's classical realizability}{theorem.5.13}{}}
\newlabel{eq:implication}{{5.1}{7}{Krivine's classical realizability}{theorem.5.13}{}}
\citation{jacobs2001categorical}
\citation{krivine2009realizabilitypanorama}
\citation{krivine2009realizabilitypanorama}
\newlabel{lem:kpi-real}{{14}{8}{}{theorem.5.14}{}}
\newlabel{eq:connectives}{{6}{8}{Krivine's classical realizability}{equation.5.6}{}}
\newlabel{def:prooflike}{{15}{8}{}{theorem.5.15}{}}
\newlabel{eq:entailment-explicit}{{5.1}{8}{Krivine's classical realizability}{theorem.5.16}{}}
\MT@newlabel{tab:erelrules}
\citation{troelstra2000basic}
\providecommand*\caption@xref[2]{\@setref\relax\@undefined{#1}}
\newlabel{tab:erelrules}{{1}{9}{Admissible rules for the entailment relation.\relax }{table.caption.1}{}}
\newlabel{lem:rules-valid}{{17}{9}{}{theorem.5.17}{}}
\MT@newlabel{eq:connectives}
\newlabel{eq:encodings}{{7}{9}{Krivine's classical realizability}{equation.5.7}{}}
\citation{hjp80}
\newlabel{lem:classical-nd}{{18}{10}{}{theorem.5.18}{}}
\MT@newlabel{eq:encodings}
\newlabel{def:boolean-algebra}{{19}{10}{}{theorem.5.19}{}}
\newlabel{lem:boolean}{{20}{10}{}{theorem.5.20}{}}
\MT@newlabel{eq:connectives}
\MT@newlabel{eq:encodings}
\citation{hjp80}
\citation{krivine2011ralgsii}
\newlabel{eq:bc-cond}{{8}{11}{}{equation.5.8}{}}
\newlabel{theo:tripos}{{22}{11}{}{theorem.5.22}{}}
\MT@newlabel{eq:connectives}
\MT@newlabel{eq:bc-cond}
\@writefile{toc}{\contentsline {subsubsection}{\numberline {5.1.1}Consistency}{11}{subsubsection.5.1.1}}
\newlabel{eq:consistency}{{9}{11}{Consistency}{equation.5.9}{}}
\citation{miquel2009modaleffects}
\MT@newlabel{eq:consistency}
\@writefile{toc}{\contentsline {subsection}{\numberline {5.2}Krivine realizability with I/O}{12}{subsection.5.2}}
\newlabel{sec:extended-real}{{5.2}{12}{Krivine realizability with I/O}{subsection.5.2}{}}
\MT@newlabel{eq:consistency}
\newlabel{lem:consistency}{{26}{12}{}{theorem.5.26}{}}
\MT@newlabel{eq:consistency}
\citation{grothendieck1972theorie}
\@writefile{toc}{\contentsline {subsubsection}{\numberline {5.2.1}Poles from specifications}{13}{subsubsection.5.2.1}}
\newlabel{se:polespec}{{5.2.1}{13}{Poles from specifications}{subsubsection.5.2.1}{}}
\newlabel{lem:spec-pole}{{27}{13}{}{theorem.5.27}{}}
\newlabel{lem:bisim-pole}{{27}{13}{}{theorem.5.27}{}}
\@writefile{toc}{\contentsline {subsubsection}{\numberline {5.2.2}Toposes from computable functions}{13}{subsubsection.5.2.2}}
\newlabel{theo:f-com-con}{{28}{13}{}{theorem.5.28}{}}
\@writefile{toc}{\contentsline {subsection}{\numberline {5.3}Discussion and future work}{13}{subsection.5.3}}
\bibstyle{plain}
\bibdata{tlca-2015}
\bibcite{barendregt1984lambda}{1}
\bibcite{ferrer2014ordered}{2}
\bibcite{friedman1977classically}{3}
\bibcite{grothendieck1972theorie}{4}
\bibcite{hindley2008lambda}{5}
\bibcite{hyland82}{6}
\bibcite{hjp80}{7}
\bibcite{jacobs2001categorical}{8}
\bibcite{krivine1991lambda}{9}
\bibcite{krivine2009realizabilitypanorama}{10}
\bibcite{krivine2010ralgs}{11}
\bibcite{krivine2011ralgsii}{12}
\bibcite{milner1990operational}{13}
\bibcite{miquel2009modaleffects}{14}
\bibcite{miquel2011existential}{15}
\bibcite{miquel2011forcing}{16}
\bibcite{streicher2013krivine}{17}
\bibcite{troelstra2000basic}{18}
\bibcite{vanoosten2008realizability}{19}
\newlabel{LastPage}{{}{14}{}{page.14}{}}
\xdef\lastpage@lastpage{14}
\xdef\lastpage@lastpageHy{14}
