\relax 
\providecommand\hyper@newdestlabel[2]{}
\providecommand\HyperFirstAtBeginDocument{\AtBeginDocument}
\HyperFirstAtBeginDocument{\ifx\hyper@anchor\@undefined
\global\let\oldcontentsline\contentsline
\gdef\contentsline#1#2#3#4{\oldcontentsline{#1}{#2}{#3}}
\global\let\oldnewlabel\newlabel
\gdef\newlabel#1#2{\newlabelxx{#1}#2}
\gdef\newlabelxx#1#2#3#4#5#6{\oldnewlabel{#1}{{#2}{#3}}}
\AtEndDocument{\ifx\hyper@anchor\@undefined
\let\contentsline\oldcontentsline
\let\newlabel\oldnewlabel
\fi}
\fi}
\global\let\hyper@last\relax 
\gdef\HyperFirstAtBeginDocument#1{#1}
\providecommand\HyField@AuxAddToFields[1]{}
\providecommand\HyField@AuxAddToCoFields[2]{}
\citation{harper93jacm}
\citation{gacek11ic}
\citation{virga99phd}
\citation{watkins03tr}
\citation{harper07jfp}
\citation{harper07jfp}
\select@language{USenglish}
\@writefile{toc}{\select@language{USenglish}}
\@writefile{lof}{\select@language{USenglish}}
\@writefile{lot}{\select@language{USenglish}}
\@writefile{toc}{\contentsline {section}{\numberline {1}Introduction}{0}{section.1}}
\newlabel{sec:intro}{{1}{0}{Introduction}{section.1}{}}
\citation{watkins03tr}
\citation{harper07jfp}
\citation{miller92jsc}
\citation{gacek09phd}
\citation{harper07jfp}
\citation{miller12proghol}
\citation{wang13ppdp}
\citation{snow10ppdp}
\citation{southern14fsttcs}
\citation{gacek12jar}
\citation{abella2.website}
\@writefile{toc}{\contentsline {section}{\numberline {2}Independence in Type Theory}{2}{section.2}}
\newlabel{sec:indep}{{2}{2}{Independence in Type Theory}{section.2}{}}
\newlabel{def:indep}{{1}{2}{Independence}{theorem.2.1}{}}
\providecommand*\caption@xref[2]{\@setref\relax\@undefined{#1}}
\newlabel{fig:hhw-rules}{{1}{3}{Inference rules for \HH . For \goalred , we assume that $\bar {x} \notin \Si $. In the \backchain rule, $\theta $ stands for a \emph {substitution} $[t_1/x_1, \dotsc , t_n/x_n]$; we write $\Si |- \theta : \bar {\tau }$ to mean $\Si |- t_i : \tau _i$ for each $i \in 1..n$. \relax }{figure.caption.1}{}}
\@writefile{toc}{\contentsline {section}{\numberline {3}The Specification Language}{3}{section.3}}
\newlabel{sec:spec}{{3}{3}{The Specification Language}{section.3}{}}
\@writefile{toc}{\contentsline {subsection}{\numberline {3.1}The \ensuremath  {\text  {\smaller  \upshape  HH}}\xspace  Proof System}{3}{subsection.3.1}}
\newlabel{sec:spec.hh}{{3.1}{3}{The \HH Proof System}{subsection.3.1}{}}
\@writefile{toc}{\contentsline {subsection}{\numberline {3.2}Encoding Rule-based Systems in \ensuremath  {\text  {\smaller  \upshape  HH}}\xspace  }{4}{subsection.3.2}}
\newlabel{sec:spec.encoding}{{3.2}{4}{Encoding Rule-based Systems in \HH }{subsection.3.2}{}}
\citation{felty90cade}
\citation{snow10ppdp}
\citation{southern14fsttcs}
\citation{snow10ppdp}
\citation{snow10ppdp}
\newlabel{fig:stlc}{{2}{5}{An example encoding of an \STLC signature into \HH clauses\relax }{figure.caption.2}{}}
\@writefile{toc}{\contentsline {section}{\numberline {4}Independence via Strengthening}{5}{section.4}}
\newlabel{sec:indepstr}{{4}{5}{Independence via Strengthening}{section.4}{}}
\@writefile{toc}{\contentsline {subsection}{\numberline {4.1}An Adequate Encoding of \ensuremath  {\text  {\smaller  \upshape  STLC}}\xspace  }{5}{subsection.4.1}}
\newlabel{sec:indep.encoding}{{4.1}{5}{An Adequate Encoding of \STLC }{subsection.4.1}{}}
\newlabel{thm:adequacy}{{2}{5}{}{theorem.4.2}{}}
\@writefile{toc}{\contentsline {subsection}{\numberline {4.2}Independence as Strengthening Lemmas}{5}{subsection.4.2}}
\newlabel{sec:strengthening}{{4.2}{5}{Independence as Strengthening Lemmas}{subsection.4.2}{}}
\citation{gacek11ic}
\citation{gacek12jar}
\citation{mcdowell00tcs}
\citation{gacek09phd}
\@writefile{toc}{\contentsline {section}{\numberline {5}The Two-Level Logic Approach}{6}{section.5}}
\newlabel{sec:twolevel}{{5}{6}{The Two-Level Logic Approach}{section.5}{}}
\@writefile{toc}{\contentsline {subsection}{\numberline {5.1}The Reasoning Logic {\relax \fontsize  {10.5}{13}\selectfont  \pmb  \ensuremath  {\mathcal  {G}}\xspace  }}{6}{subsection.5.1}}
\newlabel{sec:gee}{{5.1}{6}{The Reasoning Logic {\large \pmb \Gee }}{subsection.5.1}{}}
\@writefile{toc}{\contentsline {subsection}{\numberline {5.2}An Encoding of \ensuremath  {\text  {\smaller  \upshape  HH}}\xspace  in \ensuremath  {\mathcal  {G}}\xspace  }{7}{subsection.5.2}}
\citation{baelde14jfr}
\newlabel{fig:hh-encoding}{{3}{8}{Encoding of \HH rules as inductive definitions in \Gee .\relax }{figure.caption.3}{}}
\@writefile{toc}{\contentsline {section}{\numberline {6}Formalizing Independence}{8}{section.6}}
\newlabel{sec:formal}{{6}{8}{Formalizing Independence}{section.6}{}}
\@writefile{toc}{\contentsline {subsection}{\numberline {6.1}Independence as Strengthening Lemmas in \ensuremath  {\mathcal  {G}}\xspace  }{8}{subsection.6.1}}
\@writefile{toc}{\contentsline {subsection}{\numberline {6.2}Automatically Deriving Strengthening Lemmas}{10}{subsection.6.2}}
\newlabel{sec:algo}{{6.2}{10}{Automatically Deriving Strengthening Lemmas}{subsection.6.2}{}}
\@writefile{toc}{\contentsline {subsubsection}{\numberline {6.2.1}Calculating the dynamic contexts}{10}{subsubsection.6.2.1}}
\newlabel{alg:dctx_cstr}{{1}{11}{Collecting constraints on dynamic contexts\relax }{algorithm.1}{}}
\newlabel{alg:dep_cstr}{{2}{11}{Collecting constraints on the dependency relation\relax }{algorithm.2}{}}
\@writefile{toc}{\contentsline {subsubsection}{\numberline {6.2.2}Generating the dependency relation between predicates}{11}{subsubsection.6.2.2}}
\@writefile{toc}{\contentsline {subsubsection}{\numberline {6.2.3}Constructing proofs for the strengthening lemmas}{11}{subsubsection.6.2.3}}
\newlabel{thm:gen_indep}{{3}{11}{}{theorem.6.3}{}}
\newlabel{thm:indep}{{4}{11}{}{theorem.6.4}{}}
\citation{miller92jsc}
\@writefile{toc}{\contentsline {subsection}{\numberline {6.3}Application}{12}{subsection.6.3}}
\citation{virga99phd}
\citation{watkins03tr}
\citation{harper07jfp}
\citation{pfenning99cade}
\citation{pientka10ijcar}
\citation{abella2.website}
\citation{snow10ppdp}
\citation{southern14fsttcs}
\@writefile{toc}{\contentsline {section}{\numberline {7}Related Work}{13}{section.7}}
\newlabel{sec:related}{{7}{13}{Related Work}{section.7}{}}
\@writefile{toc}{\contentsline {section}{\numberline {8}Conclusion and Future Work}{13}{section.8}}
\newlabel{sec:conclusion}{{8}{13}{Conclusion and Future Work}{section.8}{}}
\bibstyle{plain}
\bibdata{indep}
\bibcite{baelde14jfr}{1}
\bibcite{felty90cade}{2}
\bibcite{gacek09phd}{3}
\bibcite{gacek11ic}{4}
\bibcite{gacek12jar}{5}
\bibcite{harper93jacm}{6}
\bibcite{harper07jfp}{7}
\bibcite{mcdowell00tcs}{8}
\bibcite{miller92jsc}{9}
\bibcite{miller12proghol}{10}
\bibcite{pfenning99cade}{11}
\bibcite{pientka10ijcar}{12}
\bibcite{snow10ppdp}{13}
\bibcite{southern14fsttcs}{14}
\bibcite{virga99phd}{15}
\bibcite{wang13ppdp}{16}
\bibcite{watkins03tr}{17}
\bibcite{abella2.website}{18}
\newlabel{LastPage}{{}{14}{}{page.14}{}}
\xdef\lastpage@lastpage{14}
\xdef\lastpage@lastpageHy{14}
