\BOOKMARK [1][-]{section.1}{Introduction}{}% 1
\BOOKMARK [1][-]{section.2}{Independence in Type Theory}{}% 2
\BOOKMARK [1][-]{section.3}{The Specification Language}{}% 3
\BOOKMARK [2][-]{subsection.3.1}{The HH Proof System}{section.3}% 4
\BOOKMARK [2][-]{subsection.3.2}{Encoding Rule-based Systems in HH}{section.3}% 5
\BOOKMARK [1][-]{section.4}{Independence via Strengthening}{}% 6
\BOOKMARK [2][-]{subsection.4.1}{An Adequate Encoding of STLC}{section.4}% 7
\BOOKMARK [2][-]{subsection.4.2}{Independence as Strengthening Lemmas}{section.4}% 8
\BOOKMARK [1][-]{section.5}{The Two-Level Logic Approach}{}% 9
\BOOKMARK [2][-]{subsection.5.1}{The Reasoning Logic G-.4}{section.5}% 10
\BOOKMARK [2][-]{subsection.5.2}{An Encoding of HH in G}{section.5}% 11
\BOOKMARK [1][-]{section.6}{Formalizing Independence}{}% 12
\BOOKMARK [2][-]{subsection.6.1}{Independence as Strengthening Lemmas in G}{section.6}% 13
\BOOKMARK [2][-]{subsection.6.2}{Automatically Deriving Strengthening Lemmas}{section.6}% 14
\BOOKMARK [3][-]{subsubsection.6.2.1}{Calculating the dynamic contexts}{subsection.6.2}% 15
\BOOKMARK [3][-]{subsubsection.6.2.2}{Generating the dependency relation between predicates}{subsection.6.2}% 16
\BOOKMARK [3][-]{subsubsection.6.2.3}{Constructing proofs for the strengthening lemmas}{subsection.6.2}% 17
\BOOKMARK [2][-]{subsection.6.3}{Application}{section.6}% 18
\BOOKMARK [1][-]{section.7}{Related Work}{}% 19
\BOOKMARK [1][-]{section.8}{Conclusion and Future Work}{}% 20
