\relax 
\providecommand\hyper@newdestlabel[2]{}
\providecommand\HyperFirstAtBeginDocument{\AtBeginDocument}
\HyperFirstAtBeginDocument{\ifx\hyper@anchor\@undefined
\global\let\oldcontentsline\contentsline
\gdef\contentsline#1#2#3#4{\oldcontentsline{#1}{#2}{#3}}
\global\let\oldnewlabel\newlabel
\gdef\newlabel#1#2{\newlabelxx{#1}#2}
\gdef\newlabelxx#1#2#3#4#5#6{\oldnewlabel{#1}{{#2}{#3}}}
\AtEndDocument{\ifx\hyper@anchor\@undefined
\let\contentsline\oldcontentsline
\let\newlabel\oldnewlabel
\fi}
\fi}
\global\let\hyper@last\relax 
\gdef\HyperFirstAtBeginDocument#1{#1}
\providecommand\HyField@AuxAddToFields[1]{}
\providecommand\HyField@AuxAddToCoFields[2]{}
\citation{clairambault:novisad}
\citation{clairambault:mscs}
\citation{dybjer:torino}
\citation{seely:lccc}
\citation{CurienPL:subi}
\citation{HofmannM:intttl}
\citation{benabou}
\citation{dybjer:torino}
\citation{cartmell:apal}
\citation{martinlof:gbg92}
\citation{tasistro:lic}
\select@language{UKenglish}
\@writefile{toc}{\select@language{UKenglish}}
\@writefile{lof}{\select@language{UKenglish}}
\@writefile{lot}{\select@language{UKenglish}}
\@writefile{toc}{\contentsline {section}{\numberline {1}Introduction}{1}{section.1}}
\citation{dybjer:torino}
\citation{palmgren:apal}
\citation{martinlof:hannover}
\@writefile{toc}{\contentsline {section}{\numberline {2}Undecidability in Martin-L\IeC {\"o}f type theory}{3}{section.2}}
\citation{barendregt:tlc}
\citation{clairambault:novisad}
\citation{clairambault:mscs}
\citation{clairambault:novisad}
\citation{clairambault:mscs}
\@writefile{toc}{\contentsline {section}{\numberline {3}A free category with families}{4}{section.3}}
\@writefile{toc}{\contentsline {subsection}{\numberline {3.1}The 2-category of categories with families}{4}{subsection.3.1}}
\citation{clairambault:novisad}
\citation{clairambault:mscs}
\citation{clairambault:mscs}
\citation{dybjer:torino}
\@writefile{toc}{\contentsline {subsection}{\numberline {3.2}Syntax and inference rules for the free category with families}{5}{subsection.3.2}}
\@writefile{toc}{\contentsline {subsubsection}{\numberline {3.2.1}Raw terms}{5}{subsubsection.3.2.1}}
\newlabel{sec:grammar}{{3.2.1}{5}{Raw terms}{subsubsection.3.2.1}{}}
\@writefile{toc}{\contentsline {subsubsection}{\numberline {3.2.2}Inference rules}{6}{subsubsection.3.2.2}}
\newlabel{fig:cwf1}{{3.2.2}{6}{Inference rules}{subsubsection.3.2.2}{}}
\newlabel{fig:cwf2}{{3.2.2}{6}{Inference rules}{subsubsection.3.2.2}{}}
\citation{streicher:book}
\newlabel{fig:cwf3}{{3.2.2}{7}{Inference rules}{subsubsection.3.2.2}{}}
\newlabel{fig:cwf4}{{3.2.2}{7}{Inference rules}{subsubsection.3.2.2}{}}
\newlabel{fig:cwf5}{{3.2.2}{7}{Inference rules}{subsubsection.3.2.2}{}}
\@writefile{toc}{\contentsline {subsubsection}{\numberline {3.2.3}The syntactic cwf ${\cal  T}$}{7}{subsubsection.3.2.3}}
\@writefile{toc}{\contentsline {subsection}{\numberline {3.3}Freeness of ${\cal  T}$}{8}{subsection.3.3}}
\newlabel{lemma:interp_defined}{{9}{8}{}{theorem.3.9}{}}
\newlabel{theom:initial_cwf}{{10}{8}{}{theorem.3.10}{}}
\@writefile{toc}{\contentsline {subsection}{\numberline {3.4}Bifreeness of ${\cal  T}$}{8}{subsection.3.4}}
\newlabel{a-free-cwf}{{3.4}{8}{Bifreeness of $\T $}{subsection.3.4}{}}
\citation{long}
\newlabel{def:cwf_o}{{11}{9}{}{theorem.3.11}{}}
\newlabel{sec:ex_cwf}{{3.4}{9}{Existence of $( \varphi , \psi )$}{section*.1}{}}
\citation{clairambault:mscs}
\citation{clairambault:mscs}
\citation{clairambault:mscs}
\newlabel{sec:cwf_uniq}{{3.4}{10}{Uniqueness of $( \varphi , \psi )$}{section*.2}{}}
\@writefile{toc}{\contentsline {section}{\numberline {4}A free lccc}{10}{section.4}}
\newlabel{a-free-lcc}{{4}{10}{A free lccc}{section.4}{}}
\@writefile{toc}{\contentsline {subsection}{\numberline {4.1}From cwfs to lcccs}{10}{subsection.4.1}}
\@writefile{toc}{\contentsline {subsection}{\numberline {4.2}Cwfs with support for type constructors}{10}{subsection.4.2}}
\@writefile{toc}{\contentsline {subsection}{\numberline {4.3}The syntactic cwf with extensional $\mathrm  {I}$, $\mathrm  {N}_1$, $ \Sigma $, and $ \Pi $}{11}{subsection.4.3}}
\@writefile{toc}{\contentsline {subsubsection}{\numberline {4.3.1}Inference rules}{11}{subsubsection.4.3.1}}
\newlabel{fig:sigma}{{4.3.1}{12}{Inference rules}{subsubsection.4.3.1}{}}
\newlabel{fig:pi}{{4.3.1}{12}{Inference rules}{subsubsection.4.3.1}{}}
\citation{clairambault:mscs}
\@writefile{toc}{\contentsline {subsubsection}{\numberline {4.3.2}The syntactic cwf supporting $\mathrm  {I}, \mathrm  {N}_1, \Sigma ,$ and $\Pi $}{13}{subsubsection.4.3.2}}
\@writefile{toc}{\contentsline {subsection}{\numberline {4.4}Bifreeness of ${\cal  T}^{\mathrm  {I}, \mathrm  {N}_1,\Sigma , \Pi }$}{13}{subsection.4.4}}
\@writefile{toc}{\contentsline {subsubsection}{\numberline {4.4.1}Existence}{13}{subsubsection.4.4.1}}
\citation{clairambault:mscs}
\citation{clairambault:mscs}
\@writefile{toc}{\contentsline {subsubsection}{\numberline {4.4.2}Uniqueness}{14}{subsubsection.4.4.2}}
\@writefile{toc}{\contentsline {subsection}{\numberline {4.5}The free lccc }{14}{subsection.4.5}}
\bibstyle{plain}
\bibdata{refs}
\bibcite{barendregt:tlc}{1}
\bibcite{benabou}{2}
\bibcite{cartmell:apal}{3}
\bibcite{long}{4}
\bibcite{clairambault:novisad}{5}
\bibcite{clairambault:mscs}{6}
\bibcite{CurienPL:subi}{7}
\bibcite{dybjer:torino}{8}
\bibcite{HofmannM:intttl}{9}
\bibcite{martinlof:hannover}{10}
\bibcite{martinlof:gbg92}{11}
\bibcite{palmgren:apal}{12}
\bibcite{seely:lccc}{13}
\bibcite{streicher:book}{14}
\bibcite{tasistro:lic}{15}
\newlabel{bifree-lccc}{{20}{15}{}{theorem.4.20}{}}
\newlabel{LastPage}{{}{15}{}{page.15}{}}
\xdef\lastpage@lastpage{15}
\xdef\lastpage@lastpageHy{15}
