\relax 
\providecommand\hyper@newdestlabel[2]{}
\providecommand\HyperFirstAtBeginDocument{\AtBeginDocument}
\HyperFirstAtBeginDocument{\ifx\hyper@anchor\@undefined
\global\let\oldcontentsline\contentsline
\gdef\contentsline#1#2#3#4{\oldcontentsline{#1}{#2}{#3}}
\global\let\oldnewlabel\newlabel
\gdef\newlabel#1#2{\newlabelxx{#1}#2}
\gdef\newlabelxx#1#2#3#4#5#6{\oldnewlabel{#1}{{#2}{#3}}}
\AtEndDocument{\ifx\hyper@anchor\@undefined
\let\contentsline\oldcontentsline
\let\newlabel\oldnewlabel
\fi}
\fi}
\global\let\hyper@last\relax 
\gdef\HyperFirstAtBeginDocument#1{#1}
\providecommand\HyField@AuxAddToFields[1]{}
\providecommand\HyField@AuxAddToCoFields[2]{}
\citation{gtw02alig}
\citation{hs99ctcs}
\select@language{UKenglish}
\@writefile{toc}{\select@language{UKenglish}}
\@writefile{lof}{\select@language{UKenglish}}
\@writefile{lot}{\select@language{UKenglish}}
\@writefile{toc}{\contentsline {section}{\numberline {1}Introduction}{0}{section.1}}
\newlabel{sec:intro}{{1}{0}{Introduction}{section.1}{}}
\citation{shulman08tac}
\citation{ms87tcs}
\newlabel{eq:synch}{{1}{1}{Introduction}{equation.1.1}{}}
\@writefile{toc}{\contentsline {section}{\numberline {2}Preliminaries}{1}{section.2}}
\newlabel{sec:base}{{2}{1}{Preliminaries}{section.2}{}}
\@writefile{toc}{\contentsline {subparagraph}{Alphabets and Trees.}{1}{section*.1}}
\citation{ms87tcs}
\citation{ms95tcs}
\citation{walukiewicz02tcs}
\citation{walukiewicz02tcs}
\citation{thomas97handbook}
\@writefile{toc}{\contentsline {subparagraph}{Tree Automata.}{2}{section*.2}}
\@writefile{toc}{\contentsline {section}{\numberline {3}Categories of Acceptance Games and Automata}{2}{section.3}}
\newlabel{sec:sag}{{3}{2}{Categories of Acceptance Games and Automata}{section.3}{}}
\@writefile{toc}{\contentsline {subsection}{\numberline {3.1}Substituted Acceptance Games}{2}{subsection.3.1}}
\newlabel{sec:sag:acc}{{3.1}{2}{Substituted Acceptance Games}{subsection.3.1}{}}
\citation{walukiewicz02tcs}
\@writefile{toc}{\contentsline {subparagraph}{Correspondence with usual Acceptance Games.}{3}{section*.3}}
\@writefile{toc}{\contentsline {subsection}{\numberline {3.2}Synchronous Arrow Games}{3}{subsection.3.2}}
\newlabel{sec:sag:sag}{{3.2}{3}{Synchronous Arrow Games}{subsection.3.2}{}}
\citation{martin75am}
\citation{thomas97handbook}
\citation{abramsky97chapter}
\citation{hyland97chapter}
\citation{hs99ctcs}
\providecommand*\caption@xref[2]{\@setref\relax\@undefined{#1}}
\newlabel{tab:sag:sag}{{1}{4}{Moves of $\G (\At A,\vec M) \synchto \G (\At B,\vec N)$ \relax }{figure.caption.4}{}}
\@writefile{toc}{\contentsline {subsection}{\numberline {3.3}Characterization of the Synchronous Arrow Games}{4}{subsection.3.3}}
\@writefile{toc}{\contentsline {subparagraph}{Simple Games.}{4}{section*.5}}
\@writefile{toc}{\contentsline {subparagraph}{The Hyland \& Schalk Functor.}{4}{section*.6}}
\@writefile{toc}{\contentsline {subparagraph}{Synchronous Relations.}{5}{section*.7}}
\@writefile{toc}{\contentsline {subparagraph}{Traces.}{5}{section*.8}}
\@writefile{toc}{\contentsline {subparagraph}{Characterization of the Synchronous Arrow.}{5}{section*.9}}
\newlabel{prop:sag:synch}{{3.2}{5}{}{theorem.3.2}{}}
\newlabel{eq:sag:synch}{{2}{5}{}{equation.3.2}{}}
\newlabel{prop:sag:hs:pb}{{3.3}{5}{}{theorem.3.3}{}}
\citation{jacobs01book}
\@writefile{toc}{\contentsline {subsection}{\numberline {3.4}Categories of Substituted Acceptance Games and Automata}{6}{subsection.3.4}}
\@writefile{toc}{\contentsline {subparagraph}{A Lifting Property.}{6}{section*.10}}
\newlabel{prop:sag:lift}{{3.4}{6}{}{theorem.3.4}{}}
\@writefile{toc}{\contentsline {section}{\numberline {4}Fibrations of Acceptance Games and Automata}{6}{section.4}}
\newlabel{sec:fib}{{4}{6}{Fibrations of Acceptance Games and Automata}{section.4}{}}
\@writefile{toc}{\contentsline {subsection}{\numberline {4.1}Substitution Functors}{6}{subsection.4.1}}
\@writefile{toc}{\contentsline {subparagraph}{Change-of-Base in $\mathbf  {Set}^\to $.}{6}{section*.11}}
\citation{jacobs01book}
\@writefile{toc}{\contentsline {subparagraph}{Substitution on Plays.}{7}{section*.12}}
\newlabel{prop:fib:pb}{{4.1}{7}{}{theorem.4.1}{}}
\@writefile{toc}{\contentsline {subparagraph}{Substitution on Strategies.}{7}{section*.13}}
\newlabel{prop:fib:strat}{{4.2}{7}{}{theorem.4.2}{}}
\@writefile{toc}{\contentsline {subparagraph}{Functoriality of Substitution.}{7}{section*.14}}
\newlabel{prop:fib:funct}{{4.3}{7}{}{theorem.4.3}{}}
\@writefile{toc}{\contentsline {subsection}{\numberline {4.2}Fibrations of Acceptance Games}{7}{subsection.4.2}}
\newlabel{prop:fib:indexed}{{4.4}{7}{}{theorem.4.4}{}}
\citation{shulman08tac}
\citation{shulman08tac}
\citation{mellies09ps}
\@writefile{toc}{\contentsline {subsection}{\numberline {4.3}Fibrations of Automata}{8}{subsection.4.3}}
\@writefile{toc}{\contentsline {section}{\numberline {5}Symmetric Monoidal Structure}{8}{section.5}}
\newlabel{sec:mon}{{5}{8}{Symmetric Monoidal Structure}{section.5}{}}
\@writefile{toc}{\contentsline {subsection}{\numberline {5.1}Complete Tree Automata}{8}{subsection.5.1}}
\newlabel{sec:mon:compl}{{5.1}{8}{Complete Tree Automata}{subsection.5.1}{}}
\newlabel{prop:mon:clos:cor}{{5.1}{8}{}{theorem.5.1}{}}
\@writefile{toc}{\contentsline {subsection}{\numberline {5.2}The Synchronous Product}{9}{subsection.5.2}}
\@writefile{toc}{\contentsline {subparagraph}{Action on Plays.}{9}{section*.15}}
\newlabel{prop:mon:pb}{{5.2}{9}{}{theorem.5.2}{}}
\@writefile{toc}{\contentsline {subparagraph}{Action on Synchronous Games.}{9}{section*.16}}
\newlabel{prop:mon:prod}{{5.3}{9}{}{theorem.5.3}{}}
\@writefile{toc}{\contentsline {subsection}{\numberline {5.3}Symmetric Monoidal Structure}{9}{subsection.5.3}}
\@writefile{toc}{\contentsline {subparagraph}{Symmetric Monoidal Structure in $\mathbf  {Rel}(\mathbf  {Set}/J)$.}{9}{section*.17}}
\citation{shulman08tac}
\newlabel{prop:mon:relset:smc}{{5.4}{10}{}{theorem.5.4}{}}
\@writefile{toc}{\contentsline {subparagraph}{Unit Automata.}{10}{section*.18}}
\newlabel{prop:mon:unit}{{5.5}{10}{}{theorem.5.5}{}}
\@writefile{toc}{\contentsline {subparagraph}{Symmetric Monoidal Structure.}{10}{section*.19}}
\@writefile{toc}{\contentsline {subsection}{\numberline {5.4}Symmetric Monoidal Fibrations}{10}{subsection.5.4}}
\@writefile{toc}{\contentsline {section}{\numberline {6}Correctness w.r.t.\spacefactor \@m  Language Operations}{10}{section.6}}
\newlabel{sec:cor}{{6}{10}{Correctness \wrt \@ Language Operations}{section.6}{}}
\citation{walukiewicz02tcs}
\citation{martin75am}
\citation{walukiewicz02tcs}
\citation{jacobs01book}
\@writefile{toc}{\contentsline {subsection}{\numberline {6.1}Correctness of the Symmetric Monoidal Structure}{11}{subsection.6.1}}
\newlabel{sec:cor:smc}{{6.1}{11}{Correctness of the Symmetric Monoidal Structure}{subsection.6.1}{}}
\newlabel{prop:cor:acc}{{6.1}{11}{}{theorem.6.1}{}}
\newlabel{rem:cor:acc}{{6.1}{11}{}{theorem.6.1}{}}
\newlabel{prop:cor:lgge}{{6.2}{11}{Correctness of the Arrow}{theorem.6.2}{}}
\newlabel{prop:cor:lgge:subst}{{i}{11}{Correctness of the Arrow}{Item.5}{}}
\newlabel{prop:cor:lgge:acc}{{ii}{11}{Correctness of the Arrow}{Item.6}{}}
\newlabel{prop:cor:lgge:lgge}{{iii}{11}{Correctness of the Arrow}{Item.7}{}}
\newlabel{prop:cor:synchprod}{{6.3}{11}{}{theorem.6.3}{}}
\@writefile{toc}{\contentsline {subsection}{\numberline {6.2}Complementation and Falsity}{11}{subsection.6.2}}
\newlabel{sec:cor:neg}{{6.2}{11}{Complementation and Falsity}{subsection.6.2}{}}
\@writefile{toc}{\contentsline {subparagraph}{Complementation.}{11}{section*.20}}
\newlabel{prop:cor:neg:cor}{{6.4}{11}{\cite {walukiewicz02tcs}}{theorem.6.4}{}}
\@writefile{toc}{\contentsline {subparagraph}{The Falsity Automaton $\simbot $.}{11}{section*.21}}
\newlabel{prop:cor:dialogue:lgges}{{6.5}{11}{}{theorem.6.5}{}}
\citation{maclane98book}
\citation{walukiewicz02tcs}
\@writefile{toc}{\contentsline {section}{\numberline {7}Projection and Fibred Simple Coproducts}{12}{section.7}}
\newlabel{sec:proj}{{7}{12}{Projection and Fibred Simple Coproducts}{section.7}{}}
\newlabel{eq:proj:adj:unit:univ}{{3}{12}{Projection and Fibred Simple Coproducts}{equation.7.3}{}}
\newlabel{eq:proj:bc}{{4}{12}{Projection and Fibred Simple Coproducts}{equation.7.4}{}}
\@writefile{toc}{\contentsline {subparagraph}{The Lifted Projection.}{12}{section*.22}}
\@writefile{toc}{\contentsline {subparagraph}{Action on Plays of The Lifted Projection.}{12}{section*.23}}
\newlabel{prop:proj:play:bij}{{7.1}{12}{}{theorem.7.1}{}}
\citation{ej91focs}
\citation{ms95tcs}
\citation{walukiewicz02tcs}
\citation{hyland02apal}
\citation{cl08icalp}
\citation{dfm11fsttcs}
\citation{fms13lics}
\bibstyle{plain}
\bibdata{bibliographie}
\bibcite{abramsky97chapter}{1}
\bibcite{cl08icalp}{2}
\bibcite{dfm11fsttcs}{3}
\@writefile{toc}{\contentsline {subparagraph}{The Unit Maps $\eta _{(-)}$.}{13}{section*.24}}
\@writefile{toc}{\contentsline {subparagraph}{The Unique Lifting Property~(\ref  {eq:proj:adj:unit:univ}).}{13}{section*.25}}
\newlabel{lem:proj:tau:lift}{{7.2}{13}{}{theorem.7.2}{}}
\newlabel{lem:proj:tau:unique}{{7.3}{13}{}{theorem.7.3}{}}
\@writefile{toc}{\contentsline {subparagraph}{Non-Deterministic Tree Automata.}{13}{section*.26}}
\newlabel{rem:nd:clos}{{7}{13}{}{section*.26}{}}
\newlabel{prop:nd:def}{{7.4}{13}{\cite {ej91focs,ms95tcs,walukiewicz02tcs}}{theorem.7.4}{}}
\newlabel{prop:nd:proj:cor}{{7.5}{13}{}{theorem.7.5}{}}
\newlabel{prop:nd:arrow:compl}{{7.6}{13}{}{theorem.7.6}{}}
\@writefile{toc}{\contentsline {section}{\numberline {8}Conclusion}{13}{section.8}}
\newlabel{sec:conc}{{8}{13}{Conclusion}{section.8}{}}
\@writefile{toc}{\contentsline {subparagraph}{Acknowledgments.}{13}{section*.27}}
\bibcite{ej91focs}{4}
\bibcite{fms13lics}{5}
\bibcite{gtw02alig}{6}
\bibcite{hyland97chapter}{7}
\bibcite{hyland02apal}{8}
\bibcite{hs99ctcs}{9}
\bibcite{jacobs01book}{10}
\bibcite{maclane98book}{11}
\bibcite{martin75am}{12}
\bibcite{mellies09ps}{13}
\bibcite{ms87tcs}{14}
\bibcite{ms95tcs}{15}
\bibcite{shulman08tac}{16}
\bibcite{thomas97handbook}{17}
\bibcite{walukiewicz02tcs}{18}
\newlabel{LastPage}{{}{14}{}{page.14}{}}
\xdef\lastpage@lastpage{14}
\xdef\lastpage@lastpageHy{14}
