\relax 
\providecommand\hyper@newdestlabel[2]{}
\providecommand\HyperFirstAtBeginDocument{\AtBeginDocument}
\HyperFirstAtBeginDocument{\ifx\hyper@anchor\@undefined
\global\let\oldcontentsline\contentsline
\gdef\contentsline#1#2#3#4{\oldcontentsline{#1}{#2}{#3}}
\global\let\oldnewlabel\newlabel
\gdef\newlabel#1#2{\newlabelxx{#1}#2}
\gdef\newlabelxx#1#2#3#4#5#6{\oldnewlabel{#1}{{#2}{#3}}}
\AtEndDocument{\ifx\hyper@anchor\@undefined
\let\contentsline\oldcontentsline
\let\newlabel\oldnewlabel
\fi}
\fi}
\global\let\hyper@last\relax 
\gdef\HyperFirstAtBeginDocument#1{#1}
\providecommand\HyField@AuxAddToFields[1]{}
\providecommand\HyField@AuxAddToCoFields[2]{}
\citation{harper_framework_1993}
\citation{cousineau_embedding_2007}
\citation{cousineau_embedding_2007}
\citation{boespflug_coqine:_2012}
\citation{boespflug_-calculus_2012}
\citation{barendregt_lambda_1992}
\select@language{USenglish}
\@writefile{toc}{\select@language{USenglish}}
\@writefile{lof}{\select@language{USenglish}}
\@writefile{lot}{\select@language{USenglish}}
\@writefile{toc}{\contentsline {section}{\numberline {1}Introduction}{1}{section.1}}
\citation{barendregt_lambda_1992}
\citation{girard_interpretation_1972}
\citation{dowek_models_2014}
\citation{severi_pure_1994}
\citation{severi_pure_1995}
\citation{tait_intensional_1967}
\citation{barendregt_lambda_1992}
\newlabel{ex:polymorphic-identity}{{1.1}{2}{}{theorem.1.1}{}}
\providecommand*\caption@xref[2]{\@setref\relax\@undefined{#1}}
\newlabel{fig:typing-rules-pts}{{1}{3}{Typing rules of $\protect \pts S$\relax }{figure.caption.4}{}}
\newlabel{sec:pure-type-systems}{{2}{3}{Pure type systems}{section.2}{}}
\@writefile{toc}{\contentsline {section}{\numberline {2}Pure type systems}{3}{section.2}}
\newlabel{ex:pure-type-systems}{{2.3}{3}{}{theorem.2.3}{}}
\citation{barendregt_lambda_1992}
\citation{nordstrom_programming_1990}
\citation{luo_computation_1994}
\newlabel{thm:pts-top-sort-types}{{2.7}{4}{Top-sort types}{theorem.2.7}{}}
\newlabel{sec:lambda-Pi-calculus-modulo}{{3}{4}{The $\protect \lpi $ calculus modulo rewriting}{section.3}{}}
\@writefile{toc}{\contentsline {section}{\numberline {3}The $\lpi $ calculus modulo rewriting}{4}{section.3}}
\newlabel{fig:typing-rules-lpimod}{{2}{5}{Typing rules of $\protect \lpimod {(\Sigma ,R)}$\relax }{figure.caption.5}{}}
\citation{blanqui_definitions_2005}
\citation{cousineau_embedding_2007}
\citation{martin-lof_intuitionistic_1984}
\citation{luo_computation_1994}
\citation{palmgren_universes_1998}
\citation{cousineau_embedding_2007}
\newlabel{sec:embedding}{{4}{6}{Embedding FPTS's in the $\lambda \Pi $ calculus modulo}{section.4}{}}
\@writefile{toc}{\contentsline {section}{\numberline {4}Embedding FPTS's in the $\lambda \Pi $ calculus modulo}{6}{section.4}}
\newlabel{thm:completeness}{{4.5}{7}{Completeness}{theorem.4.5}{}}
\newlabel{sec:conservativity}{{5}{8}{Conservativity}{section.5}{}}
\@writefile{toc}{\contentsline {section}{\numberline {5}Conservativity}{8}{section.5}}
\@writefile{toc}{\contentsline {subsection}{\numberline {5.1}Eliminating $\beta $-redexes at the level of $\Kind $}{8}{subsection.5.1}}
\citation{severi_pure_1994}
\citation{severi_pure_1995}
\citation{severi_pure_1995}
\newlabel{lem:kind-redex-elimination}{{5.3}{9}{}{theorem.5.3}{}}
\@writefile{toc}{\contentsline {subsection}{\numberline {5.2}Minimal completion}{9}{subsection.5.2}}
\newlabel{def:completion}{{5.5}{9}{Completion \cite {severi_pure_1995}}{theorem.5.5}{}}
\newlabel{def:minimal-completion}{{5.6}{9}{Minimal completion}{theorem.5.6}{}}
\newlabel{def:inverse-translation}{{5.8}{10}{Inverse translations}{theorem.5.8}{}}
\newlabel{lem:inverse-translation}{{5.9}{10}{}{theorem.5.9}{}}
\newlabel{lem:inverse-substitution}{{5.10}{10}{}{theorem.5.10}{}}
\citation{tait_intensional_1967}
\newlabel{lem:inverse-reduction}{{5.11}{11}{}{theorem.5.11}{}}
\newlabel{lem:inverse-equivalence}{{5.12}{11}{}{theorem.5.12}{}}
\newlabel{def:abstraction-context}{{5.13}{11}{Object context}{theorem.5.13}{}}
\newlabel{lem:inverse-completion}{{5.14}{11}{}{theorem.5.14}{}}
\newlabel{sub:completion-conservativity}{{5.3}{11}{Reduction to $\protect \pts S$}{subsection.5.3}{}}
\@writefile{toc}{\contentsline {subsection}{\numberline {5.3}Reduction to $\pts S$}{11}{subsection.5.3}}
\newlabel{def:reducibility}{{5.15}{12}{}{theorem.5.15}{}}
\newlabel{def:height}{{5.16}{12}{}{theorem.5.16}{}}
\newlabel{lem:reducibility-term-equiv}{{5.19}{12}{}{theorem.5.19}{}}
\newlabel{lem:reducibility-type-equiv}{{5.20}{12}{}{theorem.5.20}{}}
\citation{severi_pure_1994}
\citation{severi_pure_1995}
\citation{roux_structural_2014}
\citation{severi_pure_1994}
\citation{boespflug_coqine:_2012}
\citation{cousineau_embedding_2007}
\citation{geuvers_logics_1993}
\citation{barthe_weak_2001}
\newlabel{lem:completion-reducible}{{5.22}{13}{}{theorem.5.22}{}}
\newlabel{cor:completion-conservativity}{{5.23}{13}{}{theorem.5.23}{}}
\newlabel{thm:conservativity}{{5.24}{13}{Conservativity}{theorem.5.24}{}}
\newlabel{sec:conclusion}{{6}{13}{Conclusion}{section.6}{}}
\@writefile{toc}{\contentsline {section}{\numberline {6}Conclusion}{13}{section.6}}
\bibstyle{plain}
\bibdata{conservativity-embeddings-tlca-2015}
\bibcite{barendregt_lambda_1992}{1}
\bibcite{barthe_weak_2001}{2}
\bibcite{blanqui_definitions_2005}{3}
\bibcite{boespflug_coqine:_2012}{4}
\bibcite{boespflug_-calculus_2012}{5}
\bibcite{cousineau_embedding_2007}{6}
\bibcite{dowek_models_2014}{7}
\bibcite{geuvers_logics_1993}{8}
\bibcite{girard_interpretation_1972}{9}
\bibcite{harper_framework_1993}{10}
\bibcite{luo_computation_1994}{11}
\bibcite{martin-lof_intuitionistic_1984}{12}
\bibcite{nordstrom_programming_1990}{13}
\bibcite{palmgren_universes_1998}{14}
\bibcite{roux_structural_2014}{15}
\bibcite{severi_pure_1995}{16}
\bibcite{severi_pure_1994}{17}
\bibcite{tait_intensional_1967}{18}
\newlabel{LastPage}{{}{14}{}{page.14}{}}
\xdef\lastpage@lastpage{14}
\xdef\lastpage@lastpageHy{14}
