\BOOKMARK [1][-]{section.1}{\376\377\000I\000n\000t\000r\000o\000d\000u\000c\000t\000i\000o\000n}{}% 1
\BOOKMARK [1][-]{section.2}{\376\377\000P\000u\000r\000e\000\040\000t\000y\000p\000e\000\040\000s\000y\000s\000t\000e\000m\000s}{}% 2
\BOOKMARK [1][-]{section.3}{\376\377\000T\000h\000e\000\040\000\040\000c\000a\000l\000c\000u\000l\000u\000s\000\040\000m\000o\000d\000u\000l\000o\000\040\000r\000e\000w\000r\000i\000t\000i\000n\000g}{}% 3
\BOOKMARK [1][-]{section.4}{\376\377\000E\000m\000b\000e\000d\000d\000i\000n\000g\000\040\000F\000P\000T\000S\000'\000s\000\040\000i\000n\000\040\000t\000h\000e\000\040\000\040\000c\000a\000l\000c\000u\000l\000u\000s\000\040\000m\000o\000d\000u\000l\000o}{}% 4
\BOOKMARK [1][-]{section.5}{\376\377\000C\000o\000n\000s\000e\000r\000v\000a\000t\000i\000v\000i\000t\000y}{}% 5
\BOOKMARK [2][-]{subsection.5.1}{\376\377\000E\000l\000i\000m\000i\000n\000a\000t\000i\000n\000g\000\040\000-\000r\000e\000d\000e\000x\000e\000s\000\040\000a\000t\000\040\000t\000h\000e\000\040\000l\000e\000v\000e\000l\000\040\000o\000f\000\040\000K\000i\000n\000d}{section.5}% 6
\BOOKMARK [2][-]{subsection.5.2}{\376\377\000M\000i\000n\000i\000m\000a\000l\000\040\000c\000o\000m\000p\000l\000e\000t\000i\000o\000n}{section.5}% 7
\BOOKMARK [2][-]{subsection.5.3}{\376\377\000R\000e\000d\000u\000c\000t\000i\000o\000n\000\040\000t\000o\000\040\000S}{section.5}% 8
\BOOKMARK [1][-]{section.6}{\376\377\000C\000o\000n\000c\000l\000u\000s\000i\000o\000n}{}% 9
