\relax 
\providecommand\hyper@newdestlabel[2]{}
\providecommand\HyperFirstAtBeginDocument{\AtBeginDocument}
\HyperFirstAtBeginDocument{\ifx\hyper@anchor\@undefined
\global\let\oldcontentsline\contentsline
\gdef\contentsline#1#2#3#4{\oldcontentsline{#1}{#2}{#3}}
\global\let\oldnewlabel\newlabel
\gdef\newlabel#1#2{\newlabelxx{#1}#2}
\gdef\newlabelxx#1#2#3#4#5#6{\oldnewlabel{#1}{{#2}{#3}}}
\AtEndDocument{\ifx\hyper@anchor\@undefined
\let\contentsline\oldcontentsline
\let\newlabel\oldnewlabel
\fi}
\fi}
\global\let\hyper@last\relax 
\gdef\HyperFirstAtBeginDocument#1{#1}
\providecommand\HyField@AuxAddToFields[1]{}
\providecommand\HyField@AuxAddToCoFields[2]{}
\citation{GirardLafontTaylor89}
\citation{CerritoKesnerLICS99}
\citation{ZeilbergerAPAL08}
\citation{BarendregtGhilezanJFP2000}
\citation{SorensenUrzyczyn2006}
\citation{CurienHerbelin2000}
\citation{SorensenUrzyczyn2006}
\select@language{UKenglish}
\@writefile{toc}{\select@language{UKenglish}}
\@writefile{lof}{\select@language{UKenglish}}
\@writefile{lot}{\select@language{UKenglish}}
\@writefile{toc}{\contentsline {section}{\numberline {1}Introduction}{164}{section.1}}
\citation{SorensenUrzyczyn2006}
\citation{Herbelin95}
\citation{jesAPAL13}
\citation{Herbelin95}
\citation{jesTOCS09}
\citation{jesAPAL13}
\citation{Prawitz1965}
\citation{MoggiLFCS88}
\citation{SabryWadler97}
\citation{Herbelin95}
\citation{CervesatoPfenning2003}
\citation{JoachimskiMatthes2003}
\citation{jesICALP00}
\citation{CervesatoPfenning2003}
\citation{DyckhoffUrbanJLC2003}
\citation{Prawitz1965}
\citation{Parigot92}
\@writefile{toc}{\contentsline {section}{\numberline {2}Background}{166}{section.2}}
\newlabel{sec:background}{{2}{166}{Background}{section.2}{}}
\@writefile{toc}{\contentsline {subsection}{\numberline {2.1}Control operation}{166}{subsection.2.1}}
\newlabel{eq:context-subst}{{1}{166}{Control operation}{equation.2.1}{}}
\citation{jesAPAL13}
\citation{jesAPAL13}
\citation{JoachimskiMatthes2003}
\providecommand*\caption@xref[2]{\@setref\relax\@undefined{#1}}
\newlabel{fig:lmmt}{{1}{167}{The $\lmmt $-calculus\relax }{figure.caption.1}{}}
\@writefile{toc}{\contentsline {subsection}{\numberline {2.2}Vector notation}{167}{subsection.2.2}}
\citation{CurienHerbelin2000}
\citation{CurienHerbelin2000}
\citation{CurienHerbelin2000}
\newlabel{fig:typing-ultimate}{{2}{168}{Typing rules of the $\uol $-calculus\relax }{figure.caption.2}{}}
\@writefile{toc}{\contentsline {section}{\numberline {3}Sequent calculus}{168}{section.3}}
\newlabel{sec:ultimate}{{3}{168}{Sequent calculus}{section.3}{}}
\@writefile{toc}{\contentsline {subsection}{\numberline {3.1}The $\overline  {\lambda \mathaccentV {tilde}07E{\mu }}$-calculus}{168}{subsection.3.1}}
\citation{Herbelin95}
\newlabel{fig:reduction-rules-ultimate}{{3}{169}{Reduction rules of $\uol $\relax }{figure.caption.3}{}}
\@writefile{toc}{\contentsline {subsection}{\numberline {3.2}The proof theory of vector notation}{169}{subsection.3.2}}
\newlabel{subsec:vector}{{3.2}{169}{The proof theory of vector notation}{subsection.3.2}{}}
\citation{jesICALP00}
\citation{CervesatoPfenning2003}
\citation{DyckhoffUrbanJLC2003}
\citation{Herbelin95}
\@writefile{toc}{\contentsline {section}{\numberline {4}Natural deduction}{170}{section.4}}
\newlabel{sec:natural-deduction}{{4}{170}{Natural deduction}{section.4}{}}
\@writefile{toc}{\contentsline {subsection}{\numberline {4.1}The $\relax $\@@underline {\hbox {\lambda \mathsf  {let}}}\mathsurround \z@ $\relax $-calculus}{170}{subsection.4.1}}
\newlabel{thm:subformula}{{1}{170}{Subformula property}{theorem.4.1}{}}
\newlabel{fig:typing-nat-ded}{{4}{171}{Typing rules of $\unat $\relax }{figure.caption.4}{}}
\newlabel{fig:reduction-rules-nat-ded}{{5}{171}{Reduction rules of $\unat $\relax }{figure.caption.5}{}}
\@writefile{toc}{\contentsline {subsection}{\numberline {4.2}Isomorphism}{171}{subsection.4.2}}
\newlabel{subsec:isomorphism}{{4.2}{171}{Isomorphism}{subsection.4.2}{}}
\newlabel{thm:isomorphism}{{2}{171}{Isomorphism}{theorem.4.2}{}}
\citation{jesAPAL13}
\citation{Prawitz1965}
\citation{PierceTurnerPOPL98}
\citation{ZeilbergerAPAL08}
\newlabel{fig:Theta}{{6}{172}{Map $\Theta :\uol \longrightarrow \unat $\relax }{figure.caption.6}{}}
\newlabel{fig:Psi}{{7}{172}{Map $\Psi :\unat \longrightarrow \uol $\relax }{figure.caption.7}{}}
\@writefile{toc}{\contentsline {subsection}{\numberline {4.3}Forgetfulness}{172}{subsection.4.3}}
\newlabel{subsec:forgetfulness}{{4.3}{172}{Forgetfulness}{subsection.4.3}{}}
\newlabel{thm:SN}{{3}{172}{Strong normalization}{theorem.4.3}{}}
\newlabel{thm:focalization}{{4}{172}{Focalization}{theorem.4.4}{}}
\@writefile{toc}{\contentsline {subsection}{\numberline {4.4}Computational interpretation}{172}{subsection.4.4}}
\newlabel{subsec:computational-interpret}{{4.4}{172}{Computational interpretation}{subsection.4.4}{}}
\citation{MoggiLFCS88}
\citation{SabryWadler97}
\citation{CurienHerbelin2000}
\citation{CurienHerbelin2000}
\newlabel{thm:agnosticism}{{5}{173}{Agnosticism}{theorem.4.5}{}}
\@writefile{toc}{\contentsline {subsection}{\numberline {4.5}Epilogue}{173}{subsection.4.5}}
\newlabel{subsec:epilogue}{{4.5}{173}{Epilogue}{subsection.4.5}{}}
\citation{Herbelin95}
\newlabel{fig:shared-organization}{{8}{174}{Agnosticism: the shared organization of CBN and CBV strategies\relax }{figure.caption.8}{}}
\newlabel{fig:roadmap}{{9}{174}{The sequent calculus/natural deduction mirror.\relax }{figure.caption.9}{}}
\citation{jesTOCS09}
\newlabel{fig:Curry-Howard}{{10}{175}{Curry-Howard for sequent calculus\relax }{figure.caption.10}{}}
\@writefile{toc}{\contentsline {section}{\numberline {5}Duality}{175}{section.5}}
\newlabel{sec:duality}{{5}{175}{Duality}{section.5}{}}
\citation{Gentzen1969}
\citation{CurienHerbelin2000}
\citation{CurienHerbelin2000}
\newlabel{fig:unified}{{11}{176}{The unified calculus\relax }{figure.caption.11}{}}
\citation{jesTOCS09}
\citation{jesAPAL13}
\citation{Herbelin95}
\citation{CurienHerbelin2000}
\citation{JoachimskiMatthes2003}
\citation{jesICALP00}
\citation{CervesatoPfenning2003}
\citation{DyckhoffUrbanJLC2003}
\citation{jesTOCS09}
\citation{jesAPAL13}
\@writefile{toc}{\contentsline {section}{\numberline {6}Conclusions}{177}{section.6}}
\newlabel{sec:conclusions}{{6}{177}{Conclusions}{section.6}{}}
\bibdata{jes}
\bibcite{BarendregtGhilezanJFP2000}{1}
\bibcite{CerritoKesnerLICS99}{2}
\bibcite{CervesatoPfenning2003}{3}
\bibcite{CurienHerbelin2000}{4}
\bibcite{DyckhoffUrbanJLC2003}{5}
\bibcite{jesICALP00}{6}
\bibcite{jesTOCS09}{7}
\bibcite{Gentzen1969}{8}
\bibcite{GirardLafontTaylor89}{9}
\bibcite{Herbelin95}{10}
\bibcite{JoachimskiMatthes2003}{11}
\bibcite{MoggiLFCS88}{12}
\bibcite{Parigot92}{13}
\bibcite{PierceTurnerPOPL98}{14}
\bibcite{Prawitz1965}{15}
\bibcite{SabryWadler97}{16}
\bibcite{jesAPAL13}{17}
\bibcite{SorensenUrzyczyn2006}{18}
\bibcite{ZeilbergerAPAL08}{19}
\bibstyle{plain}
\newlabel{LastPage}{{}{178}{}{page.178}{}}
\xdef\lastpage@lastpage{178}
\xdef\lastpage@lastpageHy{178}
