\relax 
\providecommand\hyper@newdestlabel[2]{}
\providecommand\HyperFirstAtBeginDocument{\AtBeginDocument}
\HyperFirstAtBeginDocument{\ifx\hyper@anchor\@undefined
\global\let\oldcontentsline\contentsline
\gdef\contentsline#1#2#3#4{\oldcontentsline{#1}{#2}{#3}}
\global\let\oldnewlabel\newlabel
\gdef\newlabel#1#2{\newlabelxx{#1}#2}
\gdef\newlabelxx#1#2#3#4#5#6{\oldnewlabel{#1}{{#2}{#3}}}
\AtEndDocument{\ifx\hyper@anchor\@undefined
\let\contentsline\oldcontentsline
\let\newlabel\oldnewlabel
\fi}
\fi}
\global\let\hyper@last\relax 
\gdef\HyperFirstAtBeginDocument#1{#1}
\providecommand\HyField@AuxAddToFields[1]{}
\providecommand\HyField@AuxAddToCoFields[2]{}
\bibstyle{plain}
\citation{BC15}
\citation{SimplObj}
\citation{SimplObj}
\citation{KLV}
\citation{BC15}
\select@language{UKenglish}
\@writefile{toc}{\select@language{UKenglish}}
\@writefile{lof}{\select@language{UKenglish}}
\@writefile{lot}{\select@language{UKenglish}}
\@writefile{toc}{\contentsline {section}{\numberline {1}Introduction}{0}{section.1}}
\newlabel{sec:introduction}{{1}{0}{Introduction}{section.1}{}}
\newlabel{HeqFibers}{{1}{0}{classical}{theorem.1.1}{}}
\newlabel{XtoY_edgeRev}{{2}{0}{classical}{theorem.1.2}{}}
\newlabel{XtoY_edgeComp}{{3}{0}{classical}{theorem.1.3}{}}
\newlabel{XtoY_Kan_if_XY_Kan}{{4}{0}{classical}{theorem.1.4}{}}
\citation{Hofmann}
\citation{Voevodsky2009}
\citation{KLV}
\citation{AwodeyWarren}
\citation{Moore1956}
\citation{SimplObj}
\citation{GabrielZisman1967}
\citation{SimplObj}
\citation{SimplHT}
\citation{Friedman2008}
\@writefile{toc}{\contentsline {section}{\numberline {2}Preliminaries}{2}{section.2}}
\newlabel{sec:preliminaries}{{2}{2}{Preliminaries}{section.2}{}}
\newlabel{def:1}{{5}{2}{Simplicial set}{theorem.2.5}{}}
\newlabel{simp:1}{{1}{2}{Simplicial set}{equation.2.1}{}}
\newlabel{simp:2}{{2}{2}{Simplicial set}{equation.2.2}{}}
\newlabel{simp:3}{{3}{2}{Simplicial set}{equation.2.3}{}}
\newlabel{simp:4}{{4}{2}{Simplicial set}{equation.2.4}{}}
\newlabel{simp:5}{{5}{2}{Simplicial set}{equation.2.5}{}}
\citation{BC15}
\newlabel{Kan_simpl_set}{{6}{3}{Kan simplicial set}{theorem.2.6}{}}
\newlabel{def:Kan condition}{{6}{3}{Kan simplicial set}{theorem.2.6}{}}
\newlabel{Kan_graph}{{7}{3}{Kan graph}{theorem.2.7}{}}
\@writefile{toc}{\contentsline {section}{\numberline {3}Examples of simplicial sets}{3}{section.3}}
\newlabel{sec:exsimplsets}{{3}{3}{Examples of simplicial sets}{section.3}{}}
\@writefile{toc}{\contentsline {subsection}{\numberline {3.1}Standard simplicial $k$-simplex $\Delta ^{k}$}{3}{subsection.3.1}}
\newlabel{sec:delta_k}{{3.1}{3}{Standard simplicial $k$-simplex $\Delta ^{k}$}{subsection.3.1}{}}
\@writefile{toc}{\contentsline {subsection}{\numberline {3.2}The $k$-horns $\Lambda _j^{k}$}{3}{subsection.3.2}}
\newlabel{sec:lambda_k}{{3.2}{3}{The $k$-horns $\Lambda _j^{k}$}{subsection.3.2}{}}
\citation{Moore1956}
\citation{BC15}
\citation{SimplHT}
\@writefile{toc}{\contentsline {subsection}{\numberline {3.3}Cartesian products}{4}{subsection.3.3}}
\@writefile{toc}{\contentsline {subsection}{\numberline {3.4}Function spaces}{4}{subsection.3.4}}
\newlabel{sec:yx}{{3.4}{4}{Function spaces}{subsection.3.4}{}}
\@writefile{toc}{\contentsline {subsection}{\numberline {3.5}The simplicial set defined by a reflexive multigraph}{4}{subsection.3.5}}
\newlabel{sec:Kan graph ss}{{3.5}{4}{The simplicial set defined by a reflexive multigraph}{subsection.3.5}{}}
\newlabel{canonicalEp}{{8}{4}{}{theorem.3.8}{}}
\newlabel{lem:kangraphkanset}{{9}{4}{}{theorem.3.9}{}}
\@writefile{toc}{\contentsline {section}{\numberline {4}Edge reversal}{5}{section.4}}
\newlabel{sec:edgereversal}{{4}{5}{Edge reversal}{section.4}{}}
\@writefile{toc}{\contentsline {subsection}{\numberline {4.1}Edge reversal, definition and classical proof}{5}{subsection.4.1}}
\newlabel{sec:reversing}{{4.1}{5}{Edge reversal, definition and classical proof}{subsection.4.1}{}}
\newlabel{lem:kansetedgerev}{{11}{5}{}{theorem.4.11}{}}
\citation{KripkeSem}
\newlabel{xycompatible}{{12}{6}{\emph {$Y^{X}$-good}}{theorem.4.12}{}}
\newlabel{lem:comptatibleFtoMap}{{13}{6}{}{theorem.4.13}{}}
\newlabel{lem:edgereversal}{{14}{6}{classical}{theorem.4.14}{}}
\providecommand*\caption@xref[2]{\@setref\relax\@undefined{#1}}
\newlabel{kripke_model_table}{{1}{7}{Kripke (counter)model for edge reversal. \relax }{table.caption.2}{}}
\@writefile{toc}{\contentsline {subsection}{\numberline {4.2}Edge reversal, the Kripke countermodel}{7}{subsection.4.2}}
\newlabel{ssec:reversingModel}{{4.2}{7}{Edge reversal, the Kripke countermodel}{subsection.4.2}{}}
\@writefile{toc}{\contentsline {section}{\numberline {5}Edge composition}{7}{section.5}}
\newlabel{sec:composition}{{5}{7}{Edge composition}{section.5}{}}
\newlabel{lem:kansetedgecomp}{{16}{7}{}{theorem.5.16}{}}
\newlabel{rev_kripke1}{{1}{8}{Kripke (counter)model for edge reversal, day 1.\relax }{figure.caption.3}{}}
\newlabel{rev_kripke2}{{2}{8}{Kripke (counter)model for edge reversal, day 2.\relax }{figure.caption.4}{}}
\newlabel{lem:edgecomp}{{17}{8}{classical}{theorem.5.17}{}}
\newlabel{comp_kripke1}{{3}{9}{Kripke (counter)model for edge composition, day 1.\relax }{figure.caption.5}{}}
\newlabel{comp_kripke2}{{4}{9}{Kripke (counter)model for edge composition, day 2.\relax }{figure.caption.6}{}}
\@writefile{toc}{\contentsline {section}{\numberline {6}Evaluation of the results}{9}{section.6}}
\newlabel{sec:evaluation}{{6}{9}{Evaluation of the results}{section.6}{}}
\citation{Lubarsky2015}
\citation{McCarty2015}
\citation{Nikolaus2010}
\newlabel{fig:summary}{{5}{10}{Summary of results, all implications constructive.\relax }{figure.caption.7}{}}
\@writefile{toc}{\contentsline {section}{\numberline {7}Kan graphs with explicit filler functions}{10}{section.7}}
\newlabel{sec:kan-graphs-with}{{7}{10}{Kan graphs with explicit filler functions}{section.7}{}}
\citation{BC15}
\newlabel{lem:filledgereversal}{{21}{11}{}{theorem.7.21}{}}
\newlabel{lem:ffunctionedgereversal}{{22}{11}{}{theorem.7.22}{}}
\newlabel{fig:frev}{{6}{12}{Reversing $F$\relax }{figure.caption.8}{}}
\newlabel{lem:fedgecomp}{{23}{12}{}{theorem.7.23}{}}
\citation{BC15}
\citation{Nikolaus2010}
\newlabel{fig:fcomp}{{7}{13}{Filling the horn $\Lambda ^{2}_{1}$\relax }{figure.caption.9}{}}
\@writefile{toc}{\contentsline {section}{\numberline {8}Conclusions and Future Research}{13}{section.8}}
\newlabel{sec:conclusion}{{8}{13}{Conclusions and Future Research}{section.8}{}}
\bibdata{kmod}
\bibcite{AwodeyWarren}{1}
\bibcite{BC15}{2}
\bibcite{Friedman2008}{3}
\bibcite{GabrielZisman1967}{4}
\bibcite{SimplHT}{5}
\bibcite{Hofmann}{6}
\bibcite{KLV}{7}
\bibcite{KripkeSem}{8}
\bibcite{Lubarsky2015}{9}
\bibcite{SimplObj}{10}
\bibcite{McCarty2015}{11}
\bibcite{Moore1956}{12}
\bibcite{Nikolaus2010}{13}
\bibcite{Voevodsky2009}{14}
\newlabel{LastPage}{{}{14}{}{page.14}{}}
\xdef\lastpage@lastpage{14}
\xdef\lastpage@lastpageHy{14}
