\relax 
\providecommand\hyper@newdestlabel[2]{}
\providecommand\HyperFirstAtBeginDocument{\AtBeginDocument}
\HyperFirstAtBeginDocument{\ifx\hyper@anchor\@undefined
\global\let\oldcontentsline\contentsline
\gdef\contentsline#1#2#3#4{\oldcontentsline{#1}{#2}{#3}}
\global\let\oldnewlabel\newlabel
\gdef\newlabel#1#2{\newlabelxx{#1}#2}
\gdef\newlabelxx#1#2#3#4#5#6{\oldnewlabel{#1}{{#2}{#3}}}
\AtEndDocument{\ifx\hyper@anchor\@undefined
\let\contentsline\oldcontentsline
\let\newlabel\oldnewlabel
\fi}
\fi}
\global\let\hyper@last\relax 
\gdef\HyperFirstAtBeginDocument#1{#1}
\providecommand\HyField@AuxAddToFields[1]{}
\providecommand\HyField@AuxAddToCoFields[2]{}
\citation{PeytonJones}
\citation{Kahl-2004a}
\citation{CK04}
\citation{KvOdV08}
\citation{JK09}
\citation{Petit09}
\citation{CK04}
\citation{CirsteaFK07}
\citation{Bal2012}
\citation{barendregt84nh}
\citation{barendregt84nh}
\citation{tipoA-BCD:JSL}
\citation{krivine93book}
\select@language{UKenglish}
\@writefile{toc}{\select@language{UKenglish}}
\@writefile{lof}{\select@language{UKenglish}}
\@writefile{lot}{\select@language{UKenglish}}
\@writefile{toc}{\contentsline {section}{\numberline {1}Introduction}{122}{section.1}}
\citation{Urzyczyn99}
\citation{bkdlr14}
\citation{bkdlr14}
\@writefile{toc}{\contentsline {section}{\numberline {2}The Pair Pattern Calculus}{123}{section.2}}
\newlabel{s:calculus}{{2}{123}{The Pair Pattern Calculus}{section.2}{}}
\citation{vOdecreasing}
\newlabel{lem:inf}{{1}{124}{}{theorem.2.1}{}}
\newlabel{lem:inf:uno}{{1}{124}{}{Item.1}{}}
\newlabel{lem:inf:due}{{2}{124}{}{Item.2}{}}
\@writefile{toc}{\contentsline {section}{\numberline {3}The Type System ${\mathcal  P}$}{125}{section.3}}
\newlabel{l:type-system}{{3}{125}{The Type System $\Pu $}{section.3}{}}
\citation{bkdlr14}
\citation{deC09}
\citation{CK04}
\providecommand*\caption@xref[2]{\@setref\relax\@undefined{#1}}
\newlabel{fig:system-pattern}{{1}{126}{The type assignment system $\Pu $.\relax }{figure.caption.1}{}}
\newlabel{l:relevance}{{4}{127}{Relevance}{theorem.3.4}{}}
\newlabel{uno}{{4}{127}{Relevance}{theorem.3.4}{}}
\newlabel{due}{{4}{127}{Relevance}{theorem.3.4}{}}
\newlabel{l:union}{{5}{127}{}{theorem.3.5}{}}
\newlabel{l:substitution-lemma}{{6}{128}{Substitution Lemma}{theorem.3.6}{}}
\newlabel{lem:red:exp}{{9}{128}{}{theorem.3.9}{}}
\newlabel{lem:reduction}{{1}{129}{}{Item.8}{}}
\newlabel{lem:subexp}{{2}{129}{}{Item.9}{}}
\newlabel{l:characterization-canonical}{{10}{129}{Characterization}{theorem.3.10}{}}
\@writefile{toc}{\contentsline {section}{\numberline {4}From canonicity to observability}{129}{section.4}}
\newlabel{sec:from}{{4}{129}{From canonicity to observability}{section.4}{}}
\newlabel{th:completess}{{11}{129}{}{theorem.4.11}{}}
\newlabel{ex:counterex}{{12}{129}{}{theorem.4.12}{}}
\newlabel{l:para-contraejemplo}{{13}{130}{}{theorem.4.13}{}}
\citation{Urzyczyn99}
\citation{bkdlr14}
\@writefile{toc}{\contentsline {section}{\numberline {5}Inhabitation for System ${\mathcal  P}$}{131}{section.5}}
\newlabel{s:inhabitation}{{5}{131}{Inhabitation for System $\Pu $}{section.5}{}}
\citation{BenYellesPhd}
\citation{hindley08}
\newlabel{Prop:approx}{{16}{132}{}{theorem.5.16}{}}
\@writefile{toc}{\contentsline {subsection}{\numberline {5.1}The inhabitation algorithm}{132}{subsection.5.1}}
\newlabel{Exe1}{{17}{133}{}{theorem.5.17}{}}
\newlabel{primo}{{1}{133}{}{Item.12}{}}
\newlabel{l:termination}{{18}{133}{}{theorem.5.18}{}}
\@writefile{toc}{\contentsline {subsection}{\numberline {5.2}Soundness and completeness}{133}{subsection.5.2}}
\newlabel{Lem:main}{{19}{133}{}{theorem.5.19}{}}
\newlabel{t:soundness-completeness}{{20}{133}{Soundness and Completeness}{theorem.5.20}{}}
\newlabel{t:soundness}{{1}{133}{Soundness and Completeness}{Item.20}{}}
\newlabel{t:completeness}{{2}{133}{Soundness and Completeness}{Item.21}{}}
\newlabel{fig:inhabitation-algorithm}{{2}{134}{The inhabitation algorithm\relax }{figure.caption.2}{}}
\@writefile{toc}{\contentsline {section}{\numberline {6}Characterizing Observability}{134}{section.6}}
\newlabel{s:charact}{{6}{134}{Characterizing Observability}{section.6}{}}
\newlabel{l:closed-pair}{{21}{134}{}{theorem.6.21}{}}
\citation{deC09}
\citation{paolini12draft}
\citation{JK09}
\newlabel{t:main-result}{{22}{135}{Characterizing Observability}{theorem.6.22}{}}
\newlabel{thm:con}{{23}{135}{Conservativity}{theorem.6.23}{}}
\@writefile{toc}{\contentsline {section}{\numberline {7}Conclusion and Further Work}{135}{section.7}}
\newlabel{s:conclusion}{{7}{135}{Conclusion and Further Work}{section.7}{}}
\bibstyle{abbrv}
\bibdata{structure}
\bibcite{Bal2012}{1}
\bibcite{barendregt84nh}{2}
\bibcite{tipoA-BCD:JSL}{3}
\bibcite{BenYellesPhd}{4}
\bibcite{bkdlr14}{5}
\bibcite{CK04}{6}
\bibcite{CirsteaFK07}{7}
\bibcite{deC09}{8}
\bibcite{hindley08}{9}
\bibcite{JK09}{10}
\bibcite{Kahl-2004a}{11}
\bibcite{KvOdV08}{12}
\bibcite{krivine93book}{13}
\bibcite{paolini12draft}{14}
\bibcite{Petit09}{15}
\bibcite{PeytonJones}{16}
\bibcite{Urzyczyn99}{17}
\bibcite{vOdecreasing}{18}
\newlabel{LastPage}{{}{136}{}{page.136}{}}
\xdef\lastpage@lastpage{136}
\xdef\lastpage@lastpageHy{136}
