This is BibTeX, Version 0.99d (TeX Live 2014)
Capacity: max_strings=35307, hash_size=35307, hash_prime=30011
The top-level auxiliary file: p122-bucciarelli.aux
The style file: abbrv.bst
Database file #1: structure.bib
Warning--empty year in paolini12draft
You've used 18 entries,
            2118 wiz_defined-function locations,
            646 strings with 6646 characters,
and the built_in function-call counts, 5662 in all, are:
= -- 550
> -- 220
< -- 7
+ -- 92
- -- 67
* -- 384
:= -- 950
add.period$ -- 60
call.type$ -- 18
change.case$ -- 80
chr.to.int$ -- 0
cite$ -- 19
duplicate$ -- 239
empty$ -- 481
format.name$ -- 67
if$ -- 1203
int.to.chr$ -- 0
int.to.str$ -- 18
missing$ -- 21
newline$ -- 95
num.names$ -- 44
pop$ -- 82
preamble$ -- 1
purify$ -- 66
quote$ -- 0
skip$ -- 157
stack$ -- 0
substring$ -- 329
swap$ -- 55
text.length$ -- 7
text.prefix$ -- 0
top$ -- 0
type$ -- 64
warning$ -- 1
while$ -- 56
width$ -- 20
write$ -- 209
(There was 1 warning)
