\relax 
\providecommand\hyper@newdestlabel[2]{}
\providecommand\HyperFirstAtBeginDocument{\AtBeginDocument}
\HyperFirstAtBeginDocument{\ifx\hyper@anchor\@undefined
\global\let\oldcontentsline\contentsline
\gdef\contentsline#1#2#3#4{\oldcontentsline{#1}{#2}{#3}}
\global\let\oldnewlabel\newlabel
\gdef\newlabel#1#2{\newlabelxx{#1}#2}
\gdef\newlabelxx#1#2#3#4#5#6{\oldnewlabel{#1}{{#2}{#3}}}
\AtEndDocument{\ifx\hyper@anchor\@undefined
\let\contentsline\oldcontentsline
\let\newlabel\oldnewlabel
\fi}
\fi}
\global\let\hyper@last\relax 
\gdef\HyperFirstAtBeginDocument#1{#1}
\providecommand\HyField@AuxAddToFields[1]{}
\providecommand\HyField@AuxAddToCoFields[2]{}
\bibstyle{plain}
\citation{Plotkin75}
\citation{PaoliniRonchi99}
\citation{ronchi04book}
\citation{carraro14lncs}
\citation{ronchi04book}
\citation{accattoli12lncs}
\citation{carraro14lncs}
\select@language{UKenglish}
\@writefile{toc}{\select@language{UKenglish}}
\@writefile{lof}{\select@language{UKenglish}}
\@writefile{lot}{\select@language{UKenglish}}
\select@language{UKenglish}
\@writefile{toc}{\select@language{UKenglish}}
\@writefile{lof}{\select@language{UKenglish}}
\@writefile{lot}{\select@language{UKenglish}}
\@writefile{toc}{\contentsline {section}{\numberline {1}Introduction}{210}{section.1}}
\citation{CurryFeys58}
\citation{hindley78}
\citation{barendregt84nh}
\citation{Plotkin75}
\citation{ronchi04book}
\citation{paolini04iandc}
\citation{Crary09}
\citation{Takahashi95}
\citation{hindley78}
\citation{barendregt84nh}
\citation{Plotkin75}
\citation{Takahashi95}
\citation{ronchi04book}
\citation{Crary09}
\citation{ronchi04book}
\citation{carraro14lncs}
\citation{moggi89lics}
\citation{SabryFelleisen93}
\citation{Maraistetal99}
\citation{herbelin09lncs}
\citation{accattoli12lncs}
\citation{accattoli12lncs}
\citation{moggi89lics}
\citation{SabryFelleisen93}
\citation{Maraistetal99}
\citation{herbelin09lncs}
\citation{carraro14lncs}
\citation{Plotkin75}
\citation{carraro14lncs}
\citation{Plotkin75}
\citation{Plotkin75}
\citation{carraro14lncs}
\citation{Girard87}
\@writefile{toc}{\contentsline {section}{\numberline {2}The call-by-value lambda calculus with sigma-rules}{212}{section.2}}
\newlabel{sect:calculus}{{2}{212}{The call-by-value lambda calculus with sigma-rules}{section.2}{}}
\newlabel{def:lsv-reduction}{{1}{212}{Reduction rules}{theorem.2.1}{}}
\citation{carraro14lncs}
\citation{Plotkin75}
\citation{Plotkin75}
\citation{accattoli12lncs}
\citation{accattoli12lncs}
\citation{Takahashi95}
\citation{Crary09}
\citation{PaoliniRonchi99}
\citation{Plotkin75}
\citation{SabryFelleisen93}
\citation{Crary09}
\newlabel{rmk:fromvalue}{{3}{213}{}{theorem.2.3}{}}
\newlabel{prop:general-properties}{{4}{213}{See \cite {carraro14lncs}}{theorem.2.4}{}}
\newlabel{ex:reductions}{{5}{213}{}{theorem.2.5}{}}
\@writefile{toc}{\contentsline {section}{\numberline {3}Sequentialization}{213}{section.3}}
\newlabel{sect:sequentialize}{{3}{213}{\texorpdfstring {Sequentialization}{Sequentialization}}{section.3}{}}
\newlabel{def:headbetav}{{6}{213}{Head $\beta _v$-reduction}{theorem.3.6}{}}
\newlabel{def:headsigma}{{7}{214}{Head $\sigma $-reduction}{theorem.3.7}{}}
\newlabel{def:parallel}{{8}{214}{Parallel reduction}{theorem.3.8}{}}
\newlabel{def:internal}{{9}{214}{Internal and strong parallel reduction}{theorem.3.9}{}}
\newlabel{rmk:reflexive}{{10}{215}{}{theorem.3.10}{}}
\newlabel{rmk:abs.novalue}{{1}{215}{}{Item.1}{}}
\newlabel{rmk:abs.notovalue}{{2}{215}{}{Item.2}{}}
\newlabel{rmk:abs.anti}{{3}{215}{}{Item.3}{}}
\newlabel{rmk:abs.parallel}{{4}{215}{}{Item.4}{}}
\newlabel{rmk:abs.value}{{5}{215}{}{Item.5}{}}
\newlabel{rmk:abs}{{11}{215}{}{Item.5}{}}
\newlabel{rmk:preliminary.appparallel}{{1}{215}{}{Item.6}{}}
\newlabel{rmk:preliminary.apphead}{{2}{215}{}{Item.7}{}}
\newlabel{rmk:preliminary.appinternal}{{3}{215}{}{Item.8}{}}
\newlabel{rmk:preliminary.confluence}{{4}{215}{}{Item.9}{}}
\newlabel{rmk:preliminary.interinclusion}{{5}{215}{}{Item.10}{}}
\newlabel{rmk:preliminary.headsubstitution}{{6}{215}{}{Item.11}{}}
\newlabel{rmk:preliminary}{{12}{215}{}{Item.11}{}}
\newlabel{lemma:parallelsubstitution}{{13}{215}{Substitution lemma for $\Rightarrow $}{theorem.3.13}{}}
\citation{Takahashi95}
\citation{Crary09}
\newlabel{lemma:commutation}{{14}{216}{Commutation of head reductions}{theorem.3.14}{}}
\newlabel{lemma:commutation.onestep}{{1}{216}{Commutation of head reductions}{Item.12}{}}
\newlabel{lemma:commutation.transitive}{{2}{216}{Commutation of head reductions}{Item.13}{}}
\newlabel{lemma:commutation.general}{{3}{216}{Commutation of head reductions}{Item.14}{}}
\newlabel{lemma:nonvalue}{{15}{216}{}{theorem.3.15}{}}
\newlabel{lemma:appstrong}{{16}{216}{}{theorem.3.16}{}}
\citation{Takahashi95}
\citation{Crary09}
\newlabel{lemma:bastard}{{17}{217}{}{theorem.3.17}{}}
\newlabel{lemma:strongparallelsubstitution}{{18}{217}{Substitution lemma for $\Rrightarrow $}{theorem.3.18}{}}
\newlabel{lemma:main}{{19}{217}{Key Lemma}{theorem.3.19}{}}
\newlabel{lemma:postpone}{{20}{218}{Postponement}{theorem.3.20}{}}
\citation{Takahashi95}
\citation{Plotkin75}
\newlabel{cor:postponeinternal}{{21}{219}{}{theorem.3.21}{}}
\newlabel{thm:trifurcate}{{22}{219}{Sequentialization}{theorem.3.22}{}}
\citation{herbelin09lncs}
\@writefile{toc}{\contentsline {section}{\numberline {4}Standardization}{220}{section.4}}
\newlabel{sect:sos}{{4}{220}{Standardization}{section.4}{}}
\newlabel{def:std}{{23}{220}{Standard and inner sequences}{theorem.4.23}{}}
\newlabel{1}{{1}{220}{Standard and inner sequences}{Item.18}{}}
\newlabel{2}{{2}{220}{Standard and inner sequences}{Item.19}{}}
\newlabel{3}{{3}{220}{Standard and inner sequences}{Item.20}{}}
\newlabel{4}{{4}{220}{Standard and inner sequences}{Item.21}{}}
\newlabel{5}{{5}{220}{Standard and inner sequences}{Item.22}{}}
\newlabel{rmk:seq}{{24}{220}{}{theorem.4.24}{}}
\newlabel{uno}{{1}{220}{Standardization}{Item.23}{}}
\newlabel{due}{{2}{220}{Standardization}{Item.24}{}}
\newlabel{thm:standardization}{{25}{220}{Standardization}{Item.24}{}}
\citation{Plotkin75}
\citation{Plotkin75}
\citation{herbelin09lncs}
\citation{Plotkin75}
\citation{Plotkin75}
\citation{PaoliniRonchi99}
\citation{Plotkin75}
\@writefile{toc}{\contentsline {section}{\numberline {5}Some conservativity results}{221}{section.5}}
\newlabel{sect:conservative}{{5}{221}{Some conservativity results}{section.5}{}}
\newlabel{cor:value.one}{{1}{221}{}{Item.27}{}}
\newlabel{cor:value.two}{{2}{221}{}{Item.28}{}}
\newlabel{cor:value}{{26}{221}{}{Item.28}{}}
\citation{Plotkin75}
\citation{Plotkin75}
\citation{carraro14lncs}
\citation{PaoliniRonchi99}
\citation{ronchi04book}
\newlabel{def:halt}{{27}{222}{Halting, observational equivalence}{theorem.5.27}{}}
\newlabel{thm:adequacy}{{28}{222}{Adequacy of $\vg $-reduction}{theorem.5.28}{}}
\newlabel{cor:observational}{{29}{222}{Soundness}{theorem.5.29}{}}
\newlabel{def:valsolv}{{30}{222}{Potential valuability, solvability}{theorem.5.30}{}}
\newlabel{def:valsolv.potval}{{30}{222}{Potential valuability, solvability}{theorem.5.30}{}}
\newlabel{def:valsolv.solv}{{30}{222}{Potential valuability, solvability}{theorem.5.30}{}}
\newlabel{thm:valsolv}{{31}{222}{}{theorem.5.31}{}}
\newlabel{thm:valsolv.potval}{{1}{222}{}{Item.29}{}}
\newlabel{thm:valsolv.solv}{{2}{222}{}{Item.30}{}}
\citation{carraro14lncs}
\citation{PaoliniRonchi99}
\citation{ronchi04book}
\citation{carraro14lncs}
\citation{Takahashi95}
\citation{PaoliniRonchi99}
\citation{ronchi04book}
\citation{paolini02ictcs}
\citation{ronchi04book}
\citation{herbelin09lncs}
\citation{accattoli12lncs}
\@writefile{toc}{\contentsline {section}{\numberline {6}Conclusions}{223}{section.6}}
\newlabel{sect:conclusions}{{6}{223}{Conclusions}{section.6}{}}
\bibdata{biblio}
\bibcite{accattoli12lncs}{1}
\bibcite{barendregt84nh}{2}
\bibcite{carraro14lncs}{3}
\bibcite{Crary09}{4}
\bibcite{CurryFeys58}{5}
\bibcite{Girard87}{6}
\bibcite{herbelin09lncs}{7}
\bibcite{hindley78}{8}
\bibcite{Maraistetal99}{9}
\bibcite{moggi89lics}{10}
\bibcite{paolini02ictcs}{11}
\bibcite{paolini04iandc}{12}
\bibcite{PaoliniRonchi99}{13}
\bibcite{ronchi04book}{14}
\bibcite{Plotkin75}{15}
\bibcite{SabryFelleisen93}{16}
\bibcite{Takahashi95}{17}
\@writefile{toc}{\contentsline {section}{References}{224}{section*.1}}
\newlabel{LastPage}{{}{224}{}{page.224}{}}
\xdef\lastpage@lastpage{224}
\xdef\lastpage@lastpageHy{224}
