\relax 
\providecommand\hyper@newdestlabel[2]{}
\providecommand\HyperFirstAtBeginDocument{\AtBeginDocument}
\HyperFirstAtBeginDocument{\ifx\hyper@anchor\@undefined
\global\let\oldcontentsline\contentsline
\gdef\contentsline#1#2#3#4{\oldcontentsline{#1}{#2}{#3}}
\global\let\oldnewlabel\newlabel
\gdef\newlabel#1#2{\newlabelxx{#1}#2}
\gdef\newlabelxx#1#2#3#4#5#6{\oldnewlabel{#1}{{#2}{#3}}}
\AtEndDocument{\ifx\hyper@anchor\@undefined
\let\contentsline\oldcontentsline
\let\newlabel\oldnewlabel
\fi}
\fi}
\global\let\hyper@last\relax 
\gdef\HyperFirstAtBeginDocument#1{#1}
\providecommand\HyField@AuxAddToFields[1]{}
\providecommand\HyField@AuxAddToCoFields[2]{}
\bibstyle{plain}
\citation{harperHonsellPlotkin:LF}
\citation{Pientka:POPL08,Cave:POPL12}
\citation{Nanevski:ICML05}
\citation{PientkaDunfield:IJCAR10}
\citation{Cave:POPL12}
\citation{Belanger:CPP13}
\citation{Ferreira:PPDP14}
\select@language{UKenglish}
\@writefile{toc}{\select@language{UKenglish}}
\@writefile{lof}{\select@language{UKenglish}}
\@writefile{lot}{\select@language{UKenglish}}
\@writefile{toc}{\contentsline {section}{\numberline {1}Introduction}{0}{section.1}}
\citation{Abel:TLCA11}
\citation{dunfieldPientka:entcs09,pientka:jar05}
\citation{Cave:POPL12}
\citation{Pientka:JFP13,Ferreira:PPDP14}
\@writefile{toc}{\contentsline {section}{\numberline {2}General Idea}{1}{section.2}}
\newlabel{sec:idea}{{2}{1}{General Idea}{section.2}{}}
\@writefile{toc}{\contentsline {subsection}{\numberline {2.1}Example 1: Equality on Natural Numbers}{1}{subsection.2.1}}
\providecommand*\caption@xref[2]{\@setref\relax\@undefined{#1}}
\newlabel{list:ref}{{1}{1}{Encoding of an Inductive Proof as a Recursive Function}{lstlisting.1}{}}
\@writefile{lol}{\contentsline {lstlisting}{\numberline {1}Encoding of an Inductive Proof as a Recursive Function}{1}{lstlisting.1}}
\@writefile{toc}{\contentsline {subsection}{\numberline {2.2}Example 2: Intrinsically Typed Terms}{2}{subsection.2.2}}
\newlabel{list:8-6}{{2}{3}{Counting constructors}{lstlisting.2}{}}
\@writefile{lol}{\contentsline {lstlisting}{\numberline {2}Counting constructors}{3}{lstlisting.2}}
\newlabel{list:ctxlength}{{3}{3}{Computing length of a context}{lstlisting.3}{}}
\@writefile{lol}{\contentsline {lstlisting}{\numberline {3}Computing length of a context}{3}{lstlisting.3}}
\@writefile{toc}{\contentsline {section}{\numberline {3}Core language with well-founded recursion}{3}{section.3}}
\newlabel{sec:comp}{{3}{3}{Core language with well-founded recursion}{section.3}{}}
\citation{Pientka:JFP13}
\citation{abel:tutchprimrec}
\newlabel{fig:comptyp}{{1}{5}{Type system for dependently-typed functional computation language\relax }{figure.caption.6}{}}
\@writefile{toc}{\contentsline {subsection}{\numberline {3.1}Computation-level Type System}{5}{subsection.3.1}}
\newlabel{sec:tpcov}{{3.1}{5}{Computation-level Type System}{subsection.3.1}{}}
\citation{Cave:POPL12}
\citation{Nanevski:ICML05}
\citation{harperHonsellPlotkin:LF}
\newlabel{fig:opsem}{{2}{6}{Small-step semantics $e \red e'$ \relax }{figure.caption.7}{}}
\@writefile{toc}{\contentsline {section}{\numberline {4}Operational Semantics}{6}{section.4}}
\newlabel{sec:opsem}{{4}{6}{Operational Semantics}{section.4}{}}
\@writefile{toc}{\contentsline {section}{\numberline {5}Contextual LF: Background, Measure, Splitting}{7}{section.5}}
\newlabel{sec:clf}{{5}{7}{Contextual LF: Background, Measure, Splitting}{section.5}{}}
\@writefile{toc}{\contentsline {subsection}{\numberline {5.1}Contextual LF}{7}{subsection.5.1}}
\citation{watkins:concurrentLFTR}
\newlabel{fig:clftyping}{{3}{8}{Bi-directional typing for contextual LF\relax }{figure.caption.8}{}}
\@writefile{toc}{\contentsline {subsection}{\numberline {5.2}Meta-level Terms and Typing Rules}{8}{subsection.5.2}}
\citation{Nanevski:ICML05,Cave:POPL12}
\citation{pientka:jar05}
\citation{Virga99phd}
\citation{pientka:jar05}
\@writefile{toc}{\contentsline {subsection}{\numberline {5.3}Well-founded Structural Subterm Order }{9}{subsection.5.3}}
\citation{dunfieldPientka:entcs09,pfenningSchuermann:coverage}
\@writefile{toc}{\contentsline {subsection}{\numberline {5.4}Case Splitting}{10}{subsection.5.4}}
\newlabel{fig:neutgen}{{4}{11}{Generation of most general normal objects and call patterns\relax }{figure.caption.9}{}}
\newlabel{fig:patgen}{{4}{11}{Generation of most general normal objects and call patterns\relax }{figure.caption.9}{}}
\newlabel{thm:splitm}{{4}{11}{Splitting on meta-types}{theorem.5.4}{}}
\@writefile{toc}{\contentsline {section}{\numberline {6}Generation of Call Patterns and Coverage}{11}{section.6}}
\newlabel{sec:cp}{{6}{11}{Generation of Call Patterns and Coverage}{section.6}{}}
\citation{xi:terminationHOSC}
\citation{Schurmann:TCS01}
\@writefile{toc}{\contentsline {section}{\numberline {7}Termination}{12}{section.7}}
\newlabel{sec:wn}{{7}{12}{Termination}{section.7}{}}
\citation{Schurmann00phd}
\citation{Pitts:infComp03}
\citation{gacekMillerNadathur:lics08}
\citation{Tiu:JAL12}
\citation{Cave:POPL12}
\bibdata{tlca}
\bibcite{abel:tutchprimrec}{{1}{}{{}}{{}}}
\bibcite{Abel:TLCA11}{{2}{}{{}}{{}}}
\@writefile{toc}{\contentsline {section}{\numberline {8}Related Work}{13}{section.8}}
\@writefile{toc}{\contentsline {section}{\numberline {9}Conclusion}{13}{section.9}}
\bibcite{Belanger:CPP13}{{3}{}{{}}{{}}}
\bibcite{Cave:POPL12}{{4}{}{{}}{{}}}
\bibcite{dunfieldPientka:entcs09}{{5}{}{{}}{{}}}
\bibcite{Ferreira:PPDP14}{{6}{}{{}}{{}}}
\bibcite{gacekMillerNadathur:lics08}{{7}{}{{}}{{}}}
\bibcite{harperHonsellPlotkin:LF}{{8}{}{{}}{{}}}
\bibcite{Nanevski:ICML05}{{9}{}{{}}{{}}}
\bibcite{pientka:jar05}{{10}{}{{}}{{}}}
\bibcite{Pientka:POPL08}{{11}{}{{}}{{}}}
\bibcite{Pientka:JFP13}{{12}{}{{}}{{}}}
\bibcite{PientkaDunfield:IJCAR10}{{13}{}{{}}{{}}}
\bibcite{Pitts:infComp03}{{14}{}{{}}{{}}}
\bibcite{Schurmann00phd}{{15}{}{{}}{{}}}
\bibcite{Schurmann:TCS01}{{16}{}{{}}{{}}}
\bibcite{pfenningSchuermann:coverage}{{17}{}{{}}{{}}}
\bibcite{Tiu:JAL12}{{18}{}{{}}{{}}}
\bibcite{Virga99phd}{{19}{}{{}}{{}}}
\bibcite{watkins:concurrentLFTR}{{20}{}{{}}{{}}}
\bibcite{xi:terminationHOSC}{{21}{}{{}}{{}}}
\newlabel{LastPage}{{}{14}{}{page.14}{}}
\xdef\lastpage@lastpage{14}
\xdef\lastpage@lastpageHy{14}
\providecommand\NAT@force@numbers{}\NAT@force@numbers
