\relax 
\providecommand\hyper@newdestlabel[2]{}
\providecommand\HyperFirstAtBeginDocument{\AtBeginDocument}
\HyperFirstAtBeginDocument{\ifx\hyper@anchor\@undefined
\global\let\oldcontentsline\contentsline
\gdef\contentsline#1#2#3#4{\oldcontentsline{#1}{#2}{#3}}
\global\let\oldnewlabel\newlabel
\gdef\newlabel#1#2{\newlabelxx{#1}#2}
\gdef\newlabelxx#1#2#3#4#5#6{\oldnewlabel{#1}{{#2}{#3}}}
\AtEndDocument{\ifx\hyper@anchor\@undefined
\let\contentsline\oldcontentsline
\let\newlabel\oldnewlabel
\fi}
\fi}
\global\let\hyper@last\relax 
\gdef\HyperFirstAtBeginDocument#1{#1}
\providecommand\HyField@AuxAddToFields[1]{}
\providecommand\HyField@AuxAddToCoFields[2]{}
\bibstyle{plain}
\citation{Reynolds:TACS91}
\citation{Breazu-Tannen-al:IaC91}
\citation{Curien-Ghelli:MSCS92}
\citation{Schwinghammer:JFP09}
\select@language{USenglish}
\@writefile{toc}{\select@language{USenglish}}
\@writefile{lof}{\select@language{USenglish}}
\@writefile{lot}{\select@language{USenglish}}
\@writefile{toc}{\contentsline {section}{\numberline {1}Introduction}{106}{section.1}}
\citation{Mitchell:96}
\citation{JHMorris:PhD}
\citation{Materzok-Biernacki:ICFP11}
\citation{Materzok:CSL13}
\citation{Danvy-Filinski:DIKU89}
\citation{Danvy-Filinski:LFP90}
\citation{Materzok-Biernacki:APLAS12}
\citation{Rompf-al:ICFP09}
\citation{Krivine:APAL94}
\citation{Pitts-Stark:HOOTS98}
\citation{Dreyer-al:JFP12}
\citation{Appel-McAllester:TOPLAS01}
\citation{Ahmed:ESOP06}
\citation{Ahmed-al:POPL09}
\citation{Dreyer-al:LMCS11}
\citation{Mitchell:96}
\citation{Reynolds:TACS91}
\citation{Dreyer-al:LMCS11}
\citation{Appel-McAllester:TOPLAS01}
\citation{Ahmed:ESOP06}
\citation{Ahmed-al:POPL09}
\citation{Ahmed:ESOP06}
\citation{Ahmed-al:POPL09}
\citation{Dreyer-al:LMCS11}
\@writefile{toc}{\contentsline {section}{\numberline {2}Reasoning about step-indexed logical relations}{108}{section.2}}
\newlabel{sec:stepIndexedLogicalRelations}{{2}{108}{Reasoning about step-indexed logical relations}{section.2}{}}
\citation{Appel-POPL07}
\citation{Curien-Ghelli:MSCS92}
\providecommand*\caption@xref[2]{\@setref\relax\@undefined{#1}}
\newlabel{fig:stlcSource}{{1}{109}{The source language -- $\lambda $-calculus with subtyping\relax }{figure.caption.1}{}}
\@writefile{toc}{\contentsline {section}{\numberline {3}Introducing the logical relations}{109}{section.3}}
\newlabel{sec:introducingLogicalRelations}{{3}{109}{Introducing the logical relations}{section.3}{}}
\citation{Mitchell:96}
\newlabel{fig:stlcTarget}{{2}{110}{The target language -- $\lambda $-calculus with explicit coercions\relax }{figure.caption.2}{}}
\@writefile{toc}{\contentsline {subsection}{\numberline {3.1}The simply-typed lambda calculus with subtyping}{110}{subsection.3.1}}
\@writefile{toc}{\contentsline {subsection}{\numberline {3.2}Coercion semantics}{110}{subsection.3.2}}
\newlabel{fig:stlcCoercionSemantics}{{3}{111}{Coercion semantics for the $\lambda $-calculus with subtyping\relax }{figure.caption.3}{}}
\newlabel{lem:stlcTransPreservesTypes}{{1}{111}{}{theorem.3.1}{}}
\@writefile{toc}{\contentsline {subsection}{\numberline {3.3}Logical relations}{111}{subsection.3.3}}
\newlabel{subsec:logicalRelationsSTLC}{{3.3}{111}{Logical relations}{subsection.3.3}{}}
\citation{Pitts-Stark:HOOTS98}
\citation{Dreyer-al:JFP12}
\newlabel{fig:stlcLogRel}{{4}{112}{Logical relations for the $\lambda $-calculus with explicit coercions\relax }{figure.caption.4}{}}
\newlabel{lem:stlcApproxRed}{{2}{112}{}{theorem.3.2}{}}
\newlabel{lem:stlcCoercionCompat}{{3}{112}{Coercion compatibility}{theorem.3.3}{}}
\newlabel{lem:stlcPrecong}{{5}{113}{Precongruence}{theorem.3.5}{}}
\newlabel{lem:stlcAdequacy}{{6}{113}{Adequacy}{theorem.3.6}{}}
\newlabel{thm:stlcRelSoundness}{{7}{113}{Soundness}{theorem.3.7}{}}
\@writefile{toc}{\contentsline {subsection}{\numberline {3.4}Coherence of the coercion semantics}{113}{subsection.3.4}}
\newlabel{subsec:coherenceSTLC}{{3.4}{113}{Coherence of the coercion semantics}{subsection.3.4}{}}
\newlabel{lem:stlcCoherenceLemma}{{8}{113}{}{theorem.3.8}{}}
\citation{Danvy-Filinski:LFP90}
\citation{Materzok-Biernacki:ICFP11}
\citation{Biernacka-Biernacki:PPDP09}
\newlabel{fig:shiftSource}{{5}{114}{The source language -- $\lambda $-calculus with delimited control and effect subtyping\relax }{figure.caption.5}{}}
\@writefile{toc}{\contentsline {section}{\numberline {4}Coherence of a CPS translation of control-effect subtyping}{114}{section.4}}
\newlabel{sec:coherenceEffectSubtyping}{{4}{114}{Coherence of a CPS translation of control-effect subtyping}{section.4}{}}
\citation{Materzok-Biernacki:ICFP11}
\citation{Materzok-Biernacki:ICFP11}
\newlabel{fig:shiftTarget}{{6}{115}{The target language -- $\lambda $-calculus with explicit coercions of control effects\relax }{figure.caption.6}{}}
\@writefile{toc}{\contentsline {subsection}{\numberline {4.1}The lambda calculus with delimited control and effect subtyping}{115}{subsection.4.1}}
\citation{Plotkin:TCS75}
\@writefile{toc}{\contentsline {subsection}{\numberline {4.2}Coercion semantics: a type-directed selective CPS translation}{116}{subsection.4.2}}
\newlabel{subsec:coercionSemanticsEffects}{{4.2}{116}{Coercion semantics: a type-directed selective CPS translation}{subsection.4.2}{}}
\newlabel{fig:shiftCoercionSemantics}{{7}{116}{Type-directed selective CPS translation\relax }{figure.caption.7}{}}
\newlabel{example:ctxPureType}{{10}{116}{}{theorem.4.10}{}}
\newlabel{fig:shiftLogRel}{{8}{117}{Logical relations for the $\lambda $-calculus with explicit coercions of control effects\relax }{figure.caption.8}{}}
\@writefile{toc}{\contentsline {subsection}{\numberline {4.3}Logical relations}{118}{subsection.4.3}}
\newlabel{subsec:logicalRelationsEffects}{{4.3}{118}{Logical relations}{subsection.4.3}{}}
\newlabel{lem:ectxIotaObs}{{12}{118}{}{theorem.4.12}{}}
\@writefile{toc}{\contentsline {subsection}{\numberline {4.4}Coherence of the CPS translation}{118}{subsection.4.4}}
\newlabel{subsec:coherenceEffects}{{4.4}{118}{Coherence of the CPS translation}{subsection.4.4}{}}
\@writefile{toc}{\contentsline {section}{\numberline {5}Conclusion}{119}{section.5}}
\newlabel{sec:conclusion}{{5}{119}{Conclusion}{section.5}{}}
\citation{Asai:TFP05}
\citation{Biernacka-Biernacki:PPDP09}
\citation{Biernacka-al:PPDP11}
\citation{Materzok-Biernacki:ICFP11}
\bibcite{Ahmed-al:POPL09}{1}
\bibcite{Ahmed:ESOP06}{2}
\bibcite{Appel-McAllester:TOPLAS01}{3}
\bibcite{Appel-POPL07}{4}
\bibcite{Asai:TFP05}{5}
\bibcite{Biernacka-Biernacki:PPDP09}{6}
\bibcite{Biernacka-al:PPDP11}{7}
\bibcite{Breazu-Tannen-al:IaC91}{8}
\bibcite{Curien-Ghelli:MSCS92}{9}
\bibcite{Danvy-Filinski:DIKU89}{10}
\bibcite{Danvy-Filinski:LFP90}{11}
\bibcite{Dreyer-al:LMCS11}{12}
\bibcite{Dreyer-al:JFP12}{13}
\bibcite{Krivine:APAL94}{14}
\bibcite{Materzok:CSL13}{15}
\bibcite{Materzok-Biernacki:ICFP11}{16}
\bibcite{Materzok-Biernacki:APLAS12}{17}
\bibcite{Mitchell:96}{18}
\bibcite{JHMorris:PhD}{19}
\bibcite{Pitts-Stark:HOOTS98}{20}
\bibcite{Plotkin:TCS75}{21}
\bibcite{Reynolds:TACS91}{22}
\bibcite{Rompf-al:ICFP09}{23}
\bibcite{Schwinghammer:JFP09}{24}
\newlabel{LastPage}{{}{121}{}{page.121}{}}
\xdef\lastpage@lastpage{121}
\xdef\lastpage@lastpageHy{121}
