\relax 
\providecommand\hyper@newdestlabel[2]{}
\providecommand\HyperFirstAtBeginDocument{\AtBeginDocument}
\HyperFirstAtBeginDocument{\ifx\hyper@anchor\@undefined
\global\let\oldcontentsline\contentsline
\gdef\contentsline#1#2#3#4{\oldcontentsline{#1}{#2}{#3}}
\global\let\oldnewlabel\newlabel
\gdef\newlabel#1#2{\newlabelxx{#1}#2}
\gdef\newlabelxx#1#2#3#4#5#6{\oldnewlabel{#1}{{#2}{#3}}}
\AtEndDocument{\ifx\hyper@anchor\@undefined
\let\contentsline\oldcontentsline
\let\newlabel\oldnewlabel
\fi}
\fi}
\global\let\hyper@last\relax 
\gdef\HyperFirstAtBeginDocument#1{#1}
\providecommand\HyField@AuxAddToFields[1]{}
\providecommand\HyField@AuxAddToCoFields[2]{}
\citation{GirardLafontTaylor89}
\citation{CerritoKesnerLICS99}
\citation{ZeilbergerAPAL08}
\citation{BarendregtGhilezanJFP2000}
\citation{SorensenUrzyczyn2006}
\citation{CurienHerbelin2000}
\citation{SorensenUrzyczyn2006}
\select@language{UKenglish}
\@writefile{toc}{\select@language{UKenglish}}
\@writefile{lof}{\select@language{UKenglish}}
\@writefile{lot}{\select@language{UKenglish}}
\@writefile{toc}{\contentsline {section}{\numberline {1}Introduction}{1}{section.1}}
\citation{SorensenUrzyczyn2006}
\citation{Herbelin95}
\citation{jesAPAL13}
\citation{Herbelin95}
\citation{jesTOCS09}
\citation{jesAPAL13}
\citation{Prawitz1965}
\citation{MoggiLFCS88}
\citation{SabryWadler97}
\citation{Herbelin95}
\citation{CervesatoPfenning2003}
\citation{JoachimskiMatthes2003}
\citation{jesICALP00}
\citation{CervesatoPfenning2003}
\citation{DyckhoffUrbanJLC2003}
\citation{Prawitz1965}
\citation{Parigot92}
\@writefile{toc}{\contentsline {section}{\numberline {2}Background}{3}{section.2}}
\newlabel{sec:background}{{2}{3}{Background}{section.2}{}}
\@writefile{toc}{\contentsline {subsection}{\numberline {2.1}Control operation}{3}{subsection.2.1}}
\citation{jesAPAL13}
\citation{jesAPAL13}
\citation{JoachimskiMatthes2003}
\providecommand*\caption@xref[2]{\@setref\relax\@undefined{#1}}
\newlabel{fig:lmmt}{{1}{4}{The $\lmmt $-calculus\relax }{figure.caption.1}{}}
\newlabel{eq:context-subst}{{1}{4}{Control operation}{equation.2.1}{}}
\@writefile{toc}{\contentsline {subsection}{\numberline {2.2}Vector notation}{4}{subsection.2.2}}
\citation{CurienHerbelin2000}
\citation{CurienHerbelin2000}
\newlabel{fig:typing-ultimate}{{2}{5}{Typing rules of the $\uol $-calculus\relax }{figure.caption.2}{}}
\@writefile{toc}{\contentsline {section}{\numberline {3}Sequent calculus}{5}{section.3}}
\newlabel{sec:ultimate}{{3}{5}{Sequent calculus}{section.3}{}}
\@writefile{toc}{\contentsline {subsection}{\numberline {3.1}The $\overline  {\lambda \mathaccentV {tilde}07E{\mu }}$-calculus}{5}{subsection.3.1}}
\citation{CurienHerbelin2000}
\citation{Herbelin95}
\newlabel{fig:reduction-rules-ultimate}{{3}{6}{Reduction rules of $\uol $\relax }{figure.caption.3}{}}
\@writefile{toc}{\contentsline {subsection}{\numberline {3.2}The proof theory of vector notation}{6}{subsection.3.2}}
\newlabel{subsec:vector}{{3.2}{6}{The proof theory of vector notation}{subsection.3.2}{}}
\citation{jesICALP00}
\citation{CervesatoPfenning2003}
\citation{DyckhoffUrbanJLC2003}
\citation{Herbelin95}
\@writefile{toc}{\contentsline {section}{\numberline {4}Natural deduction}{7}{section.4}}
\newlabel{sec:natural-deduction}{{4}{7}{Natural deduction}{section.4}{}}
\@writefile{toc}{\contentsline {subsection}{\numberline {4.1}The $\relax $\@@underline {\hbox {\lambda \mathsf  {let}}}\mathsurround \z@ $\relax $-calculus}{7}{subsection.4.1}}
\newlabel{fig:typing-nat-ded}{{4}{8}{Typing rules of $\unat $\relax }{figure.caption.4}{}}
\newlabel{fig:reduction-rules-nat-ded}{{5}{8}{Reduction rules of $\unat $\relax }{figure.caption.5}{}}
\newlabel{thm:subformula}{{1}{8}{Subformula property}{theorem.4.1}{}}
\@writefile{toc}{\contentsline {subsection}{\numberline {4.2}Isomorphism}{8}{subsection.4.2}}
\newlabel{subsec:isomorphism}{{4.2}{8}{Isomorphism}{subsection.4.2}{}}
\newlabel{thm:isomorphism}{{2}{8}{Isomorphism}{theorem.4.2}{}}
\citation{jesAPAL13}
\citation{Prawitz1965}
\citation{PierceTurnerPOPL98}
\citation{ZeilbergerAPAL08}
\newlabel{fig:Theta}{{6}{9}{Map $\Theta :\uol \longrightarrow \unat $\relax }{figure.caption.6}{}}
\newlabel{fig:Psi}{{7}{9}{Map $\Psi :\unat \longrightarrow \uol $\relax }{figure.caption.7}{}}
\@writefile{toc}{\contentsline {subsection}{\numberline {4.3}Forgetfulness}{9}{subsection.4.3}}
\newlabel{subsec:forgetfulness}{{4.3}{9}{Forgetfulness}{subsection.4.3}{}}
\newlabel{thm:SN}{{3}{9}{Strong normalization}{theorem.4.3}{}}
\newlabel{thm:focalization}{{4}{9}{Focalization}{theorem.4.4}{}}
\citation{MoggiLFCS88}
\citation{SabryWadler97}
\citation{CurienHerbelin2000}
\citation{CurienHerbelin2000}
\@writefile{toc}{\contentsline {subsection}{\numberline {4.4}Computational interpretation}{10}{subsection.4.4}}
\newlabel{subsec:computational-interpret}{{4.4}{10}{Computational interpretation}{subsection.4.4}{}}
\newlabel{thm:agnosticism}{{5}{10}{Agnosticism}{theorem.4.5}{}}
\citation{Herbelin95}
\newlabel{fig:shared-organization}{{8}{11}{Agnosticism: the shared organization of CBN and CBV strategies\relax }{figure.caption.8}{}}
\newlabel{fig:roadmap}{{9}{11}{The sequent calculus/natural deduction mirror.\relax }{figure.caption.9}{}}
\@writefile{toc}{\contentsline {subsection}{\numberline {4.5}Epilogue}{11}{subsection.4.5}}
\newlabel{subsec:epilogue}{{4.5}{11}{Epilogue}{subsection.4.5}{}}
\citation{jesTOCS09}
\newlabel{fig:Curry-Howard}{{10}{12}{Curry-Howard for sequent calculus\relax }{figure.caption.10}{}}
\@writefile{toc}{\contentsline {section}{\numberline {5}Duality}{12}{section.5}}
\newlabel{sec:duality}{{5}{12}{Duality}{section.5}{}}
\citation{Gentzen1969}
\citation{CurienHerbelin2000}
\citation{CurienHerbelin2000}
\newlabel{fig:unified}{{11}{13}{The unified calculus\relax }{figure.caption.11}{}}
\citation{jesTOCS09}
\citation{jesAPAL13}
\citation{Herbelin95}
\citation{CurienHerbelin2000}
\citation{JoachimskiMatthes2003}
\citation{jesICALP00}
\citation{CervesatoPfenning2003}
\citation{DyckhoffUrbanJLC2003}
\citation{jesTOCS09}
\citation{jesAPAL13}
\@writefile{toc}{\contentsline {section}{\numberline {6}Conclusions}{14}{section.6}}
\newlabel{sec:conclusions}{{6}{14}{Conclusions}{section.6}{}}
\bibdata{jes}
\bibcite{BarendregtGhilezanJFP2000}{1}
\bibcite{CerritoKesnerLICS99}{2}
\bibcite{CervesatoPfenning2003}{3}
\bibcite{CurienHerbelin2000}{4}
\bibcite{DyckhoffUrbanJLC2003}{5}
\bibcite{jesICALP00}{6}
\bibcite{jesTOCS09}{7}
\bibcite{Gentzen1969}{8}
\bibcite{GirardLafontTaylor89}{9}
\bibcite{Herbelin95}{10}
\bibcite{JoachimskiMatthes2003}{11}
\bibcite{MoggiLFCS88}{12}
\bibcite{Parigot92}{13}
\bibcite{PierceTurnerPOPL98}{14}
\bibcite{Prawitz1965}{15}
\bibcite{SabryWadler97}{16}
\bibcite{jesAPAL13}{17}
\bibcite{SorensenUrzyczyn2006}{18}
\bibcite{ZeilbergerAPAL08}{19}
\bibstyle{plain}
\newlabel{LastPage}{{}{15}{}{page.15}{}}
\xdef\lastpage@lastpage{15}
\xdef\lastpage@lastpageHy{15}
