\relax 
\providecommand\hyper@newdestlabel[2]{}
\providecommand\HyperFirstAtBeginDocument{\AtBeginDocument}
\HyperFirstAtBeginDocument{\ifx\hyper@anchor\@undefined
\global\let\oldcontentsline\contentsline
\gdef\contentsline#1#2#3#4{\oldcontentsline{#1}{#2}{#3}}
\global\let\oldnewlabel\newlabel
\gdef\newlabel#1#2{\newlabelxx{#1}#2}
\gdef\newlabelxx#1#2#3#4#5#6{\oldnewlabel{#1}{{#2}{#3}}}
\AtEndDocument{\ifx\hyper@anchor\@undefined
\let\contentsline\oldcontentsline
\let\newlabel\oldnewlabel
\fi}
\fi}
\global\let\hyper@last\relax 
\gdef\HyperFirstAtBeginDocument#1{#1}
\providecommand\HyField@AuxAddToFields[1]{}
\providecommand\HyField@AuxAddToCoFields[2]{}
\bibstyle{plain}
\citation{Cardelli84}
\citation{AbadiCardelli}
\citation{BruceBook}
\citation{KiselyovLaemmel05}
\citation{BrachaThesis}
\citation{BrachaC90}
\citation{BonoPS99}
\citation{OderskyZ05}
\citation{ecma2011rev51}
\select@language{USenglish}
\@writefile{toc}{\select@language{USenglish}}
\@writefile{lof}{\select@language{USenglish}}
\@writefile{lot}{\select@language{USenglish}}
\@writefile{toc}{\contentsline {section}{\numberline {1}Introduction}{76}{section.1}}
\citation{RehofEtAlCSL12}
\citation{RehofEtAlCSL12}
\citation{RehofEtAlCSL12}
\citation{bcd}
\citation{RehofEtAlCSL12}
\citation{BessaiDDM14}
\citation{CHOM89}
\citation{CookHC90}
\citation{bcd}
\citation{deLiguoro01}
\citation{CookHC90}
\citation{bcd}
\citation{Wand91}
\citation{Remy92}
\citation{CookHC90}
\citation{BessaiDDM14}
\citation{UdLTC2014}
\citation{besDDTU15}
\citation{CompagnoniP96}
\citation{Pierce97}
\citation{Gkkp13}
\citation{Duedder14}
\citation{Barendregt84}
\@writefile{toc}{\contentsline {section}{\numberline {2}Intersection Types for Mixins and Classes}{78}{section.2}}
\newlabel{sec:intersection}{{2}{78}{Intersection Types for Mixins and Classes}{section.2}{}}
\@writefile{toc}{\contentsline {subsection}{\numberline {2.1}Intersection and record types}{78}{subsection.2.1}}
\citation{bcd}
\citation{bcd}
\newlabel{def:intertype:lambdaR}{{2}{79}{Intersection types for $\lambdaR $}{theorem.2.2}{}}
\newlabel{def:typeInclusionInt}{{3}{79}{Type inclusion: arrow and intersection types}{theorem.2.3}{}}
\newlabel{def:typeInclusionRec}{{4}{79}{Type inclusion: record types}{theorem.2.4}{}}
\citation{bcd}
\newlabel{lem:normal-recordTypes}{{5}{80}{}{theorem.2.5}{}}
\newlabel{lem:normal-recordTypes-a}{{1}{80}{}{Item.1}{}}
\newlabel{lem:normal-recordTypes-b}{{2}{80}{}{Item.2}{}}
\newlabel{lem:normal-recordTypes-c}{{3}{80}{}{Item.3}{}}
\newlabel{lem:label}{{6}{80}{}{theorem.2.6}{}}
\newlabel{lem:lem:label-a}{{1}{80}{}{Item.4}{}}
\newlabel{lem:label-b}{{2}{80}{}{Item.5}{}}
\newlabel{lem:typePlus}{{7}{80}{}{theorem.2.7}{}}
\newlabel{lem:typePlus-ass}{{1}{80}{}{Item.6}{}}
\newlabel{lem:typePlus-distr}{{2}{80}{}{Item.7}{}}
\newlabel{lem:typePlus-mon}{{3}{80}{}{Item.8}{}}
\newlabel{lem:typePlus-inter}{{4}{80}{}{Item.9}{}}
\citation{BrachaC90}
\newlabel{def:typeAssignment}{{8}{81}{Type Assignment}{theorem.2.8}{}}
\newlabel{lem:generation}{{9}{81}{}{theorem.2.9}{}}
\newlabel{gen:var}{{1}{81}{}{Item.10}{}}
\newlabel{gen:fun}{{2}{81}{}{Item.11}{}}
\newlabel{gen:app}{{3}{81}{}{Item.12}{}}
\newlabel{gen:rec}{{4}{81}{}{Item.13}{}}
\newlabel{gen:sel}{{5}{81}{}{Item.14}{}}
\newlabel{gen:merge}{{6}{81}{}{Item.15}{}}
\newlabel{thm:subjectRed}{{10}{81}{Subject reduction}{theorem.2.10}{}}
\citation{CookHC90}
\citation{BrachaC90}
\citation{CookHC90}
\@writefile{toc}{\contentsline {subsection}{\numberline {2.2}Class and Mixin combinators}{82}{subsection.2.2}}
\newlabel{subsec:Mixin}{{2.2}{82}{Class and Mixin combinators}{subsection.2.2}{}}
\newlabel{eq:class-def}{{1}{82}{Class and Mixin combinators}{equation.2.1}{}}
\citation{BrachaC90}
\citation{BrachaThesis}
\newlabel{eq:class-typing}{{2}{83}{Class and Mixin combinators}{equation.2.2}{}}
\newlabel{ex:class-type}{{12}{83}{}{theorem.2.12}{}}
\citation{BDDMR14}
\citation{bcd}
\newlabel{eq:mixin-typing}{{3}{84}{Class and Mixin combinators}{equation.2.3}{}}
\newlabel{ex:mixin-type}{{13}{84}{}{theorem.2.13}{}}
\@writefile{toc}{\contentsline {section}{\numberline {3}Encoding of Record Types in Bounded Combinatory Logic}{84}{section.3}}
\newlabel{sec:encoding}{{3}{84}{Encoding of Record Types in Bounded Combinatory Logic}{section.3}{}}
\citation{RehofEtAlCSL12}
\citation{Bakel11}
\newlabel{lem:beta}{{17}{85}{Extended Beta-Soundness}{theorem.3.17}{}}
\newlabel{lem:pathsubtyping}{{20}{85}{}{theorem.3.20}{}}
\citation{RehofEtAlCSL12}
\newlabel{lem:label_predicate}{{21}{86}{}{theorem.3.21}{}}
\newlabel{lem:record_predicate}{{22}{87}{}{theorem.3.22}{}}
\newlabel{lem:enc_soundness}{{23}{87}{$\Delta _{\mathcal {L}} \cup \Delta _{\wp (\mathcal {L})}$ Translation Soundness}{theorem.3.23}{}}
\newlabel{lem:enc_completeness}{{24}{87}{$\Delta _{\mathcal {L}} \cup \Delta _{\wp (\mathcal {L})}$ Translation Completeness}{theorem.3.24}{}}
\@writefile{toc}{\contentsline {section}{\numberline {4}Mixin Composition Synthesis by Type Inhabitation}{87}{section.4}}
\newlabel{sec:synthesis}{{4}{87}{Mixin Composition Synthesis by Type Inhabitation}{section.4}{}}
\newlabel{thm:soundness}{{25}{88}{Soundness}{theorem.4.25}{}}
\newlabel{thm:partial_completeness}{{26}{88}{Partial Completeness}{theorem.4.26}{}}
\citation{DudderMR14}
\citation{BessaiDDM14}
\bibdata{SemMixBiblio,SyntBibliography}
\bibcite{AbadiCardelli}{1}
\bibcite{Bakel11}{2}
\bibcite{Barendregt84}{3}
\@writefile{toc}{\contentsline {section}{\numberline {5}Conclusion and Future Work}{89}{section.5}}
\newlabel{sec:conclusion}{{5}{89}{Conclusion and Future Work}{section.5}{}}
\bibcite{bcd}{4}
\bibcite{BessaiDDM14}{5}
\bibcite{besDDTU15}{6}
\bibcite{BDDMR14}{7}
\bibcite{BonoPS99}{8}
\bibcite{BrachaThesis}{9}
\bibcite{BrachaC90}{10}
\bibcite{BruceBook}{11}
\bibcite{CHOM89}{12}
\bibcite{Cardelli84}{13}
\bibcite{CompagnoniP96}{14}
\bibcite{CookHC90}{15}
\bibcite{deLiguoro01}{16}
\bibcite{UdLTC2014}{17}
\bibcite{Duedder14}{18}
\bibcite{DudderMR14}{19}
\bibcite{RehofEtAlCSL12}{20}
\bibcite{ecma2011rev51}{21}
\bibcite{Gkkp13}{22}
\bibcite{KiselyovLaemmel05}{23}
\bibcite{OderskyZ05}{24}
\bibcite{Pierce97}{25}
\bibcite{Remy92}{26}
\bibcite{Wand91}{27}
\newlabel{LastPage}{{}{90}{}{page.90}{}}
\xdef\lastpage@lastpage{90}
\xdef\lastpage@lastpageHy{90}
