\relax 
\providecommand\hyper@newdestlabel[2]{}
\providecommand\HyperFirstAtBeginDocument{\AtBeginDocument}
\HyperFirstAtBeginDocument{\ifx\hyper@anchor\@undefined
\global\let\oldcontentsline\contentsline
\gdef\contentsline#1#2#3#4{\oldcontentsline{#1}{#2}{#3}}
\global\let\oldnewlabel\newlabel
\gdef\newlabel#1#2{\newlabelxx{#1}#2}
\gdef\newlabelxx#1#2#3#4#5#6{\oldnewlabel{#1}{{#2}{#3}}}
\AtEndDocument{\ifx\hyper@anchor\@undefined
\let\contentsline\oldcontentsline
\let\newlabel\oldnewlabel
\fi}
\fi}
\global\let\hyper@last\relax 
\gdef\HyperFirstAtBeginDocument#1{#1}
\providecommand\HyField@AuxAddToFields[1]{}
\providecommand\HyField@AuxAddToCoFields[2]{}
\citation{Gallier1995}
\citation{Girard1987}
\select@language{USenglish}
\@writefile{toc}{\select@language{USenglish}}
\@writefile{lof}{\select@language{USenglish}}
\@writefile{lot}{\select@language{USenglish}}
\@writefile{toc}{\contentsline {section}{\numberline {1}Introduction}{60}{section.1}}
\newlabel{sec_twoface}{{1}{60}{Proofnets: from commutative conversions to canonicity}{section*.1}{}}
\newlabel{sec_twoface@cref}{{[section][1][]1}{60}}
\citation{Girard1987}
\citation{Girard1996}
\citation{Heijltjes2014}
\citation{Heijltjes2014a}
\citation{Guerrini2001}
\citation{Hughes2005a}
\citation{Hughes2005}
\citation{Girard1996}
\citation{Bryant1986}
\citation{Knuth2009}
\citation{Chandra1984}
\@writefile{toc}{\contentsline {section}{\numberline {2}Proof equivalence in {\bf  \textsf  {MALL}}\textsuperscript  {\tmspace  -\thinmuskip {.1667em}\bf  -}\xspace  }{63}{section.2}}
\newlabel{sec_equiv}{{2}{63}{Proof equivalence in \mallm }{section.2}{}}
\newlabel{sec_equiv@cref}{{[section][2][]2}{63}}
\citation{Hughes2015}
\citation{Hughes2015}
\citation{Girard1996}
\citation{Laurent2008a}
\citation{Hughes2005}
\citation{Hughes2015}
\citation{Girard1996}
\citation{Laurent2008a}
\citation{Girard1987}
\newlabel{rem_proofs}{{2}{64}{}{theorem.2.2}{}}
\newlabel{rem_proofs@cref}{{[remark][2][]2}{64}}
\newlabel{def_mallmeq}{{3}{64}{\mallmeq }{theorem.2.3}{}}
\newlabel{def_mallmeq@cref}{{[definition][3][]3}{64}}
\@writefile{toc}{\contentsline {subsection}{\numberline {2.1}Monomial proofnets}{64}{subsection.2.1}}
\newlabel{sec_mono}{{2.1}{64}{Monomial proofnets}{subsection.2.1}{}}
\newlabel{sec_mono@cref}{{[subsection][1][2]2.1}{64}}
\newlabel{def_booleq}{{5}{65}{equivalence}{theorem.2.5}{}}
\newlabel{def_booleq@cref}{{[definition][5][]5}{65}}
\newlabel{rem_compat}{{7}{65}{}{theorem.2.7}{}}
\newlabel{rem_compat@cref}{{[remark][7][]7}{65}}
\citation{Girard1996}
\citation{Girard1987}
\newlabel{def_bddequ}{{11}{66}{}{theorem.2.11}{}}
\newlabel{def_bddequ@cref}{{[definition][11][]11}{66}}
\@writefile{toc}{\contentsline {subsection}{\numberline {2.2}Slicings and proof equivalence}{66}{subsection.2.2}}
\newlabel{sec_slicing}{{2.2}{66}{Slicings and proof equivalence}{subsection.2.2}{}}
\newlabel{sec_slicing@cref}{{[subsection][2][2]2.2}{66}}
\citation{Hughes2005}
\citation{Hughes2015}
\citation{Hughes2015}
\newlabel{th_equiv}{{14}{67}{slicing equivalence~\protect {\cite [Theorem~1]{Hughes2015}}}{theorem.2.14}{}}
\newlabel{th_equiv@cref}{{[theorem][14][]14}{67}}
\@writefile{toc}{\contentsline {subsection}{\numberline {2.3}{\sf  \textsf  {BDD}}\xspace  slicings}{67}{subsection.2.3}}
\newlabel{sec_bool}{{2.3}{67}{\bdd slicings}{subsection.2.3}{}}
\newlabel{sec_bool@cref}{{[subsection][3][2]2.3}{67}}
\newlabel{def_boolslicing}{{15}{68}{\bdd slicing}{theorem.2.15}{}}
\newlabel{def_boolslicing@cref}{{[definition][15][]15}{68}}
\newlabel{lem_bsl}{{19}{69}{computing \bdd slicings}{theorem.2.19}{}}
\newlabel{lem_bsl@cref}{{[lemma][19][]19}{69}}
\@writefile{toc}{\contentsline {section}{\numberline {3}Equivalence of {\sf  \textsf  {BDD}}\xspace  }{70}{section.3}}
\newlabel{sec_bdd}{{3}{70}{Equivalence of \bdd }{section.3}{}}
\newlabel{sec_bdd@cref}{{[section][3][]3}{70}}
\@writefile{toc}{\contentsline {subsection}{\numberline {3.1}Equivalence of {\sf  \textsf  {\textsuperscript  oBDD}}\xspace  reduces to proof equivalence in {\bf  \textsf  {MALL}}\textsuperscript  {\tmspace  -\thinmuskip {.1667em}\bf  -}\xspace  }{70}{subsection.3.1}}
\newlabel{sec_reduce}{{3.1}{70}{Equivalence of \protectobdd reduces to proof equivalence in \mallm }{subsection.3.1}{}}
\newlabel{sec_reduce@cref}{{[subsection][1][3]3.1}{70}}
\@writefile{toc}{\contentsline {subsection}{\numberline {3.2}{\sf  \textbf  {Logspace}}\xspace  -completeness}{71}{subsection.3.2}}
\newlabel{sec_logspace}{{3.2}{71}{\Logspace -completeness}{subsection.3.2}{}}
\newlabel{sec_logspace@cref}{{[subsection][2][3]3.2}{71}}
\newlabel{lem_neg}{{27}{72}{negation}{theorem.3.27}{}}
\newlabel{lem_neg@cref}{{[lemma][27][]27}{72}}
\citation{Etessami1997}
\citation{Barrington1989}
\citation{Hughes2008}
\bibstyle{plain}
\bibdata{biblio}
\bibcite{Barrington1989}{1}
\bibcite{Bryant1986}{2}
\bibcite{Chandra1984}{3}
\bibcite{Etessami1997}{4}
\bibcite{Gallier1995}{5}
\@writefile{toc}{\contentsline {section}{\numberline {4}Conclusion}{74}{section.4}}
\bibcite{Girard1987}{6}
\bibcite{Girard1996}{7}
\bibcite{Guerrini2001}{8}
\bibcite{Heijltjes2014a}{9}
\bibcite{Heijltjes2014}{10}
\bibcite{Hughes2005a}{11}
\bibcite{Hughes2008}{12}
\bibcite{Hughes2005}{13}
\bibcite{Hughes2015}{14}
\bibcite{Knuth2009}{15}
\bibcite{Laurent2008a}{16}
\newlabel{LastPage}{{}{75}{}{page.75}{}}
\xdef\lastpage@lastpage{75}
\xdef\lastpage@lastpageHy{75}
