\relax 
\providecommand\hyper@newdestlabel[2]{}
\providecommand\HyperFirstAtBeginDocument{\AtBeginDocument}
\HyperFirstAtBeginDocument{\ifx\hyper@anchor\@undefined
\global\let\oldcontentsline\contentsline
\gdef\contentsline#1#2#3#4{\oldcontentsline{#1}{#2}{#3}}
\global\let\oldnewlabel\newlabel
\gdef\newlabel#1#2{\newlabelxx{#1}#2}
\gdef\newlabelxx#1#2#3#4#5#6{\oldnewlabel{#1}{{#2}{#3}}}
\AtEndDocument{\ifx\hyper@anchor\@undefined
\let\contentsline\oldcontentsline
\let\newlabel\oldnewlabel
\fi}
\fi}
\global\let\hyper@last\relax 
\gdef\HyperFirstAtBeginDocument#1{#1}
\providecommand\HyField@AuxAddToFields[1]{}
\providecommand\HyField@AuxAddToCoFields[2]{}
\citation{miquel2009modaleffects}
\citation{hyland82}
\citation{krivine2009realizabilitypanorama}
\citation{streicher2013krivine}
\citation{stekelenburg2013realizability}
\citation{vanoosten2012classical}
\citation{ferrer2014ordered}
\citation{hjp80}
\select@language{USenglish}
\@writefile{toc}{\select@language{USenglish}}
\@writefile{lof}{\select@language{USenglish}}
\@writefile{lot}{\select@language{USenglish}}
\@writefile{toc}{\contentsline {section}{\numberline {1}Introduction}{195}{section.1}}
\MT@newlabel{eq:red-rel}
\MT@newlabel{eq:ex-rel}
\citation{krivine2010ralgs}
\citation{miquel2009modaleffects}
\citation{krivine2009realizabilitypanorama}
\citation{krivine2009realizabilitypanorama}
\MT@newlabel{eq:transsys}
\@writefile{toc}{\contentsline {subsection}{\numberline {1.1}Related work}{196}{subsection.1.1}}
\MT@newlabel{eq:ex-rel}
\@writefile{toc}{\contentsline {section}{\numberline {2}Syntax and machine}{196}{section.2}}
\newlabel{sec:synmach}{{2}{196}{Syntax and machine}{section.2}{}}
\@writefile{toc}{\contentsline {subsection}{\numberline {2.1}Krivine's machine}{196}{subsection.2.1}}
\newlabel{sec:kam}{{2.1}{196}{Krivine's machine}{subsection.2.1}{}}
\newlabel{eq:grammar-basic}{{1}{196}{Krivine's machine}{equation.2.1}{}}
\newlabel{eq:red-rel}{{2}{197}{Krivine's machine}{equation.2.2}{}}
\@writefile{toc}{\contentsline {subsection}{\numberline {2.2}The machine with I/O}{197}{subsection.2.2}}
\newlabel{eq:grammar-extended}{{2.2}{197}{The machine with I/O}{subsection.2.2}{}}
\newlabel{eq:ex-rel}{{3}{197}{The machine with I/O}{equation.2.3}{}}
\MT@newlabel{eq:red-rel}
\@writefile{toc}{\contentsline {subsection}{\numberline {2.3}Representing functions}{197}{subsection.2.3}}
\citation{barendregt1984lambda}
\citation{milner1990operational}
\newlabel{def:compute}{{1}{198}{}{theorem.2.1}{}}
\@writefile{toc}{\contentsline {subsection}{\numberline {2.4}$\beta $-reduction}{198}{subsection.2.4}}
\newlabel{sec:beta}{{2.4}{198}{\texorpdfstring {$\beta $}{β}-reduction}{subsection.2.4}{}}
\@writefile{toc}{\contentsline {section}{\numberline {3}Bisimulation and $\top $-equivalence}{198}{section.3}}
\newlabel{sec:bisim}{{3}{198}{Bisimulation and \texorpdfstring {$\top $}{T}-equivalence}{section.3}{}}
\citation{milner1990operational}
\citation{milner1990operational}
\newlabel{eq:transsys}{{4}{199}{Bisimulation and \texorpdfstring {$\top $}{T}-equivalence}{equation.3.4}{}}
\MT@newlabel{eq:red-rel}
\MT@newlabel{eq:ex-rel}
\newlabel{eq:wbs}{{5}{199}{}{equation.3.5}{}}
\newlabel{lem:wbs-erel}{{3}{199}{}{theorem.3.3}{}}
\newlabel{lem:gamma-bisim}{{5}{199}{}{theorem.3.5}{}}
\MT@newlabel{eq:wbs}
\MT@newlabel{eq:ex-rel}
\MT@newlabel{eq:transsys}
\newlabel{cor:tequiv}{{7}{200}{}{theorem.3.7}{}}
\MT@newlabel{eq:ex-rel}
\MT@newlabel{eq:ex-rel}
\MT@newlabel{eq:transsys}
\@writefile{toc}{\contentsline {section}{\numberline {4}Expressivity}{200}{section.4}}
\newlabel{sec:exp}{{4}{200}{Expressivity}{section.4}{}}
\citation{krivine1991lambda}
\citation{hindley2008lambda}
\citation{krivine1991lambda}
\citation{hindley2008lambda}
\citation{vanoosten2008realizability}
\citation{krivine2009realizabilitypanorama}
\citation{streicher2013krivine}
\citation{ferrer2014ordered}
\citation{miquel2011existential}
\citation{friedman1977classically}
\citation{miquel2011existential}
\citation{miquel2011forcing}
\newlabel{theo:turing}{{12}{202}{}{theorem.4.12}{}}
\@writefile{toc}{\contentsline {section}{\numberline {5}Realizability and Triposes}{202}{section.5}}
\newlabel{sec:real}{{5}{202}{Realizability and Triposes}{section.5}{}}
\@writefile{toc}{\contentsline {subsection}{\numberline {5.1}Krivine's classical realizability}{202}{subsection.5.1}}
\newlabel{sec:krivinereal}{{5.1}{202}{Krivine's classical realizability}{subsection.5.1}{}}
\MT@newlabel{eq:grammar-basic}
\newlabel{def:pole}{{13}{202}{}{theorem.5.13}{}}
\newlabel{eq:falsity}{{5.1}{202}{Krivine's classical realizability}{theorem.5.13}{}}
\newlabel{eq:implication}{{5.1}{202}{Krivine's classical realizability}{theorem.5.13}{}}
\citation{jacobs2001categorical}
\citation{krivine2009realizabilitypanorama}
\citation{krivine2009realizabilitypanorama}
\newlabel{lem:kpi-real}{{14}{203}{}{theorem.5.14}{}}
\newlabel{eq:connectives}{{6}{203}{Krivine's classical realizability}{equation.5.6}{}}
\newlabel{def:prooflike}{{15}{203}{}{theorem.5.15}{}}
\newlabel{eq:entailment-explicit}{{5.1}{203}{Krivine's classical realizability}{theorem.5.16}{}}
\MT@newlabel{tab:erelrules}
\citation{troelstra2000basic}
\providecommand*\caption@xref[2]{\@setref\relax\@undefined{#1}}
\newlabel{tab:erelrules}{{1}{204}{Admissible rules for the entailment relation.\relax }{table.caption.1}{}}
\newlabel{lem:rules-valid}{{17}{204}{}{theorem.5.17}{}}
\MT@newlabel{eq:connectives}
\newlabel{eq:encodings}{{7}{204}{Krivine's classical realizability}{equation.5.7}{}}
\citation{hjp80}
\newlabel{lem:classical-nd}{{18}{205}{}{theorem.5.18}{}}
\MT@newlabel{eq:encodings}
\newlabel{def:boolean-algebra}{{19}{205}{}{theorem.5.19}{}}
\newlabel{lem:boolean}{{20}{205}{}{theorem.5.20}{}}
\MT@newlabel{eq:connectives}
\MT@newlabel{eq:encodings}
\citation{hjp80}
\citation{krivine2011ralgsii}
\newlabel{eq:bc-cond}{{8}{206}{}{equation.5.8}{}}
\newlabel{theo:tripos}{{22}{206}{}{theorem.5.22}{}}
\MT@newlabel{eq:connectives}
\MT@newlabel{eq:bc-cond}
\@writefile{toc}{\contentsline {subsubsection}{\numberline {5.1.1}Consistency}{206}{subsubsection.5.1.1}}
\newlabel{eq:consistency}{{9}{206}{Consistency}{equation.5.9}{}}
\citation{miquel2009modaleffects}
\MT@newlabel{eq:consistency}
\@writefile{toc}{\contentsline {subsection}{\numberline {5.2}Krivine realizability with I/O}{207}{subsection.5.2}}
\newlabel{sec:extended-real}{{5.2}{207}{Krivine realizability with I/O}{subsection.5.2}{}}
\MT@newlabel{eq:consistency}
\newlabel{lem:consistency}{{26}{207}{}{theorem.5.26}{}}
\MT@newlabel{eq:consistency}
\citation{grothendieck1972theorie}
\@writefile{toc}{\contentsline {subsubsection}{\numberline {5.2.1}Poles from specifications}{208}{subsubsection.5.2.1}}
\newlabel{se:polespec}{{5.2.1}{208}{Poles from specifications}{subsubsection.5.2.1}{}}
\newlabel{lem:spec-pole}{{27}{208}{}{theorem.5.27}{}}
\newlabel{lem:bisim-pole}{{27}{208}{}{theorem.5.27}{}}
\@writefile{toc}{\contentsline {subsubsection}{\numberline {5.2.2}Toposes from computable functions}{208}{subsubsection.5.2.2}}
\newlabel{theo:f-com-con}{{28}{208}{}{theorem.5.28}{}}
\@writefile{toc}{\contentsline {subsection}{\numberline {5.3}Discussion and future work}{208}{subsection.5.3}}
\bibstyle{plain}
\bibdata{tlca-2015}
\bibcite{barendregt1984lambda}{1}
\bibcite{ferrer2014ordered}{2}
\bibcite{friedman1977classically}{3}
\bibcite{grothendieck1972theorie}{4}
\bibcite{hindley2008lambda}{5}
\bibcite{hyland82}{6}
\bibcite{hjp80}{7}
\bibcite{jacobs2001categorical}{8}
\bibcite{krivine1991lambda}{9}
\bibcite{krivine2009realizabilitypanorama}{10}
\bibcite{krivine2010ralgs}{11}
\bibcite{krivine2011ralgsii}{12}
\bibcite{milner1990operational}{13}
\bibcite{miquel2009modaleffects}{14}
\bibcite{miquel2011existential}{15}
\bibcite{miquel2011forcing}{16}
\bibcite{stekelenburg2013realizability}{17}
\bibcite{streicher2013krivine}{18}
\bibcite{troelstra2000basic}{19}
\bibcite{vanoosten2012classical}{20}
\bibcite{vanoosten2008realizability}{21}
\newlabel{LastPage}{{}{209}{}{page.209}{}}
\xdef\lastpage@lastpage{209}
\xdef\lastpage@lastpageHy{209}
