\relax 
\providecommand\hyper@newdestlabel[2]{}
\providecommand\HyperFirstAtBeginDocument{\AtBeginDocument}
\HyperFirstAtBeginDocument{\ifx\hyper@anchor\@undefined
\global\let\oldcontentsline\contentsline
\gdef\contentsline#1#2#3#4{\oldcontentsline{#1}{#2}{#3}}
\global\let\oldnewlabel\newlabel
\gdef\newlabel#1#2{\newlabelxx{#1}#2}
\gdef\newlabelxx#1#2#3#4#5#6{\oldnewlabel{#1}{{#2}{#3}}}
\AtEndDocument{\ifx\hyper@anchor\@undefined
\let\contentsline\oldcontentsline
\let\newlabel\oldnewlabel
\fi}
\fi}
\global\let\hyper@last\relax 
\gdef\HyperFirstAtBeginDocument#1{#1}
\providecommand\HyField@AuxAddToFields[1]{}
\providecommand\HyField@AuxAddToCoFields[2]{}
\citation{DBLP:journals/apal/BergM07}
\citation{martin_lof}
\citation{DBLP:conf/lics/AwodeyGS12}
\select@language{USenglish}
\@writefile{toc}{\select@language{USenglish}}
\@writefile{lof}{\select@language{USenglish}}
\@writefile{lot}{\select@language{USenglish}}
\@writefile{toc}{\contentsline {section}{\numberline {1}Introduction}{1}{section.1}}
\citation{DBLP:conf/lics/AwodeyGS12}
\citation{hott-mailing-coind}
\citation{DBLP:conf/lics/AwodeyGS12}
\citation{hott-mailing-coind}
\citation{DBLP:conf/lics/AwodeyGS12}
\citation{DBLP:journals/apal/BergM07}
\citation{DBLP:journals/tcs/AbbottAG05}
\providecommand*\caption@xref[2]{\@setref\relax\@undefined{#1}}
\newlabel{fig:tree}{{1}{2}{Example of a tree (adapted from \cite {DBLP:journals/apal/BergM07})\relax }{figure.caption.1}{}}
\newlabel{enum:rules_ind_types}{{2}{2}{Introduction}{Item.2}{}}
\@writefile{toc}{\contentsline {subsection}{\numberline {1.1}Related work}{2}{subsection.1.1}}
\newlabel{sec:rel-work}{{1.1}{2}{Related work}{subsection.1.1}{}}
\citation{indexed_containers}
\citation{DBLP:journals/tcs/Barr93}
\citation{indexed_containers}
\citation{indexed_containers}
\citation{hottbook}
\citation{hottbook}
\citation{martin_lof}
\citation{simp_set_model}
\citation{DBLP:conf/popl/Sojakova15}
\citation{hottbook}
\citation{hottbook}
\citation{hottbook}
\@writefile{toc}{\contentsline {subsection}{\numberline {1.2}Synopsis}{3}{subsection.1.2}}
\@writefile{toc}{\contentsline {section}{\numberline {2}The type theory under consideration}{3}{section.2}}
\newlabel{sec:hott}{{2}{3}{The type theory under consideration}{section.2}{}}
\citation{hottbook}
\citation{hottbook}
\citation{hottbook}
\citation{indexed_containers}
\@writefile{toc}{\contentsline {section}{\numberline {3}Definition of $\ensuremath  {\mathsf  {M}}$-types via universal property}{4}{section.3}}
\newlabel{sec:m-in-hott}{{3}{4}{Definition of \texorpdfstring {$\M $-types}{M-types} via universal property}{section.3}{}}
\@writefile{toc}{\contentsline {subsection}{\numberline {3.1}Signatures, a.k.a.\ containers}{4}{subsection.3.1}}
\citation{rezk_completion}
\citation{james_cranch}
\@writefile{toc}{\contentsline {subsection}{\numberline {3.2}Coalgebras for a signature}{5}{subsection.3.2}}
\newlabel{def:poly_functor}{{2}{5}{}{theorem.3.2}{}}
\newlabel{def:coalgebra}{{3}{5}{}{theorem.3.3}{}}
\@writefile{toc}{\contentsline {subsection}{\numberline {3.3}What is an $\ensuremath  {\mathsf  {M}}$-type?}{5}{subsection.3.3}}
\newlabel{def:m-type}{{4}{5}{}{theorem.3.4}{}}
\newlabel{lem:is-prop-final}{{5}{5}{}{theorem.3.5}{}}
\citation{indexed_containers}
\newlabel{example:streams}{{6}{6}{}{theorem.3.6}{}}
\@writefile{toc}{\contentsline {section}{\numberline {4}Derivability of $\ensuremath  {\mathsf  {M}}$-types}{6}{section.4}}
\newlabel{sec:derive-m}{{4}{6}{Derivability of \texorpdfstring {$\M $-types}{M-types}}{section.4}{}}
\newlabel{thm:is-contr-final}{{7}{6}{}{theorem.4.7}{}}
\citation{homotopy_limits}
\newlabel{defn:limit}{{9}{7}{}{theorem.4.9}{}}
\newlabel{fig:universal}{{2}{7}{Universal property of $L$\relax }{figure.caption.3}{}}
\newlabel{lem:univ_prop_limit}{{10}{7}{}{theorem.4.10}{}}
\newlabel{lem:first_elem_deter_cochain_tuple}{{11}{7}{}{theorem.4.11}{}}
\citation{hottbook}
\newlabel{lem:limit_of_shifted_chain}{{12}{8}{}{theorem.4.12}{}}
\newlabel{lem:poly_continuous}{{13}{8}{}{theorem.4.13}{}}
\citation{ahrens_capriotti_spadotti}
\citation{hottbook}
\@writefile{toc}{\contentsline {section}{\numberline {5}Indexed $\ensuremath  {\mathsf  {M}}$-types}{12}{section.5}}
\newlabel{sec:indexed}{{5}{12}{Indexed \texorpdfstring {$\M $-types}{M-types}}{section.5}{}}
\newlabel{ex:equivalence}{{22}{12}{}{theorem.5.22}{}}
\@writefile{toc}{\contentsline {section}{\numberline {6}Formalization}{12}{section.6}}
\newlabel{sec:formal}{{6}{12}{Formalization}{section.6}{}}
\bibstyle{plain}
\bibdata{literature}
\bibcite{DBLP:journals/tcs/AbbottAG05}{1}
\bibcite{ahrens_capriotti_spadotti}{2}
\bibcite{rezk_completion}{3}
\bibcite{indexed_containers}{4}
\bibcite{homotopy_limits}{5}
\bibcite{DBLP:conf/lics/AwodeyGS12}{6}
\bibcite{DBLP:journals/tcs/Barr93}{7}
\bibcite{james_cranch}{8}
\bibcite{simp_set_model}{9}
\bibcite{hott-mailing-coind}{10}
\bibcite{martin_lof}{11}
\@writefile{toc}{\contentsline {section}{\numberline {7}Conclusion and future work}{13}{section.7}}
\bibcite{DBLP:conf/popl/Sojakova15}{12}
\bibcite{hottbook}{13}
\bibcite{DBLP:journals/apal/BergM07}{14}
\newlabel{LastPage}{{}{14}{}{page.14}{}}
\xdef\lastpage@lastpage{14}
\xdef\lastpage@lastpageHy{14}
