\relax 
\providecommand\hyper@newdestlabel[2]{}
\providecommand\HyperFirstAtBeginDocument{\AtBeginDocument}
\HyperFirstAtBeginDocument{\ifx\hyper@anchor\@undefined
\global\let\oldcontentsline\contentsline
\gdef\contentsline#1#2#3#4{\oldcontentsline{#1}{#2}{#3}}
\global\let\oldnewlabel\newlabel
\gdef\newlabel#1#2{\newlabelxx{#1}#2}
\gdef\newlabelxx#1#2#3#4#5#6{\oldnewlabel{#1}{{#2}{#3}}}
\AtEndDocument{\ifx\hyper@anchor\@undefined
\let\contentsline\oldcontentsline
\let\newlabel\oldnewlabel
\fi}
\fi}
\global\let\hyper@last\relax 
\gdef\HyperFirstAtBeginDocument#1{#1}
\providecommand\HyField@AuxAddToFields[1]{}
\providecommand\HyField@AuxAddToCoFields[2]{}
\citation{house1983proposal,manner1986strong,wand1991automatic,Kennedy:1997:RPU:263699.263761,erwig2002adding}
\citation{MarsCrash}
\citation{Kennedy:1997:RPU:263699.263761}
\select@language{UKenglish}
\@writefile{toc}{\select@language{UKenglish}}
\@writefile{lof}{\select@language{UKenglish}}
\@writefile{lot}{\select@language{UKenglish}}
\@writefile{toc}{\contentsline {section}{\numberline {1}Introduction}{1}{section.1}}
\newlabel{eqn:double}{{1}{1}{Introduction}{equation.1.1}{}}
\newlabel{eqn:doubleapp}{{2}{1}{Introduction}{equation.1.2}{}}
\citation{Kennedy:1997:RPU:263699.263761}
\@writefile{toc}{\contentsline {section}{\numberline {2}Types with Physical Dimensions}{2}{section.2}}
\newlabel{sec:Not}{{2}{2}{Types with Physical Dimensions}{section.2}{}}
\@writefile{toc}{\contentsline {subparagraph}{Dimensions and Dimension Contexts}{2}{section*.1}}
\@writefile{toc}{\contentsline {subparagraph}{Types}{2}{section*.2}}
\@writefile{toc}{\contentsline {subparagraph}{Terms and Typing Contexts}{3}{section*.3}}
\citation{jacobs1999categorical}
\@writefile{toc}{\contentsline {section}{\numberline {3}Categorical Semantics of Dimension Types}{4}{section.3}}
\newlabel{sec:sem}{{3}{4}{Categorical Semantics of Dimension Types}{section.3}{}}
\newlabel{def:lamDModel}{{2}{4}{}{theorem.3.2}{}}
\citation{curien-garner-hofmann}
\citation{Kennedy:1997:RPU:263699.263761}
\citation{reynolds1983types}
\@writefile{toc}{\contentsline {subsection}{\numberline {3.1}Modelling Dimension Types}{5}{subsection.3.1}}
\newlabel{sec:Modelling-Dimensions}{{3.1}{5}{Modelling Dimension Types}{subsection.3.1}{}}
\@writefile{toc}{\contentsline {subsection}{\numberline {3.2}First Examples of $\lambda D$-Models}{5}{subsection.3.2}}
\citation{jacobs1999categorical}
\newlabel{ex:UnitErasure}{{3}{6}{}{theorem.3.3}{}}
\newlabel{example:famset}{{5}{6}{}{theorem.3.5}{}}
\citation{lawvere-adjointness}
\citation{mellies-zeilberger}
\newlabel{thm:BC}{{6}{7}{}{theorem.3.6}{}}
\newlabel{eqn:forall-limit}{{3}{7}{A Source of Fibrations with Simple Products}{equation.3.3}{}}
\newlabel{sec:change-of-base}{{3.2}{7}{A Source of Models by Change of Base}{section*.6}{}}
\newlabel{thm:change-of-base}{{7}{7}{}{theorem.3.7}{}}
\newlabel{item:simpl-prod}{{i}{7}{}{Item.5}{}}
\newlabel{item:biCCC}{{ii}{7}{}{Item.6}{}}
\newlabel{item:lambdaD}{{iii}{7}{}{Item.7}{}}
\newlabel{ex:Lawvere}{{8}{7}{}{theorem.3.8}{}}
\citation{brown-spencer}
\newlabel{ex:GrpAct}{{9}{8}{}{theorem.3.9}{}}
\newlabel{ex:presheaves}{{11}{8}{}{theorem.3.11}{}}
\@writefile{toc}{\contentsline {section}{\numberline {4}Group Actions and Dimension Types}{9}{section.4}}
\newlabel{sec:MonSet}{{4}{9}{Group Actions and Dimension Types}{section.4}{}}
\newlabel{lem:subst}{{12}{9}{}{theorem.4.12}{}}
\newlabel{thm:allArrows}{{13}{10}{}{theorem.4.13}{}}
\newlabel{thm:quantArrowT}{{14}{10}{}{theorem.4.14}{}}
\newlabel{thm:ScalFact}{{15}{10}{}{theorem.4.15}{}}
\newlabel{thm:UninhabType}{{16}{10}{}{theorem.4.16}{}}
\citation{buckingham1914physically}
\citation{sonin2001physical}
\citation{Kennedy:1997:RPU:263699.263761}
\newlabel{thm:AppSubs}{{17}{11}{}{theorem.4.17}{}}
\newlabel{thm:UninhabInt}{{18}{11}{}{theorem.4.18}{}}
\citation{hermida1999some}
\citation{Kennedy:1997:RPU:263699.263761}
\@writefile{toc}{\contentsline {section}{\numberline {5}Relational Models}{12}{section.5}}
\newlabel{sec:param}{{5}{12}{Relational Models}{section.5}{}}
\newlabel{thm:CompOfProd}{{19}{12}{}{theorem.5.19}{}}
\newlabel{thm:rel-model-generator}{{20}{12}{}{theorem.5.20}{}}
\newlabel{ex:relKen}{{21}{12}{}{theorem.5.21}{}}
\citation{reynolds1983types}
\citation{atkey14conservation}
\newlabel{ex:relMon}{{22}{13}{}{theorem.5.22}{}}
\citation{birkedal2005categorical}
\newlabel{thm:grp-rel-related}{{24}{14}{}{theorem.5.24}{}}
\newlabel{thm:closed-prog-equiv}{{25}{14}{}{theorem.5.25}{}}
\@writefile{toc}{\contentsline {section}{\numberline {6}Concluding Remarks}{14}{section.6}}
\newlabel{sec:con}{{6}{14}{Concluding Remarks}{section.6}{}}
\citation{Kennedy:1997:RPU:263699.263761}
\citation{atkey14conservation}
\bibstyle{plain}
\bibdata{fibUoM}
\bibcite{atkey14conservation}{1}
\bibcite{birkedal2005categorical}{2}
\bibcite{brown-spencer}{3}
\bibcite{buckingham1914physically}{4}
\bibcite{curien-garner-hofmann}{5}
\bibcite{erwig2002adding}{6}
\bibcite{hermida1999some}{7}
\bibcite{house1983proposal}{8}
\bibcite{jacobs1999categorical}{9}
\bibcite{Kennedy:1997:RPU:263699.263761}{10}
\bibcite{lawvere-adjointness}{11}
\bibcite{manner1986strong}{12}
\bibcite{MarsCrash}{13}
\bibcite{mellies-zeilberger}{14}
\bibcite{reynolds1983types}{15}
\bibcite{sonin2001physical}{16}
\bibcite{wand1991automatic}{17}
\newlabel{LastPage}{{}{15}{}{page.15}{}}
\xdef\lastpage@lastpage{15}
\xdef\lastpage@lastpageHy{15}
