\BOOKMARK [1][-]{section.1}{Introduction}{}% 1
\BOOKMARK [1][-]{section.2}{Types with Physical Dimensions}{}% 2
\BOOKMARK [1][-]{section.3}{Categorical Semantics of Dimension Types}{}% 3
\BOOKMARK [2][-]{subsection.3.1}{Modelling Dimension Types}{section.3}% 4
\BOOKMARK [2][-]{subsection.3.2}{First Examples of lambdaD-Models}{section.3}% 5
\BOOKMARK [1][-]{section.4}{Group Actions and Dimension Types}{}% 6
\BOOKMARK [1][-]{section.5}{Relational Models}{}% 7
\BOOKMARK [1][-]{section.6}{Concluding Remarks}{}% 8
