\relax 
\providecommand\hyper@newdestlabel[2]{}
\providecommand\HyperFirstAtBeginDocument{\AtBeginDocument}
\HyperFirstAtBeginDocument{\ifx\hyper@anchor\@undefined
\global\let\oldcontentsline\contentsline
\gdef\contentsline#1#2#3#4{\oldcontentsline{#1}{#2}{#3}}
\global\let\oldnewlabel\newlabel
\gdef\newlabel#1#2{\newlabelxx{#1}#2}
\gdef\newlabelxx#1#2#3#4#5#6{\oldnewlabel{#1}{{#2}{#3}}}
\AtEndDocument{\ifx\hyper@anchor\@undefined
\let\contentsline\oldcontentsline
\let\newlabel\oldnewlabel
\fi}
\fi}
\global\let\hyper@last\relax 
\gdef\HyperFirstAtBeginDocument#1{#1}
\providecommand\HyField@AuxAddToFields[1]{}
\providecommand\HyField@AuxAddToCoFields[2]{}
\citation{hott}
\citation{mendler}
\citation{maietti98}
\citation{awodey:bauer:propositions}
\select@language{UKenglish}
\@writefile{toc}{\select@language{UKenglish}}
\@writefile{lof}{\select@language{UKenglish}}
\@writefile{lot}{\select@language{UKenglish}}
\@writefile{toc}{\contentsline {section}{\numberline {1}Introduction}{152}{section.1}}
\citation{beeson:foundations}
\citation{troelstra:vandalen:constructivism}
\citation{beeson:foundations}
\citation{Kreisel:weak:completness}
\citation{troelstra:1977}
\citation{beeson:foundations}
\citation{xu:escardo:tlca2013}
\citation{escardo:xu:kk}
\citation{johnstone:topological}
\citation{menni:simpson}
\@writefile{toc}{\contentsline {subsection}{\numberline {1.1}The continuity of all functions ${{\mathbb  {N}}^{\mathbb  {N}}}\to {\mathbb  {N}}$}{153}{subsection.1.1}}
\citation{xu:escardo:tlca2013}
\@writefile{toc}{\contentsline {subsection}{\numberline {1.2}The uniform continuity of all functions ${\mathbbm  {2}^{\mathbb  {N}}}\to {\mathbb  {N}}$}{154}{subsection.1.2}}
\citation{troelstra:1977}
\citation{beeson:foundations}
\citation{hyland1982effective}
\citation{bove:dybjer:dependent:types}
\citation{bove:dybjer:norell:agda}
\citation{norell:agda}
\citation{agda:continuity:false:all}
\@writefile{toc}{\contentsline {subsection}{\numberline {1.3}A question regarding Church's Thesis}{155}{subsection.1.3}}
\@writefile{toc}{\contentsline {section}{\numberline {2}Continuity of functions ${{\mathbb  {N}}^{\mathbb  {N}}}\to {\mathbb  {N}}$}{155}{section.2}}
\newlabel{section:continuity:false}{{2}{155}{Continuity of functions \texorpdfstring {$\baire \to \N $}{Lg}}{section.2}{}}
\newlabel{main}{{1}{155}{}{theorem.2.1}{}}
\newlabel{theorem:continuity:false}{{1}{155}{}{theorem.2.1}{}}
\newlabel{eq:0}{{1}{155}{Continuity of functions \texorpdfstring {$\baire \to \N $}{Lg}}{equation.2.1}{}}
\newlabel{eq:1}{{2}{156}{Continuity of functions \texorpdfstring {$\baire \to \N $}{Lg}}{equation.2.2}{}}
\citation{agda:continuity:false:all}
\citation{KECA:anonymous:existence}
\citation{KECA:hedberg:theorem}
\@writefile{toc}{\contentsline {section}{\numberline {3}Propositional truncation and existential quantification}{157}{section.3}}
\newlabel{section:relationship}{{3}{157}{Propositional truncation and existential quantification}{section.3}{}}
\@writefile{toc}{\contentsline {subsection}{\numberline {3.1}Propositional truncation}{157}{subsection.3.1}}
\citation{KECA:hedberg:theorem}
\@writefile{toc}{\contentsline {subsection}{\numberline {3.2}Quantification}{158}{subsection.3.2}}
\citation{agda:continuity:false:all}
\citation{KECA:anonymous:existence}
\citation{hedberg_coherence}
\@writefile{toc}{\contentsline {section}{\numberline {4}Uniform continuity of functions ${\mathbbm  {2}^{\mathbb  {N}}}\to {\mathbb  {N}}$}{160}{section.4}}
\newlabel{section:uniform:continuity}{{4}{160}{Uniform continuity of functions \texorpdfstring {$\cantor \to \N $}{Lg}}{section.4}{}}
\newlabel{theorem:uc:truncation}{{3}{160}{}{theorem.4.3}{}}
\newlabel{lemma:non:trivial}{{4}{160}{}{theorem.4.4}{}}
\newlabel{lemma:deeply:trivial}{{5}{161}{}{theorem.4.5}{}}
\newlabel{truncation:logically}{{5}{161}{}{theorem.4.5}{}}
\newlabel{lemma:trunc}{{6}{161}{}{theorem.4.6}{}}
\citation{KECA:hedberg:theorem}
\citation{agda:continuity:false:all}
\bibstyle{plain}
\bibdata{p08-escardo}
\bibcite{awodey:bauer:propositions}{1}
\bibcite{beeson:foundations}{2}
\bibcite{bove:dybjer:dependent:types}{3}
\bibcite{bove:dybjer:norell:agda}{4}
\bibcite{escardo:xu:kk}{5}
\bibcite{agda:continuity:false:all}{6}
\bibcite{hedberg_coherence}{7}
\bibcite{hyland1982effective}{8}
\bibcite{johnstone:topological}{9}
\bibcite{KECA:hedberg:theorem}{10}
\bibcite{KECA:anonymous:existence}{11}
\bibcite{Kreisel:weak:completness}{12}
\bibcite{maietti98}{13}
\bibcite{mendler}{14}
\bibcite{menni:simpson}{15}
\bibcite{norell:agda}{16}
\bibcite{hott}{17}
\bibcite{troelstra:1977}{18}
\bibcite{troelstra:vandalen:constructivism}{19}
\bibcite{xu:escardo:tlca2013}{20}
\newlabel{LastPage}{{}{163}{}{page.163}{}}
\xdef\lastpage@lastpage{163}
\xdef\lastpage@lastpageHy{163}
