\relax 
\providecommand\hyper@newdestlabel[2]{}
\providecommand\HyperFirstAtBeginDocument{\AtBeginDocument}
\HyperFirstAtBeginDocument{\ifx\hyper@anchor\@undefined
\global\let\oldcontentsline\contentsline
\gdef\contentsline#1#2#3#4{\oldcontentsline{#1}{#2}{#3}}
\global\let\oldnewlabel\newlabel
\gdef\newlabel#1#2{\newlabelxx{#1}#2}
\gdef\newlabelxx#1#2#3#4#5#6{\oldnewlabel{#1}{{#2}{#3}}}
\AtEndDocument{\ifx\hyper@anchor\@undefined
\let\contentsline\oldcontentsline
\let\newlabel\oldnewlabel
\fi}
\fi}
\global\let\hyper@last\relax 
\gdef\HyperFirstAtBeginDocument#1{#1}
\providecommand\HyField@AuxAddToFields[1]{}
\providecommand\HyField@AuxAddToCoFields[2]{}
\citation{Her30}
\citation{Bus95}
\citation{Mil87}
\citation{Sta79}
\citation{Ore79}
\citation{Pud98}
\citation{Het10}
\citation{Het12}
\select@language{UKenglish}
\@writefile{toc}{\select@language{UKenglish}}
\@writefile{lof}{\select@language{UKenglish}}
\@writefile{lot}{\select@language{UKenglish}}
\@writefile{toc}{\contentsline {section}{\numberline {1}Introduction}{1}{section.1}}
\citation{JKV09}
\citation{JKV11}
\citation{Het12}
\providecommand*\caption@xref[2]{\@setref\relax\@undefined{#1}}
\newlabel{fig:Pi1cut}{{1}{2}{$\Pi _1$ cut.\relax }{figure.caption.1}{}}
\newlabel{fig:square}{{2}{2}{Proof grammars.\relax }{figure.caption.1}{}}
\@writefile{toc}{\contentsline {subsection}{\numberline {1.1}Contributions}{2}{subsection.1.1}}
\newlabel{thm:Theorem1}{{1}{2}{}{theorem.1.1}{}}
\newlabel{thm:Theorem2}{{2}{2}{}{theorem.1.2}{}}
\citation{Ger05}
\citation{Hei10}
\citation{McK13}
\citation{Hei10}
\citation{McK13}
\citation{Mil87}
\citation{HW13}
\citation{HB39}
\citation{Loh12}
\citation{JKV11}
\@writefile{toc}{\contentsline {subsection}{\numberline {1.2}Related work}{3}{subsection.1.2}}
\@writefile{toc}{\contentsline {section}{\numberline {2}Proof calculus}{3}{section.2}}
\newlabel{sec:Calculus}{{2}{3}{Proof calculus}{section.2}{}}
\newlabel{fig:calculus}{{3}{3}{Axioms and rules of sequent calculus.\relax }{figure.caption.3}{}}
\newlabel{fig:reductionsteps}{{4}{4}{One-step cut reduction and permutation rules.\relax }{figure.caption.4}{}}
\citation{Coq95}
\citation{Her95}
\citation{Urb00}
\citation{BBS05}
\citation{BHLRS05}
\citation{Sei03}
\citation{RT12}
\newlabel{defn:SimplePi2}{{3}{5}{Simple $\Pi _2$-proof}{theorem.2.3}{}}
\citation{Urb00}
\citation{Het12}
\citation{JKV09}
\citation{JKV11}
\newlabel{ex:Pi2Proof}{{5}{6}{Simple $\Pi _2$-proof $\pi _\infty $ of pigeonhole principle. The inference rules labelled $\exists ^*$ represent finitely many existential introduction rules (the order of which is unimportant).\relax }{figure.caption.7}{}}
\@writefile{toc}{\contentsline {section}{\numberline {3}Context-free tree grammars}{6}{section.3}}
\newlabel{sec:Grammars}{{3}{6}{Context-free tree grammars}{section.3}{}}
\@writefile{toc}{\contentsline {subsection}{\numberline {3.1}Rigidity}{7}{subsection.3.1}}
\newlabel{sec:RigidCFGs}{{3.1}{7}{Rigidity}{subsection.3.1}{}}
\newlabel{defn:RigidDerivation}{{4}{7}{}{theorem.3.4}{}}
\newlabel{ex:RFG}{{5}{7}{}{theorem.3.5}{}}
\newlabel{lem:BoundedLang}{{6}{7}{}{theorem.3.6}{}}
\citation{Het12}
\@writefile{toc}{\contentsline {section}{\numberline {4}Proof grammars}{8}{section.4}}
\newlabel{sec:ProofGrammars}{{4}{8}{Proof grammars}{section.4}{}}
\@writefile{toc}{\contentsline {subsection}{\numberline {4.1}Elementary proof grammars}{8}{subsection.4.1}}
\newlabel{sec:Diagrammatic}{{4.1}{8}{Elementary proof grammars}{subsection.4.1}{}}
\newlabel{fig:start&endProd}{{6}{9}{Start and terminal production rules in $\E _\pi $ and $\G _\pi $.\relax }{figure.caption.8}{}}
\newlabel{fig:InternalProd}{{7}{9}{Internal production rules in $\E _\pi $ and $\G _\pi $.\relax }{figure.caption.9}{}}
\newlabel{ex:diagrammatic}{{7}{9}{Elementary proof grammar for $\pi _\infty $}{theorem.4.7}{}}
\@writefile{toc}{\contentsline {subsection}{\numberline {4.2}Typed proof grammars}{10}{subsection.4.2}}
\newlabel{sec:ProperGrammars}{{4.2}{10}{Typed proof grammars}{subsection.4.2}{}}
\newlabel{ex:PrfGrammarTypes}{{8}{10}{Types of non-terminals in $\pi _\infty $}{theorem.4.8}{}}
\newlabel{ex:PrfGrammar}{{9}{11}{Proof grammar for $\pi _\infty $}{theorem.4.9}{}}
\newlabel{thm:LanguageBound}{{10}{12}{Language bound}{theorem.4.10}{}}
\@writefile{toc}{\contentsline {section}{\numberline {5}Language containment}{12}{section.5}}
\newlabel{sec:Containment}{{5}{12}{Language containment}{section.5}{}}
\newlabel{lem:LocalReduction}{{11}{12}{Local reduction}{theorem.5.11}{}}
\newlabel{thm:GlobalReduction}{{12}{13}{Global Reduction}{theorem.5.12}{}}
\citation{Tak13}
\citation{TS00}
\citation{McK13}
\citation{Hei10}
\citation{HW13}
\citation{Ger05}
\citation{HS12}
\citation{Bar84}
\citation{HS12}
\citation{AHL15}
\citation{HS12}
\citation{HLW12}
\citation{HLRW14}
\citation{HLRTW14}
\citation{EHXXInductive}
\newlabel{thm:MainTheorem1}{{13}{14}{}{theorem.5.13}{}}
\newlabel{thm:MainTheorem2}{{14}{14}{}{theorem.5.14}{}}
\newlabel{eqn:Theorem12}{{1}{14}{}{equation.5.1}{}}
\newlabel{eqn:Theorem12b}{{5}{14}{Language containment}{equation.5.1}{}}
\@writefile{toc}{\contentsline {section}{\numberline {6}Conclusion}{14}{section.6}}
\newlabel{sec:Conclusion}{{6}{14}{Conclusion}{section.6}{}}
\citation{EHXXCompressibility}
\citation{Het12}
\bibstyle{plain}
\bibdata{references}
\bibcite{AHL15}{1}
\bibcite{BHLRS05}{2}
\bibcite{BBS05}{3}
\bibcite{Bar84}{4}
\bibcite{Bus95}{5}
\bibcite{Coq95}{6}
\bibcite{EHXXCompressibility}{7}
\bibcite{EHXXInductive}{8}
\bibcite{Ger05}{9}
\bibcite{Hei10}{10}
\bibcite{Her95}{11}
\bibcite{Her30}{12}
\bibcite{Het10}{13}
\bibcite{Het12}{14}
\bibcite{HLRTW14}{15}
\bibcite{HLRW14}{16}
\bibcite{HLW12}{17}
\bibcite{HS12}{18}
\bibcite{HW13}{19}
\bibcite{HB39}{20}
\bibcite{JKV09}{21}
\bibcite{JKV11}{22}
\bibcite{Loh12}{23}
\bibcite{McK13}{24}
\bibcite{Mil87}{25}
\bibcite{Ore79}{26}
\bibcite{Pud98}{27}
\bibcite{RT12}{28}
\bibcite{Sei03}{29}
\bibcite{Sta79}{30}
\bibcite{Tak13}{31}
\bibcite{TS00}{32}
\bibcite{Urb00}{33}
\newlabel{LastPage}{{}{16}{}{page.16}{}}
\xdef\lastpage@lastpage{16}
\xdef\lastpage@lastpageHy{16}
