This is BibTeX, Version 0.99d (TeX Live 2014)
Capacity: max_strings=35307, hash_size=35307, hash_prime=30011
The top-level auxiliary file: p01-Afshari.aux
The style file: plain.bst
Database file #1: references.bib
You've used 33 entries,
            2118 wiz_defined-function locations,
            732 strings with 8953 characters,
and the built_in function-call counts, 11232 in all, are:
= -- 1155
> -- 450
< -- 18
+ -- 175
- -- 139
* -- 759
:= -- 1845
add.period$ -- 110
call.type$ -- 33
change.case$ -- 153
chr.to.int$ -- 0
cite$ -- 33
duplicate$ -- 459
empty$ -- 893
format.name$ -- 139
if$ -- 2393
int.to.chr$ -- 0
int.to.str$ -- 33
missing$ -- 29
newline$ -- 168
num.names$ -- 80
pop$ -- 145
preamble$ -- 1
purify$ -- 128
quote$ -- 0
skip$ -- 331
stack$ -- 0
substring$ -- 752
swap$ -- 134
text.length$ -- 18
text.prefix$ -- 0
top$ -- 0
type$ -- 124
warning$ -- 0
while$ -- 123
width$ -- 35
write$ -- 377
