\BOOKMARK [1][-]{section.1}{Introduction}{}% 1
\BOOKMARK [1][-]{section.2}{An Instance of the Parametric Lambda Calculus}{}% 2
\BOOKMARK [1][-]{section.3}{The Parametric Lambda Calculus and Polynomial Time}{}% 3
\BOOKMARK [2][-]{subsection.3.1}{Polynomial Time Completeness}{section.3}% 4
\BOOKMARK [1][-]{section.4}{Various Extensions}{}% 5
\BOOKMARK [2][-]{subsection.4.1}{-valuability}{section.4}% 6
\BOOKMARK [2][-]{subsection.4.2}{Explicit Products and Nondeterminism}{section.4}% 7
\BOOKMARK [1][-]{section.5}{Conclusion}{}% 8
