This is BibTeX, Version 0.99d (TeX Live 2014)
Capacity: max_strings=35307, hash_size=35307, hash_prime=30011
The top-level auxiliary file: p00-Redmond.aux
The style file: plain.bst
Database file #1: mybib.bib
You've used 16 entries,
            2118 wiz_defined-function locations,
            626 strings with 7108 characters,
and the built_in function-call counts, 5085 in all, are:
= -- 522
> -- 189
< -- 8
+ -- 78
- -- 56
* -- 306
:= -- 839
add.period$ -- 55
call.type$ -- 16
change.case$ -- 70
chr.to.int$ -- 0
cite$ -- 16
duplicate$ -- 222
empty$ -- 424
format.name$ -- 56
if$ -- 1100
int.to.chr$ -- 0
int.to.str$ -- 16
missing$ -- 17
newline$ -- 83
num.names$ -- 38
pop$ -- 79
preamble$ -- 1
purify$ -- 57
quote$ -- 0
skip$ -- 156
stack$ -- 0
substring$ -- 299
swap$ -- 61
text.length$ -- 8
text.prefix$ -- 0
top$ -- 0
type$ -- 56
warning$ -- 0
while$ -- 56
width$ -- 18
write$ -- 183
