\relax 
\providecommand\hyper@newdestlabel[2]{}
\providecommand\HyperFirstAtBeginDocument{\AtBeginDocument}
\HyperFirstAtBeginDocument{\ifx\hyper@anchor\@undefined
\global\let\oldcontentsline\contentsline
\gdef\contentsline#1#2#3#4{\oldcontentsline{#1}{#2}{#3}}
\global\let\oldnewlabel\newlabel
\gdef\newlabel#1#2{\newlabelxx{#1}#2}
\gdef\newlabelxx#1#2#3#4#5#6{\oldnewlabel{#1}{{#2}{#3}}}
\AtEndDocument{\ifx\hyper@anchor\@undefined
\let\contentsline\oldcontentsline
\let\newlabel\oldnewlabel
\fi}
\fi}
\global\let\hyper@last\relax 
\gdef\HyperFirstAtBeginDocument#1{#1}
\providecommand\HyField@AuxAddToFields[1]{}
\providecommand\HyField@AuxAddToCoFields[2]{}
\citation{UrbanC:nomu-jv}
\citation{FernandezM:nomr-jv}
\citation{FernandezM:curstn}
\citation{gabbay:newaas}
\citation{CalvesC:JCSS}
\citation{CalvesC:LOPSTR}
\citation{levy:effnua}
\citation{FernandezM:nomr-jv}
\citation{gabbay:clonre}
\citation{FairweatherE:thesis}
\citation{gabbay:nomuae}
\citation{CloustonR:equlnb}
\citation{CheneyJ:sntt}
\citation{CheneyJ:dntt}
\citation{pitts:nomst}
\select@language{UKenglish}
\@writefile{toc}{\select@language{UKenglish}}
\@writefile{lof}{\select@language{UKenglish}}
\@writefile{lot}{\select@language{UKenglish}}
\@writefile{toc}{\contentsline {section}{\numberline {1}Introduction}{1}{section.1}}
\newlabel{section:introduction}{{1}{1}{Introduction}{section.1}{}}
\citation{harper:fradl}
\citation{AllenS:nole}
\citation{MagnussonL:apepe}
\citation{pfenning:twelf}
\citation{NordstromB:pmltt}
\citation{GabbayMu:noma-nwpt}
\citation{FernandezM:nomr-jv}
\citation{gabbay:clonre}
\@writefile{toc}{\contentsline {section}{\numberline {2}Syntax}{2}{section.2}}
\newlabel{section:syntax}{{2}{2}{Syntax}{section.2}{}}
\newlabel{dependent:pseudo}{{1}{2}{Syntax}{theorem.2.1}{}}
\newlabel{dependent:permutation_action}{{2}{2}{Permutation Action}{theorem.2.2}{}}
\newlabel{dependent:freshness}{{3}{3}{Freshness Relation}{theorem.2.3}{}}
\newlabel{dependent:alpha_equivalence}{{4}{3}{Alpha-equivalence Relation}{theorem.2.4}{}}
\citation{FernandezM:nomr-jv}
\citation{UrbanC:nomu-jv}
\citation{BaaderF:unit}
\citation{gabbay:clonre}
\newlabel{definition:atom_substitution}{{5}{4}{Action of Atom Substitution}{theorem.2.5}{}}
\newlabel{definition:variable_substitution}{{7}{5}{Variable Substitution Action}{theorem.2.7}{}}
\newlabel{dependent:matching_problem}{{8}{5}{Matching Problem}{theorem.2.8}{}}
\citation{pfenning:twelf}
\citation{FernandezM:nomr-jv}
\newlabel{definition:pattern_matching}{{9}{6}{Pattern Matching Problem}{theorem.2.9}{}}
\@writefile{toc}{\contentsline {section}{\numberline {3}Type System}{6}{section.3}}
\newlabel{section:type_system}{{3}{6}{Type System}{section.3}{}}
\newlabel{dependent:valid_declarations}{{10}{7}{Valid Set of Declarations}{theorem.3.10}{}}
\newlabel{dependent:valid_environment}{{11}{7}{Valid Environments}{theorem.3.11}{}}
\newlabel{definition:type_rules}{{13}{8}{Typing rules}{theorem.3.13}{}}
\@writefile{toc}{\contentsline {section}{\numberline {4}Meta-theory}{9}{section.4}}
\newlabel{section:meta-theory}{{4}{9}{Meta-theory}{section.4}{}}
\newlabel{lem:freshness-alpha}{{17}{9}{}{theorem.4.17}{}}
\newlabel{th:unitype}{{18}{9}{Unicity of Types}{theorem.4.18}{}}
\newlabel{theorem:atom_sub}{{19}{10}{Preservation of Types by Atom Substitution}{theorem.4.19}{}}
\@writefile{toc}{\contentsline {section}{\numberline {5}Extended Example}{10}{section.5}}
\newlabel{section:examples}{{5}{10}{Extended Example}{section.5}{}}
\citation{harper:fradl}
\citation{harper:fradl}
\citation{PittsA:nomlfo}
\citation{gabbay:twolns}
\citation{cheney:comhtn}
\citation{crole:nlc}
\citation{gabbay:seqcnl}
\citation{cheney:simptn}
\citation{gabbay:stusun}
\citation{gabbay:capasn-jv}
\citation{FernandezM:nomr-jv}
\citation{gabbay:nomuae}
\citation{CloustonR:equlnb}
\citation{FernandezM:nomr-jv}
\citation{FernandezM:curstn}
\citation{FairweatherE:FCT}
\citation{FairweatherE:thesis}
\citation{schoepp:depttn}
\citation{CheneyJ:sntt}
\citation{CheneyJ:dntt}
\citation{pitts:nomst}
\citation{CheneyJ:sntt}
\citation{WestbrookE:PhD}
\citation{CheneyJ:sntt}
\citation{harper:fradl}
\@writefile{toc}{\contentsline {section}{\numberline {6}Related Work}{13}{section.6}}
\newlabel{section:related_work}{{6}{13}{Related Work}{section.6}{}}
\citation{LuoZ:Pal+}
\citation{AdamsR:lamfree}
\citation{PlotkinG:afltt}
\citation{LuoZ:Pal+}
\citation{AdamsR:lamfree}
\citation{PlotkinG:afltt}
\citation{LuoZ:Pal+}
\citation{AdamsR:lamfree}
\citation{LuoZ:Pal+}
\citation{AdamsR:lamfree}
\citation{PlotkinG:afltt}
\citation{LuoZ:Pal+}
\citation{AdamsR:lamfree}
\citation{PlotkinG:afltt}
\citation{PfenningF:cmtt}
\citation{FairweatherE:thesis}
\citation{LuoZ:Pal+}
\bibstyle{plain}
\bibdata{dtntas}
\bibcite{AdamsR:lamfree}{1}
\bibcite{AllenS:nole}{2}
\bibcite{BaaderF:unit}{3}
\bibcite{CalvesC:JCSS}{4}
\bibcite{CalvesC:LOPSTR}{5}
\bibcite{cheney:simptn}{6}
\@writefile{toc}{\contentsline {section}{\numberline {7}Conclusions and Future Work}{14}{section.7}}
\newlabel{section:conclusions}{{7}{14}{Conclusions and Future Work}{section.7}{}}
\bibcite{cheney:comhtn}{7}
\bibcite{CheneyJ:sntt}{8}
\bibcite{CheneyJ:dntt}{9}
\bibcite{CloustonR:equlnb}{10}
\bibcite{crole:nlc}{11}
\bibcite{FairweatherE:thesis}{12}
\bibcite{FairweatherE:FCT}{13}
\bibcite{FernandezM:curstn}{14}
\bibcite{FernandezM:nomr-jv}{15}
\bibcite{gabbay:clonre}{16}
\bibcite{gabbay:stusun}{17}
\bibcite{gabbay:twolns}{18}
\bibcite{gabbay:seqcnl}{19}
\bibcite{GabbayMu:noma-nwpt}{20}
\bibcite{gabbay:capasn-jv}{21}
\bibcite{gabbay:nomuae}{22}
\bibcite{gabbay:newaas}{23}
\bibcite{harper:fradl}{24}
\bibcite{levy:effnua}{25}
\bibcite{LuoZ:Pal+}{26}
\bibcite{MagnussonL:apepe}{27}
\bibcite{PfenningF:cmtt}{28}
\bibcite{NordstromB:pmltt}{29}
\bibcite{pfenning:twelf}{30}
\bibcite{PittsA:nomlfo}{31}
\bibcite{pitts:nomst}{32}
\bibcite{PlotkinG:afltt}{33}
\bibcite{schoepp:depttn}{34}
\bibcite{UrbanC:nomu-jv}{35}
\bibcite{WestbrookE:PhD}{36}
\newlabel{LastPage}{{}{16}{}{page.16}{}}
\xdef\lastpage@lastpage{16}
\xdef\lastpage@lastpageHy{16}
