\relax 
\providecommand\hyper@newdestlabel[2]{}
\providecommand\HyperFirstAtBeginDocument{\AtBeginDocument}
\HyperFirstAtBeginDocument{\ifx\hyper@anchor\@undefined
\global\let\oldcontentsline\contentsline
\gdef\contentsline#1#2#3#4{\oldcontentsline{#1}{#2}{#3}}
\global\let\oldnewlabel\newlabel
\gdef\newlabel#1#2{\newlabelxx{#1}#2}
\gdef\newlabelxx#1#2#3#4#5#6{\oldnewlabel{#1}{{#2}{#3}}}
\AtEndDocument{\ifx\hyper@anchor\@undefined
\let\contentsline\oldcontentsline
\let\newlabel\oldnewlabel
\fi}
\fi}
\global\let\hyper@last\relax 
\gdef\HyperFirstAtBeginDocument#1{#1}
\providecommand\HyField@AuxAddToFields[1]{}
\providecommand\HyField@AuxAddToCoFields[2]{}
\citation{extensional-sum-rewriting}
\citation{multifocus}
\citation{ghani}
\citation{altenkirch}
\citation{balat}
\citation{extensional-sum-rewriting}
\citation{multifocus}
\citation{multifocus}
\select@language{USenglish}
\@writefile{toc}{\select@language{USenglish}}
\@writefile{lof}{\select@language{USenglish}}
\@writefile{lot}{\select@language{USenglish}}
\@writefile{toc}{\contentsline {section}{\numberline {1}Introduction}{1}{section.1}}
\citation{multifocus-early}
\citation{multifocus}
\@writefile{toc}{\contentsline {section}{\numberline {2}Intuitionistic multi-focusing}{2}{section.2}}
\newlabel{sec:intuitionistic-multifoc}{{2}{2}{Intuitionistic multi-focusing}{section.2}{}}
\@writefile{toc}{\contentsline {subsection}{\numberline {2.1}Multi-focused sequent calculus}{2}{subsection.2.1}}
\citation{multifocus}
\citation{structural-focalization}
\citation{focused-natural-deduction}
\providecommand*\caption@xref[2]{\@setref\relax\@undefined{#1}}
\newlabel{fig:multifoc-seq}{{1}{3}{\CAPTION \relax }{figure.caption.1}{}}
\@writefile{toc}{\contentsline {subsection}{\numberline {2.2}Multi-focused natural deduction}{3}{subsection.2.2}}
\newlabel{subsec:multifoc-natded}{{2.2}{3}{Multi-focused natural deduction}{subsection.2.2}{}}
\newlabel{fig:multifoc-natded}{{2}{3}{\CAPTION \relax }{figure.caption.2}{}}
\citation{focusing-on-pattern-matching}
\newlabel{lem:sequent-equiv-natded}{{1}{4}{}{theorem.2.1}{}}
\citation{multifocus}
\citation{multifocus}
\citation{multifocus}
\@writefile{toc}{\contentsline {subsection}{\numberline {2.3}A preemptive variant of multi-focused natural deduction}{5}{subsection.2.3}}
\newlabel{fig:multifoc-natded-preempt}{{3}{5}{\CAPTION \relax }{figure.caption.3}{}}
\@writefile{toc}{\contentsline {subsection}{\numberline {2.4}Preemptive rewriting}{5}{subsection.2.4}}
\newlabel{subsec:preemptive-rewriting}{{2.4}{5}{Preemptive rewriting}{subsection.2.4}{}}
\newlabel{fig:multifoc-natded-preempt-rewrite}{{4}{6}{Preemptive rewriting for multifocused natural deduction for intuitionistic logic\relax }{figure.caption.4}{}}
\@writefile{toc}{\contentsline {subsection}{\numberline {2.5}Reinversion}{7}{subsection.2.5}}
\newlabel{subsec:reinversion}{{2.5}{7}{Reinversion}{subsection.2.5}{}}
\citation{multifocus}
\citation{multifocus}
\@writefile{toc}{\contentsline {subsection}{\numberline {2.6}Maximal multi-focusing and canonicity}{8}{subsection.2.6}}
\newlabel{subsec:maximal-multifoc}{{2.6}{8}{Maximal multi-focusing and canonicity}{subsection.2.6}{}}
\@writefile{toc}{\contentsline {section}{\numberline {3}On the side of proof terms}{8}{section.3}}
\newlabel{sec:proof-terms}{{3}{8}{On the side of proof terms}{section.3}{}}
\@writefile{toc}{\contentsline {subsection}{\numberline {3.1}Preemption and reinversion as term rewriting}{8}{subsection.3.1}}
\newlabel{sec:multifoc-proof-terms}{{3.1}{8}{Preemption and reinversion as term rewriting}{subsection.3.1}{}}
\newlabel{fig:preemptive-terms-typing-rules}{{5}{9}{Preemptive term calculus\relax }{figure.caption.5}{}}
\newlabel{def:reinversion}{{4}{9}{}{theorem.3.4}{}}
\newlabel{fig:preemptive-rewriting-on-terms}{{6}{10}{\CAPTION \relax }{figure.caption.6}{}}
\newlabel{fig:contexts}{{7}{10}{\CAPTION \relax }{figure.caption.7}{}}
\newlabel{fig:reinversion}{{8}{10}{\CAPTION \relax }{figure.caption.8}{}}
\newlabel{fig:blocking-relation}{{9}{11}{\CAPTION \relax }{figure.caption.9}{}}
\newlabel{lem:reinversion-sound}{{5}{11}{}{theorem.3.5}{}}
\newlabel{lem:reinversion-stable-proofs-are-not-preempted}{{6}{11}{}{theorem.3.6}{}}
\@writefile{toc}{\contentsline {subsection}{\numberline {3.2}Multi-focused terms as lambda-terms}{11}{subsection.3.2}}
\citation{extensional-sum-rewriting}
\newlabel{lemma:beta-eta-normal-forms}{{8}{12}{}{theorem.3.8}{}}
\@writefile{toc}{\contentsline {subsection}{\numberline {3.3}Lindley's rewriting relation}{12}{subsection.3.3}}
\newlabel{lem:preemption-is-identity-on-embeddings}{{10}{13}{}{theorem.3.10}{}}
\newlabel{lem:reinversion-is-gamma-on-embeddings}{{11}{13}{}{theorem.3.11}{}}
\newlabel{lem:reinversion-normal-is-gamma-normal}{{12}{13}{}{theorem.3.12}{}}
\newlabel{thm:gamma-normal-embed-maximally-focused-proofs}{{13}{13}{$\gamma $-normal forms are embeddings of maximally-focused proofs}{theorem.3.13}{}}
\@writefile{toc}{\contentsline {section}{\numberline {4}Redundancy elimination}{13}{section.4}}
\newlabel{sec:redundancy-elimination}{{4}{13}{Redundancy elimination}{section.4}{}}
\citation{extensional-sum-rewriting}
\citation{balat}
\citation{saurin-phd}
\citation{multifocus}
\citation{multifocus-classic}
\citation{altenkirch}
\citation{zeilberger-phd}
\newlabel{thm:simplified-maximal-forms-are-gamma-normal}{{16}{14}{Simplified maximal forms are $\gamma $-normal}{theorem.4.16}{}}
\citation{multifocus}
\citation{extensional-sum-rewriting}
\bibstyle{alpha}
\bibdata{multifoc_sums}
\bibcite{altenkirch}{ADHS01}
\bibcite{balat}{BCF04}
\bibcite{focused-natural-deduction}{BNS10}
\bibcite{multifocus-classic}{CHM12}
\bibcite{multifocus}{CMS08}
\bibcite{ghani}{Gha95}
\bibcite{focusing-on-pattern-matching}{Kri09}
\bibcite{extensional-sum-rewriting}{Lin07}
\bibcite{multifocus-early}{MS07}
\bibcite{saurin-phd}{Sau08}
\bibcite{structural-focalization}{Sim11}
\bibcite{zeilberger-phd}{Zei09}
\newlabel{LastPage}{{}{15}{}{page.15}{}}
\xdef\lastpage@lastpage{15}
\xdef\lastpage@lastpageHy{15}
