\relax 
\providecommand\hyper@newdestlabel[2]{}
\providecommand\HyperFirstAtBeginDocument{\AtBeginDocument}
\HyperFirstAtBeginDocument{\ifx\hyper@anchor\@undefined
\global\let\oldcontentsline\contentsline
\gdef\contentsline#1#2#3#4{\oldcontentsline{#1}{#2}{#3}}
\global\let\oldnewlabel\newlabel
\gdef\newlabel#1#2{\newlabelxx{#1}#2}
\gdef\newlabelxx#1#2#3#4#5#6{\oldnewlabel{#1}{{#2}{#3}}}
\AtEndDocument{\ifx\hyper@anchor\@undefined
\let\contentsline\oldcontentsline
\let\newlabel\oldnewlabel
\fi}
\fi}
\global\let\hyper@last\relax 
\gdef\HyperFirstAtBeginDocument#1{#1}
\providecommand\HyField@AuxAddToFields[1]{}
\providecommand\HyField@AuxAddToCoFields[2]{}
\citation{gtw02alig}
\citation{hs99ctcs}
\select@language{UKenglish}
\@writefile{toc}{\select@language{UKenglish}}
\@writefile{lof}{\select@language{UKenglish}}
\@writefile{lot}{\select@language{UKenglish}}
\@writefile{toc}{\contentsline {section}{\numberline {1}Introduction}{300}{section.1}}
\newlabel{sec:intro}{{1}{300}{Introduction}{section.1}{}}
\citation{shulman08tac}
\citation{ms87tcs}
\newlabel{eq:synch}{{1}{301}{Introduction}{equation.1.1}{}}
\@writefile{toc}{\contentsline {section}{\numberline {2}Preliminaries}{301}{section.2}}
\newlabel{sec:base}{{2}{301}{Preliminaries}{section.2}{}}
\@writefile{toc}{\contentsline {subparagraph}{Alphabets and Trees.}{301}{section*.1}}
\citation{ms87tcs}
\citation{ms95tcs}
\citation{walukiewicz02tcs}
\citation{walukiewicz02tcs}
\citation{thomas97handbook}
\@writefile{toc}{\contentsline {subparagraph}{Tree Automata.}{302}{section*.2}}
\@writefile{toc}{\contentsline {section}{\numberline {3}Categories of Acceptance Games and Automata}{302}{section.3}}
\newlabel{sec:sag}{{3}{302}{Categories of Acceptance Games and Automata}{section.3}{}}
\@writefile{toc}{\contentsline {subsection}{\numberline {3.1}Substituted Acceptance Games}{302}{subsection.3.1}}
\newlabel{sec:sag:acc}{{3.1}{302}{Substituted Acceptance Games}{subsection.3.1}{}}
\citation{walukiewicz02tcs}
\@writefile{toc}{\contentsline {subparagraph}{Correspondence with usual Acceptance Games.}{303}{section*.3}}
\@writefile{toc}{\contentsline {subsection}{\numberline {3.2}Synchronous Arrow Games}{303}{subsection.3.2}}
\newlabel{sec:sag:sag}{{3.2}{303}{Synchronous Arrow Games}{subsection.3.2}{}}
\citation{martin75am}
\citation{thomas97handbook}
\citation{abramsky97chapter}
\citation{hyland97chapter}
\citation{hs99ctcs}
\providecommand*\caption@xref[2]{\@setref\relax\@undefined{#1}}
\newlabel{tab:sag:sag}{{1}{304}{Moves of $\G (\At A,\vec M) \synchto \G (\At B,\vec N)$ \relax }{figure.caption.4}{}}
\@writefile{toc}{\contentsline {subsection}{\numberline {3.3}Characterization of the Synchronous Arrow Games}{304}{subsection.3.3}}
\@writefile{toc}{\contentsline {subparagraph}{Simple Games.}{304}{section*.5}}
\@writefile{toc}{\contentsline {subparagraph}{The Hyland \& Schalk Functor.}{304}{section*.6}}
\@writefile{toc}{\contentsline {subparagraph}{Synchronous Relations.}{305}{section*.7}}
\@writefile{toc}{\contentsline {subparagraph}{Traces.}{305}{section*.8}}
\@writefile{toc}{\contentsline {subparagraph}{Characterization of the Synchronous Arrow.}{305}{section*.9}}
\newlabel{prop:sag:synch}{{3.2}{305}{}{theorem.3.2}{}}
\newlabel{eq:sag:synch}{{2}{305}{}{equation.3.2}{}}
\newlabel{prop:sag:hs:pb}{{3.3}{305}{}{theorem.3.3}{}}
\citation{jacobs01book}
\@writefile{toc}{\contentsline {subsection}{\numberline {3.4}Categories of Substituted Acceptance Games and Automata}{306}{subsection.3.4}}
\@writefile{toc}{\contentsline {subparagraph}{A Lifting Property.}{306}{section*.10}}
\newlabel{prop:sag:lift}{{3.4}{306}{}{theorem.3.4}{}}
\@writefile{toc}{\contentsline {section}{\numberline {4}Fibrations of Acceptance Games and Automata}{306}{section.4}}
\newlabel{sec:fib}{{4}{306}{Fibrations of Acceptance Games and Automata}{section.4}{}}
\@writefile{toc}{\contentsline {subsection}{\numberline {4.1}Substitution Functors}{306}{subsection.4.1}}
\@writefile{toc}{\contentsline {subparagraph}{Change-of-Base in $\mathbf  {Set}^\to $.}{306}{section*.11}}
\citation{jacobs01book}
\@writefile{toc}{\contentsline {subparagraph}{Substitution on Plays.}{307}{section*.12}}
\newlabel{prop:fib:pb}{{4.1}{307}{}{theorem.4.1}{}}
\@writefile{toc}{\contentsline {subparagraph}{Substitution on Strategies.}{307}{section*.13}}
\newlabel{prop:fib:strat}{{4.2}{307}{}{theorem.4.2}{}}
\@writefile{toc}{\contentsline {subparagraph}{Functoriality of Substitution.}{307}{section*.14}}
\newlabel{prop:fib:funct}{{4.3}{307}{}{theorem.4.3}{}}
\@writefile{toc}{\contentsline {subsection}{\numberline {4.2}Fibrations of Acceptance Games}{307}{subsection.4.2}}
\newlabel{prop:fib:indexed}{{4.4}{307}{}{theorem.4.4}{}}
\citation{shulman08tac}
\citation{shulman08tac}
\citation{mellies09ps}
\@writefile{toc}{\contentsline {subsection}{\numberline {4.3}Fibrations of Automata}{308}{subsection.4.3}}
\@writefile{toc}{\contentsline {section}{\numberline {5}Symmetric Monoidal Structure}{308}{section.5}}
\newlabel{sec:mon}{{5}{308}{Symmetric Monoidal Structure}{section.5}{}}
\@writefile{toc}{\contentsline {subsection}{\numberline {5.1}Complete Tree Automata}{308}{subsection.5.1}}
\newlabel{sec:mon:compl}{{5.1}{308}{Complete Tree Automata}{subsection.5.1}{}}
\newlabel{prop:mon:clos:cor}{{5.1}{308}{}{theorem.5.1}{}}
\@writefile{toc}{\contentsline {subsection}{\numberline {5.2}The Synchronous Product}{309}{subsection.5.2}}
\@writefile{toc}{\contentsline {subparagraph}{Action on Plays.}{309}{section*.15}}
\newlabel{prop:mon:pb}{{5.2}{309}{}{theorem.5.2}{}}
\@writefile{toc}{\contentsline {subparagraph}{Action on Synchronous Games.}{309}{section*.16}}
\newlabel{prop:mon:prod}{{5.3}{309}{}{theorem.5.3}{}}
\@writefile{toc}{\contentsline {subsection}{\numberline {5.3}Symmetric Monoidal Structure}{309}{subsection.5.3}}
\@writefile{toc}{\contentsline {subparagraph}{Symmetric Monoidal Structure in $\mathbf  {Rel}(\mathbf  {Set}/J)$.}{309}{section*.17}}
\citation{shulman08tac}
\newlabel{prop:mon:relset:smc}{{5.4}{310}{}{theorem.5.4}{}}
\@writefile{toc}{\contentsline {subparagraph}{Unit Automata.}{310}{section*.18}}
\newlabel{prop:mon:unit}{{5.5}{310}{}{theorem.5.5}{}}
\@writefile{toc}{\contentsline {subparagraph}{Symmetric Monoidal Structure.}{310}{section*.19}}
\@writefile{toc}{\contentsline {subsection}{\numberline {5.4}Symmetric Monoidal Fibrations}{310}{subsection.5.4}}
\@writefile{toc}{\contentsline {section}{\numberline {6}Correctness w.r.t.\spacefactor \@m  Language Operations}{310}{section.6}}
\newlabel{sec:cor}{{6}{310}{Correctness \wrt \@ Language Operations}{section.6}{}}
\citation{walukiewicz02tcs}
\citation{martin75am}
\citation{walukiewicz02tcs}
\citation{jacobs01book}
\@writefile{toc}{\contentsline {subsection}{\numberline {6.1}Correctness of the Symmetric Monoidal Structure}{311}{subsection.6.1}}
\newlabel{sec:cor:smc}{{6.1}{311}{Correctness of the Symmetric Monoidal Structure}{subsection.6.1}{}}
\newlabel{prop:cor:acc}{{6.1}{311}{}{theorem.6.1}{}}
\newlabel{rem:cor:acc}{{6.1}{311}{}{theorem.6.1}{}}
\newlabel{prop:cor:lgge}{{6.2}{311}{Correctness of the Arrow}{theorem.6.2}{}}
\newlabel{prop:cor:lgge:subst}{{i}{311}{Correctness of the Arrow}{Item.5}{}}
\newlabel{prop:cor:lgge:acc}{{ii}{311}{Correctness of the Arrow}{Item.6}{}}
\newlabel{prop:cor:lgge:lgge}{{iii}{311}{Correctness of the Arrow}{Item.7}{}}
\newlabel{prop:cor:synchprod}{{6.3}{311}{}{theorem.6.3}{}}
\@writefile{toc}{\contentsline {subsection}{\numberline {6.2}Complementation and Falsity}{311}{subsection.6.2}}
\newlabel{sec:cor:neg}{{6.2}{311}{Complementation and Falsity}{subsection.6.2}{}}
\@writefile{toc}{\contentsline {subparagraph}{Complementation.}{311}{section*.20}}
\newlabel{prop:cor:neg:cor}{{6.4}{311}{\cite {walukiewicz02tcs}}{theorem.6.4}{}}
\@writefile{toc}{\contentsline {subparagraph}{The Falsity Automaton $\simbot $.}{311}{section*.21}}
\newlabel{prop:cor:dialogue:lgges}{{6.5}{311}{}{theorem.6.5}{}}
\citation{maclane98book}
\citation{walukiewicz02tcs}
\@writefile{toc}{\contentsline {section}{\numberline {7}Projection and Fibred Simple Coproducts}{312}{section.7}}
\newlabel{sec:proj}{{7}{312}{Projection and Fibred Simple Coproducts}{section.7}{}}
\newlabel{eq:proj:adj:unit:univ}{{3}{312}{Projection and Fibred Simple Coproducts}{equation.7.3}{}}
\newlabel{eq:proj:bc}{{4}{312}{Projection and Fibred Simple Coproducts}{equation.7.4}{}}
\@writefile{toc}{\contentsline {subparagraph}{The Lifted Projection.}{312}{section*.22}}
\@writefile{toc}{\contentsline {subparagraph}{Action on Plays of The Lifted Projection.}{312}{section*.23}}
\newlabel{prop:proj:play:bij}{{7.1}{312}{}{theorem.7.1}{}}
\citation{ej91focs}
\citation{ms95tcs}
\citation{walukiewicz02tcs}
\citation{hyland02apal}
\citation{cl08icalp}
\citation{dfm11fsttcs}
\citation{fms13lics}
\bibstyle{plain}
\bibdata{bibliographie}
\bibcite{abramsky97chapter}{1}
\bibcite{cl08icalp}{2}
\bibcite{dfm11fsttcs}{3}
\@writefile{toc}{\contentsline {subparagraph}{The Unit Maps $\eta _{(-)}$.}{313}{section*.24}}
\@writefile{toc}{\contentsline {subparagraph}{The Unique Lifting Property~(\ref  {eq:proj:adj:unit:univ}).}{313}{section*.25}}
\newlabel{lem:proj:tau:lift}{{7.2}{313}{}{theorem.7.2}{}}
\newlabel{lem:proj:tau:unique}{{7.3}{313}{}{theorem.7.3}{}}
\@writefile{toc}{\contentsline {subparagraph}{Non-Deterministic Tree Automata.}{313}{section*.26}}
\newlabel{rem:nd:clos}{{7}{313}{}{section*.26}{}}
\newlabel{prop:nd:def}{{7.4}{313}{\cite {ej91focs,ms95tcs,walukiewicz02tcs}}{theorem.7.4}{}}
\newlabel{prop:nd:proj:cor}{{7.5}{313}{}{theorem.7.5}{}}
\newlabel{prop:nd:arrow:compl}{{7.6}{313}{}{theorem.7.6}{}}
\@writefile{toc}{\contentsline {section}{\numberline {8}Conclusion}{313}{section.8}}
\newlabel{sec:conc}{{8}{313}{Conclusion}{section.8}{}}
\@writefile{toc}{\contentsline {subparagraph}{Acknowledgments.}{313}{section*.27}}
\bibcite{ej91focs}{4}
\bibcite{fms13lics}{5}
\bibcite{gtw02alig}{6}
\bibcite{hyland97chapter}{7}
\bibcite{hyland02apal}{8}
\bibcite{hs99ctcs}{9}
\bibcite{jacobs01book}{10}
\bibcite{maclane98book}{11}
\bibcite{martin75am}{12}
\bibcite{mellies09ps}{13}
\bibcite{ms87tcs}{14}
\bibcite{ms95tcs}{15}
\bibcite{shulman08tac}{16}
\bibcite{thomas97handbook}{17}
\bibcite{walukiewicz02tcs}{18}
\newlabel{LastPage}{{}{314}{}{page.314}{}}
\xdef\lastpage@lastpage{314}
\xdef\lastpage@lastpageHy{314}
