This is BibTeX, Version 0.99d (TeX Live 2014)
Capacity: max_strings=35307, hash_size=35307, hash_prime=30011
The top-level auxiliary file: p00-hirschowitz.aux
The style file: plain.bst
Database file #1: ./bib.bib
You've used 24 entries,
            2118 wiz_defined-function locations,
            932 strings with 11602 characters,
and the built_in function-call counts, 6769 in all, are:
= -- 670
> -- 270
< -- 4
+ -- 115
- -- 84
* -- 402
:= -- 1156
add.period$ -- 75
call.type$ -- 24
change.case$ -- 110
chr.to.int$ -- 0
cite$ -- 24
duplicate$ -- 276
empty$ -- 562
format.name$ -- 84
if$ -- 1430
int.to.chr$ -- 0
int.to.str$ -- 24
missing$ -- 22
newline$ -- 124
num.names$ -- 48
pop$ -- 117
preamble$ -- 2
purify$ -- 90
quote$ -- 0
skip$ -- 198
stack$ -- 0
substring$ -- 362
swap$ -- 53
text.length$ -- 4
text.prefix$ -- 0
top$ -- 0
type$ -- 90
warning$ -- 0
while$ -- 64
width$ -- 26
write$ -- 259
