\relax 
\providecommand\hyper@newdestlabel[2]{}
\providecommand\HyperFirstAtBeginDocument{\AtBeginDocument}
\HyperFirstAtBeginDocument{\ifx\hyper@anchor\@undefined
\global\let\oldcontentsline\contentsline
\gdef\contentsline#1#2#3#4{\oldcontentsline{#1}{#2}{#3}}
\global\let\oldnewlabel\newlabel
\gdef\newlabel#1#2{\newlabelxx{#1}#2}
\gdef\newlabelxx#1#2#3#4#5#6{\oldnewlabel{#1}{{#2}{#3}}}
\AtEndDocument{\ifx\hyper@anchor\@undefined
\let\contentsline\oldcontentsline
\let\newlabel\oldnewlabel
\fi}
\fi}
\global\let\hyper@last\relax 
\gdef\HyperFirstAtBeginDocument#1{#1}
\providecommand\HyField@AuxAddToFields[1]{}
\providecommand\HyField@AuxAddToCoFields[2]{}
\citation{hottbook}
\citation{2012arXiv1211.2851K}
\citation{vdbg}
\citation{DBLP:journals/corr/abs-0812-0409}
\citation{WarrenOGpd}
\citation{nlab:homotopyhypothesis}
\select@language{UKenglish}
\@writefile{toc}{\select@language{UKenglish}}
\@writefile{lof}{\select@language{UKenglish}}
\@writefile{lot}{\select@language{UKenglish}}
\@writefile{toc}{\contentsline {section}{\numberline {1}Introduction}{1}{section.1}}
\citation{vdbg}
\citation{DBLP:journals/corr/abs-0812-0409}
\citation{Altenkirch:2014:CO:2631172.2631176}
\citation{cpdt}
\citation{hottbook}
\citation{AKS2015}
\citation{coq:refman:8.4}
\citation{omegacatsincoq}
\newlabel{hy:hh1}{{1}{2}{}{hypothesis.1}{}}
\citation{Lafont20101183}
\@writefile{toc}{\contentsline {section}{\numberline {2}Set-theoretic strict $\omega $-categories}{3}{section.2}}
\newlabel{sec:zf}{{2}{3}{Set-theoretic strict $\omega $-categories}{section.2}{}}
\newlabel{not:iterated}{{1}{3}{}{notation.1}{}}
\citation{2012arXiv1212.5853C}
\citation{Lafont20101183}
\newlabel{eq:ax:id}{{1}{4}{Set-theoretic strict $\omega $-categories}{equation.2.1}{}}
\@writefile{toc}{\contentsline {section}{\numberline {3}Wild and strict $\omega $-categories}{4}{section.3}}
\newlabel{sec:ocats}{{3}{4}{Wild and strict $\omega $-categories}{section.3}{}}
\@writefile{toc}{\contentsline {subsection}{\numberline {3.1}Globular types}{4}{subsection.3.1}}
\citation{AKS2015}
\citation{Cheng07}
\citation{cpdt}
\citation{hottbook}
\@writefile{toc}{\contentsline {subsection}{\numberline {3.2}Data for composition and identities}{5}{subsection.3.2}}
\@writefile{toc}{\contentsline {subsection}{\numberline {3.3}Omega-functors}{5}{subsection.3.3}}
\newlabel{eq:prescomp}{{2}{5}{Omega-functors}{equation.3.2}{}}
\newlabel{def:ext-equal}{{7}{6}{}{theorem.3.7}{}}
\newlabel{def:exteq}{{8}{6}{}{theorem.3.8}{}}
\citation{omegacatsincoq}
\citation{2012arXiv1211.2851K}
\citation{Altenkirch:2014:CO:2631172.2631176}
\@writefile{toc}{\contentsline {subsection}{\numberline {3.4}Wild $\omega $-categories}{7}{subsection.3.4}}
\newlabel{def:ocat}{{12}{7}{}{theorem.3.12}{}}
\@writefile{toc}{\contentsline {subsection}{\numberline {3.5}Strict $\omega $-categories}{7}{subsection.3.5}}
\newlabel{sec:weak}{{3.5}{7}{Strict $\omega $-categories}{subsection.3.5}{}}
\newlabel{def:rcat}{{13}{7}{}{theorem.3.13}{}}
\citation{vdbg}
\citation{DBLP:journals/corr/abs-0812-0409}
\citation{hottbook}
\citation{DBLP:journals/corr/abs-0812-0409}
\citation{omegacatsincoq}
\@writefile{toc}{\contentsline {section}{\numberline {4}Fundamental wild $\omega $-category}{8}{section.4}}
\newlabel{sec:typegset}{{4}{8}{Fundamental wild $\omega $-category}{section.4}{}}
\citation{omegacatsincoq}
\citation{KV}
\citation{Hovey}
\citation{nlab:homotopyhypothesis}
\newlabel{eq:vcomptwo}{{3}{9}{Fundamental wild $\omega $-category}{equation.4.3}{}}
\newlabel{thm:fundamental}{{16}{9}{}{theorem.4.16}{}}
\citation{DBLP:conf/lics/HofmannS94}
\citation{Lafont20101183}
\citation{hottbook}
\citation{omegacatsincoq}
\@writefile{toc}{\contentsline {section}{\numberline {5}Partial Homotopy Hypothesis }{10}{section.5}}
\newlabel{sec:hits}{{5}{10}{Partial Homotopy Hypothesis}{section.5}{}}
\newlabel{thm:Sone}{{18}{10}{}{theorem.5.18}{}}
\citation{hottbook}
\citation{LumsdaineShulman}
\citation{DBLP:conf/popl/Sojakova15}
\citation{Simpson98}
\citation{AKS2015}
\citation{Street87}
\citation{DBLP:journals/tcs/Burroni93}
\citation{Lafont20101183}
\citation{Lafont20101183}
\citation{AKS2015}
\citation{hottbook}
\citation{Cheng07}
\citation{Brown81}
\citation{Street87}
\citation{KV}
\citation{Simpson98}
\citation{KMV}
\citation{Street87}
\citation{KV}
\citation{Simpson98}
\citation{Cheng07}
\citation{Street87}
\citation{KV}
\citation{KMV}
\@writefile{toc}{\contentsline {section}{\numberline {6}Towards $\omega $-groupoids}{12}{section.6}}
\newlabel{sec:gpd}{{6}{12}{Towards $\omega $-groupoids}{section.6}{}}
\citation{Lafont20101183}
\citation{hottbook}
\citation{hottbook}
\citation{AKS2015}
\bibdata{./bib}
\bibcite{AKS2015}{1}
\bibcite{Altenkirch:2014:CO:2631172.2631176}{2}
\bibcite{vdbg}{3}
\bibcite{Brown81}{4}
\newlabel{hy:hh3}{{2}{14}{}{hypothesis.2}{}}
\@writefile{toc}{\contentsline {section}{\numberline {7}Conclusion and Future Work}{14}{section.7}}
\newlabel{sec:conclu}{{7}{14}{Conclusion and Future Work}{section.7}{}}
\bibcite{DBLP:journals/tcs/Burroni93}{5}
\bibcite{Cheng07}{6}
\bibcite{2012arXiv1212.5853C}{7}
\bibcite{cpdt}{8}
\bibcite{omegacatsincoq}{9}
\bibcite{DBLP:conf/lics/HofmannS94}{10}
\bibcite{Hovey}{11}
\bibcite{KV}{12}
\bibcite{2012arXiv1211.2851K}{13}
\bibcite{KMV}{14}
\bibcite{Lafont20101183}{15}
\bibcite{DBLP:journals/corr/abs-0812-0409}{16}
\bibcite{LumsdaineShulman}{17}
\bibcite{Simpson98}{18}
\bibcite{DBLP:conf/popl/Sojakova15}{19}
\bibcite{Street87}{20}
\bibcite{coq:refman:8.4}{21}
\bibcite{nlab:homotopyhypothesis}{22}
\bibcite{hottbook}{23}
\bibcite{WarrenOGpd}{24}
\bibstyle{plain}
\newlabel{LastPage}{{}{15}{}{page.15}{}}
\xdef\lastpage@lastpage{15}
\xdef\lastpage@lastpageHy{15}
