\relax 
\providecommand\hyper@newdestlabel[2]{}
\providecommand\HyperFirstAtBeginDocument{\AtBeginDocument}
\HyperFirstAtBeginDocument{\ifx\hyper@anchor\@undefined
\global\let\oldcontentsline\contentsline
\gdef\contentsline#1#2#3#4{\oldcontentsline{#1}{#2}{#3}}
\global\let\oldnewlabel\newlabel
\gdef\newlabel#1#2{\newlabelxx{#1}#2}
\gdef\newlabelxx#1#2#3#4#5#6{\oldnewlabel{#1}{{#2}{#3}}}
\AtEndDocument{\ifx\hyper@anchor\@undefined
\let\contentsline\oldcontentsline
\let\newlabel\oldnewlabel
\fi}
\fi}
\global\let\hyper@last\relax 
\gdef\HyperFirstAtBeginDocument#1{#1}
\providecommand*\HyPL@Entry[1]{}
\citation{harper1993}
\citation{DBLP:conf/csl/BlanquiJR08}
\citation{DBLP:conf/popl/XiP99}
\citation{DBLP:conf/tldi/Norell09}
\citation{DBLP:conf/csl/Strub10}
\HyPL@Entry{0<</S/D>>}
\select@language{UKenglish}
\@writefile{toc}{\select@language{UKenglish}}
\@writefile{lof}{\select@language{UKenglish}}
\@writefile{lot}{\select@language{UKenglish}}
\@writefile{toc}{\contentsline {section}{\numberline {1}Introduction}{1}{section.1}}
\newlabel{s:introduction}{{1}{1}{Introduction}{section.1}{}}
\citation{barendregt92}
\@writefile{toc}{\contentsline {section}{\numberline {2}Higher-Order Algebras $\lambda _\Sigma ^{^{\rightarrow }}$}{2}{section.2}}
\newlabel{s:hoa}{{2}{2}{Higher-Order Algebras $\lamF $}{section.2}{}}
\providecommand*\caption@xref[2]{\@setref\relax\@undefined{#1}}
\newlabel{fig:terms}{{1}{2}{Type system for monomorphic higher-order algebras\relax }{figure.caption.1}{}}
\citation{DBLP:journals/jacm/JouannaudR07}
\citation{DBLP:conf/csl/BlanquiJR08}
\citation{DBLP:conf/csl/BlanquiJR08}
\citation{DBLP:conf/csl/BlanquiJR08}
\citation{DBLP:journals/tcs/Dershowitz82}
\citation{DBLP:conf/csl/BlanquiJR08}
\citation{harper1993}
\citation{Pfenning89elf:a}
\newlabel{wf}{{2}{3}{Higher-Order Algebras $\lamF $}{figure.caption.1}{}}
\newlabel{ras}{{2}{3}{Higher-Order Algebras $\lamF $}{figure.caption.1}{}}
\newlabel{pres}{{2}{3}{Higher-Order Algebras $\lamF $}{figure.caption.1}{}}
\newlabel{rad}{{2}{3}{Higher-Order Algebras $\lamF $}{figure.caption.1}{}}
\newlabel{d:cpo}{{1}{3}{}{thm.1}{}}
\newlabel{var}{{1}{3}{}{thm.1}{}}
\newlabel{subtlam}{{1}{3}{}{thm.1}{}}
\newlabel{precbig}{{1}{3}{}{thm.1}{}}
\newlabel{apppreclam}{{1}{3}{}{thm.1}{}}
\citation{DBLP:conf/icalp/Barthe98}
\@writefile{toc}{\contentsline {section}{\numberline {3}Dependent algebras $\lambda _\Sigma ^{^\Pi }$}{4}{section.3}}
\newlabel{s:dependent}{{3}{4}{Dependent algebras $\lamPi $}{section.3}{}}
\@writefile{toc}{\contentsline {subsection}{\numberline {3.1}Typing judgements}{4}{subsection.3.1}}
\newlabel{s:LF typing rules}{{3.1}{4}{Typing judgements}{subsection.3.1}{}}
\newlabel{l:subst}{{3}{4}{}{thm.3}{}}
\newlabel{fig:typing}{{2}{5}{{\bf \quad \LF Typing rules\label {fig:typing}}\relax }{figure.caption.2}{}}
\citation{PM93}
\citation{DBLP:conf/rta/BlanquiJO99}
\citation{DBLP:conf/csl/Strub10}
\citation{BarrasJSW11}
\citation{DBLP:conf/pldi/RondonKJ08}
\citation{DBLP:conf/rta/BlanquiJO99}
\@writefile{toc}{\contentsline {subsection}{\numberline {3.2}Dependent rewriting and convertibility}{6}{subsection.3.2}}
\newlabel{s:LF_rules}{{3.2}{6}{Dependent rewriting and convertibility}{subsection.3.2}{}}
\newlabel{d:pdrs}{{4}{6}{}{thm.4}{}}
\newlabel{d:dr}{{5}{6}{Dependent rewriting}{thm.5}{}}
\newlabel{ex:dependent-example}{{3.1}{6}{}{theorem.3.1}{}}
\@writefile{toc}{\contentsline {section}{\numberline {4}Encoding {\sc  LF}\xspace  in higher-order algebras}{7}{section.4}}
\newlabel{s:encoding}{{4}{7}{Encoding \LF in higher-order algebras}{section.4}{}}
\@writefile{toc}{\contentsline {subsection}{\numberline {4.1}Type erasures}{7}{subsection.4.1}}
\newlabel{d:erase}{{6}{7}{}{thm.6}{}}
\newlabel{l:stableerasures}{{7}{7}{}{thm.7}{}}
\newlabel{l:freeness_corollary}{{8}{7}{}{thm.8}{}}
\newlabel{l:convequality}{{9}{7}{Conversion equality}{thm.9}{}}
\newlabel{l:conversion_equality}{{9}{7}{Conversion equality}{thm.9}{}}
\@writefile{toc}{\contentsline {subsection}{\numberline {4.2}Term flattening}{8}{subsection.4.2}}
\newlabel{ss:tf}{{4.2}{8}{Term flattening}{subsection.4.2}{}}
\newlabel{d:flattening}{{11}{8}{}{thm.11}{}}
\newlabel{l:soundness}{{12}{8}{}{thm.12}{}}
\newlabel{l:stability}{{12}{8}{}{thm.12}{}}
\@writefile{toc}{\contentsline {subsection}{\numberline {4.3}Preservation of reductions by flattening}{8}{subsection.4.3}}
\newlabel{l:reduction-preserving-of-flattening}{{14}{9}{}{thm.14}{}}
\newlabel{ss:example-transformation}{{4.1}{9}{}{theorem.4.1}{}}
\newlabel{t:non-termination preserving}{{16}{10}{}{thm.16}{}}
\@writefile{toc}{\contentsline {subsection}{\numberline {4.4}Inverse encoding}{10}{subsection.4.4}}
\newlabel{reversing}{{18}{10}{}{thm.18}{}}
\newlabel{l:reversibility}{{19}{10}{Reversibility}{thm.19}{}}
\newlabel{c:invhomo}{{20}{10}{}{thm.20}{}}
\newlabel{c:inversestability}{{21}{10}{inverse stability}{thm.21}{}}
\newlabel{l:inverse-preservation}{{22}{10}{}{thm.22}{}}
\citation{DBLP:journals/jacm/JouannaudR07}
\citation{DBLP:conf/csl/BlanquiJR08}
\citation{DBLP:conf/csl/BlanquiJR08lmcs}
\@writefile{toc}{\contentsline {section}{\numberline {5}The Dependent Computability Path Ordering}{11}{section.5}}
\newlabel{s:dcpo}{{5}{11}{The Dependent Computability Path Ordering}{section.5}{}}
\newlabel{containement}{{5}{11}{The Dependent Computability Path Ordering}{section.5}{}}
\newlabel{dwf}{{5}{11}{The Dependent Computability Path Ordering}{section.5}{}}
\newlabel{pbs}{{5}{11}{The Dependent Computability Path Ordering}{section.5}{}}
\newlabel{pp}{{5}{11}{The Dependent Computability Path Ordering}{section.5}{}}
\newlabel{pd}{{5}{11}{The Dependent Computability Path Ordering}{section.5}{}}
\newlabel{d:dcpo}{{24}{11}{DCPO}{thm.24}{}}
\newlabel{dcpo:var}{{1}{11}{DCPO}{Item.9}{}}
\newlabel{dcpo:subtap}{{2}{11}{DCPO}{Item.10}{}}
\newlabel{dcpo:subtpi}{{3}{11}{DCPO}{Item.11}{}}
\newlabel{dcpo:preclam}{{4}{11}{DCPO}{Item.12}{}}
\newlabel{dcpo:statabs}{{5}{11}{DCPO}{Item.13}{}}
\newlabel{dcpo:statpi}{{6}{11}{DCPO}{Item.14}{}}
\newlabel{dcpo:beta}{{7}{11}{DCPO}{Item.15}{}}
\newlabel{dcpo:else}{{8}{11}{DCPO}{Item.16}{}}
\newlabel{dcpo:subt}{{8}{11}{DCPO}{Item.16}{}}
\newlabel{dcpo:prec}{{8}{11}{DCPO}{Item.16}{}}
\newlabel{dcpo:stat}{{8}{11}{DCPO}{Item.16}{}}
\citation{DBLP:journals/jacm/JouannaudR07}
\@writefile{toc}{\contentsline {subsection}{\numberline {5.1}Example}{12}{subsection.5.1}}
\@writefile{toc}{\contentsline {subsection}{\numberline {5.2}Properties of DCPO}{12}{subsection.5.2}}
\newlabel{l:mon}{{25}{12}{Monotonicity, stability}{thm.25}{}}
\newlabel{d:flattypedef}{{5.1}{12}{}{theorem.5.1}{}}
\newlabel{l:type-soundness}{{27}{13}{}{thm.27}{}}
\newlabel{l:dcposound}{{28}{13}{}{thm.28}{}}
\newlabel{t:dcposn}{{30}{13}{Well-foundedness of DCPO}{thm.30}{}}
\@writefile{toc}{\contentsline {subsection}{\numberline {5.3}A realistic example}{13}{subsection.5.3}}
\citation{DBLP:conf/rta/Blanqui04}
\citation{DBLP:journals/jfp/Xi07}
\citation{DBLP:conf/lpar/BorrallerasR01}
\citation{DBLP:conf/csl/BlanquiJR08lmcs}
\@writefile{toc}{\contentsline {section}{\numberline {6}Conclusion}{14}{section.6}}
\newlabel{s:related}{{6}{14}{Conclusion}{section.6}{}}
\bibcite{DBLP:journals/tcs/ArtsG00}{1}
\bibcite{barendregt92}{2}
\bibcite{BarrasJSW11}{3}
\bibcite{DBLP:conf/icalp/Barthe98}{4}
\bibcite{DBLP:conf/rta/Blanqui04}{5}
\bibcite{DBLP:journals/corr/abs-cs-0610065}{6}
\bibcite{DBLP:conf/rta/BlanquiJO99}{7}
\bibcite{DBLP:conf/lpar/BlanquiJR07}{8}
\bibcite{DBLP:conf/csl/BlanquiJR08}{9}
\bibcite{DBLP:conf/csl/BlanquiJR08lmcs}{10}
\bibcite{DBLP:conf/lpar/BorrallerasR01}{11}
\bibcite{DBLP:journals/tcs/Dershowitz82}{12}
\bibcite{harper1993}{13}
\bibcite{DBLP:journals/jacm/JouannaudR07}{14}
\bibcite{DBLP:journals/corr/abs-1109-5468}{15}
\bibcite{DBLP:conf/tldi/Norell09}{16}
\bibcite{PM93}{17}
\bibcite{Pfenning89elf:a}{18}
\bibcite{DBLP:conf/pldi/RondonKJ08}{19}
\bibcite{DBLP:conf/csl/Strub10}{20}
\bibcite{DBLP:journals/corr/abs-1109-4357}{21}
\bibcite{DBLP:journals/jfp/Xi07}{22}
\bibcite{DBLP:conf/popl/XiP99}{23}
\newlabel{LastPage}{{}{16}{}{page.16}{}}
\xdef\lastpage@lastpage{16}
\xdef\lastpage@lastpageHy{16}
