\relax 
\providecommand\hyper@newdestlabel[2]{}
\providecommand\HyperFirstAtBeginDocument{\AtBeginDocument}
\HyperFirstAtBeginDocument{\ifx\hyper@anchor\@undefined
\global\let\oldcontentsline\contentsline
\gdef\contentsline#1#2#3#4{\oldcontentsline{#1}{#2}{#3}}
\global\let\oldnewlabel\newlabel
\gdef\newlabel#1#2{\newlabelxx{#1}#2}
\gdef\newlabelxx#1#2#3#4#5#6{\oldnewlabel{#1}{{#2}{#3}}}
\AtEndDocument{\ifx\hyper@anchor\@undefined
\let\contentsline\oldcontentsline
\let\newlabel\oldnewlabel
\fi}
\fi}
\global\let\hyper@last\relax 
\gdef\HyperFirstAtBeginDocument#1{#1}
\providecommand\HyField@AuxAddToFields[1]{}
\providecommand\HyField@AuxAddToCoFields[2]{}
\select@language{UKenglish}
\@writefile{toc}{\select@language{UKenglish}}
\@writefile{lof}{\select@language{UKenglish}}
\@writefile{lot}{\select@language{UKenglish}}
\@writefile{toc}{\contentsline {section}{\numberline {1}Introduction}{1}{section.1}}
\citation{HAH12b}
\citation{HM:2014}
\citation{HAH12b}
\citation{HAH12b}
\citation{HS14}
\citation{HAH12b}
\citation{Seidl:1989}
\citation{Seidl:1989}
\citation{HAH12b}
\citation{GBEFFOPSSST14}
\citation{AvanziniM13a}
\citation{HiM:2014}
\citation{HM:2014}
\citation{BN98,TeReSe}
\citation{tata2007}
\newlabel{ex:1}{{1}{3}{Introduction}{section.1}{}}
\@writefile{toc}{\contentsline {section}{\numberline {2}Term Rewrite Systems and Tree Automata}{3}{section.2}}
\providecommand*\caption@xref[2]{\@setref\relax\@undefined{#1}}
\newlabel{fig:1}{{1}{4}{Operational Big-Step Semantics\relax }{figure.caption.1}{}}
\citation{Seidl:1989,Seidl:1992}
\citation{Seidl:1989}
\newlabel{p:1}{{1}{5}{}{theorem.2.1}{}}
\@writefile{toc}{\contentsline {section}{\numberline {3}Resource Functions}{5}{section.3}}
\newlabel{Resource Functions}{{3}{5}{Resource Functions}{section.3}{}}
\newlabel{d:basepolynomial}{{2}{5}{}{theorem.3.2}{}}
\citation{HAH12b}
\citation{HAH:2012,HAH12b}
\citation{HAH12b}
\citation{HAH12b}
\newlabel{ex:2}{{3}{6}{Resource Functions}{theorem.3.4}{}}
\newlabel{d:resourcepolynomial}{{5}{6}{}{theorem.3.5}{}}
\newlabel{l:1}{{6}{6}{}{theorem.3.6}{}}
\newlabel{l:2}{{7}{7}{}{theorem.3.7}{}}
\citation{HAH:2012,HAH12b,HM:2014}
\newlabel{l:3}{{9}{8}{}{theorem.3.9}{}}
\newlabel{d:shift}{{11}{8}{}{theorem.3.11}{}}
\newlabel{eq:shift}{{1}{8}{}{equation.3.1}{}}
\newlabel{l:4}{{12}{8}{}{theorem.3.12}{}}
\citation{HAH:2012,HAH12b,HM:2014}
\citation{HAH12b}
\newlabel{l:5}{{13}{9}{}{theorem.3.13}{}}
\@writefile{toc}{\contentsline {section}{\numberline {4}Amortised Cost Analysis}{9}{section.4}}
\newlabel{Amortised Cost Analysis}{{4}{9}{Amortised Cost Analysis}{section.4}{}}
\citation{HM:2014}
\newlabel{fig:2}{{2}{10}{Multivariate Analysis of Term Rewrite Systems\relax }{figure.caption.2}{}}
\newlabel{def:bounded}{{15}{10}{}{theorem.4.15}{}}
\citation{HAH12b}
\newlabel{fig:3}{{3}{11}{Derivation of $\tjudge {x,y}{\overline {M}_2}{y \mPlus (x \mMal y)}{M'}$\relax }{figure.caption.3}{}}
\newlabel{eq:bounded}{{2}{11}{}{equation.4.2}{}}
\newlabel{ex:4}{{4}{11}{Amortised Cost Analysis}{figure.caption.3}{}}
\newlabel{eq:ex4:1}{{3}{11}{Amortised Cost Analysis}{equation.4.3}{}}
\newlabel{eq:ex4:2}{{4}{11}{Amortised Cost Analysis}{equation.4.4}{}}
\newlabel{eq:ex4:3}{{5}{11}{Amortised Cost Analysis}{equation.4.5}{}}
\newlabel{eq:ex4:4}{{6}{11}{Amortised Cost Analysis}{equation.4.6}{}}
\newlabel{eq:ex4:5}{{7}{12}{Amortised Cost Analysis}{equation.4.7}{}}
\newlabel{t:1}{{16}{12}{}{theorem.4.16}{}}
\newlabel{eq:composition}{{8}{12}{Amortised Cost Analysis}{equation.4.8}{}}
\newlabel{ex:5}{{4}{13}{Amortised Cost Analysis}{theorem.4.17}{}}
\citation{HM:2014}
\citation{HS14}
\citation{HAH:2012}
\citation{AAGPR14}
\citation{SZV:2014}
\citation{BEFFG14}
\citation{AM:15}
\citation{HAH:2012}
\citation{GBEFFOPSSST14}
\citation{AvanziniM13a}
\@writefile{toc}{\contentsline {section}{\numberline {5}Conclusion}{14}{section.5}}
\newlabel{Conclusion}{{5}{14}{Conclusion}{section.5}{}}
\citation{HAH:2012}
\bibcite{AAGPR14}{1}
\bibcite{AvanziniM13a}{2}
\bibcite{AM:15}{3}
\bibcite{BN98}{4}
\bibcite{BEFFG14}{5}
\bibcite{tata2007}{6}
\bibcite{GBEFFOPSSST14}{7}
\bibcite{HiM:2014}{8}
\bibcite{HAH12b}{9}
\bibcite{HAH:2012}{10}
\bibcite{HS14}{11}
\bibcite{HM:2014}{12}
\bibcite{Seidl:1989}{13}
\bibcite{Seidl:1992}{14}
\bibcite{SZV:2014}{15}
\bibcite{TeReSe}{16}
\newlabel{LastPage}{{}{15}{}{page.15}{}}
\xdef\lastpage@lastpage{15}
\xdef\lastpage@lastpageHy{15}
